G04 Layer_Physical_Order=2*
G04 Layer_Color=16711680*
%FSLAX25Y25*%
%MOIN*%
G70*
G01*
G75*
%ADD10R,0.05906X0.05512*%
%ADD11C,0.02000*%
%ADD12C,0.30000*%
%ADD13C,0.12598*%
%ADD14C,0.07500*%
%ADD15C,0.24410*%
%ADD16R,0.06142X0.06142*%
%ADD17C,0.06142*%
%ADD18C,0.05906*%
%ADD19R,0.05906X0.05906*%
%ADD20C,0.10630*%
%ADD21R,0.10000X0.10000*%
%ADD22C,0.10000*%
%ADD23C,0.05000*%
%ADD24R,0.04331X0.05512*%
%ADD25R,0.01378X0.03150*%
%ADD26R,0.05512X0.05906*%
%ADD27R,0.05512X0.04724*%
%ADD28C,0.01000*%
G36*
X612500Y287500D02*
Y234375D01*
X612000Y234249D01*
X611766Y234687D01*
X610829Y235829D01*
X609687Y236766D01*
X608384Y237463D01*
X606970Y237892D01*
X605500Y238036D01*
X604030Y237892D01*
X602616Y237463D01*
X601313Y236766D01*
X600171Y235829D01*
X599234Y234687D01*
X598537Y233384D01*
X598108Y231970D01*
X597964Y230500D01*
X598108Y229030D01*
X598537Y227616D01*
X599234Y226313D01*
X600171Y225171D01*
X601313Y224234D01*
X602616Y223537D01*
X604030Y223109D01*
X605500Y222964D01*
X606970Y223109D01*
X608384Y223537D01*
X609687Y224234D01*
X610829Y225171D01*
X611766Y226313D01*
X612000Y226750D01*
X612500Y226625D01*
Y210000D01*
X607500Y205000D01*
X153587D01*
Y205453D01*
X134413D01*
Y205000D01*
X117500D01*
X107500Y195000D01*
X10000D01*
X5000Y200000D01*
Y280153D01*
X5500Y280308D01*
X6917Y279145D01*
X8655Y278217D01*
X10540Y277645D01*
X12500Y277452D01*
X14460Y277645D01*
X16345Y278217D01*
X18083Y279145D01*
X19605Y280395D01*
X20855Y281917D01*
X21783Y283655D01*
X22355Y285540D01*
X22548Y287500D01*
X22355Y289460D01*
X21783Y291345D01*
X21396Y292071D01*
X21653Y292500D01*
X315847D01*
X316104Y292071D01*
X315717Y291345D01*
X315145Y289460D01*
X314952Y287500D01*
X315145Y285540D01*
X315717Y283655D01*
X316645Y281917D01*
X317895Y280395D01*
X319417Y279145D01*
X321155Y278217D01*
X323040Y277645D01*
X325000Y277452D01*
X326960Y277645D01*
X328845Y278217D01*
X330583Y279145D01*
X332105Y280395D01*
X333355Y281917D01*
X334283Y283655D01*
X334855Y285540D01*
X335048Y287500D01*
X334855Y289460D01*
X334283Y291345D01*
X333896Y292071D01*
X334153Y292500D01*
X355714D01*
X355763Y292000D01*
X355461Y291940D01*
X353289Y291203D01*
X351231Y290188D01*
X349324Y288913D01*
X347599Y287401D01*
X346087Y285676D01*
X344812Y283769D01*
X343797Y281711D01*
X343060Y279539D01*
X342613Y277289D01*
X342462Y275000D01*
X342613Y272711D01*
X343060Y270461D01*
X343797Y268289D01*
X344812Y266231D01*
X346087Y264324D01*
X347599Y262599D01*
X349324Y261087D01*
X351231Y259812D01*
X353289Y258797D01*
X355461Y258060D01*
X357711Y257612D01*
X360000Y257462D01*
X362289Y257612D01*
X364539Y258060D01*
X366711Y258797D01*
X368769Y259812D01*
X370676Y261087D01*
X372401Y262599D01*
X373914Y264324D01*
X375188Y266231D01*
X376203Y268289D01*
X376940Y270461D01*
X377387Y272711D01*
X377538Y275000D01*
X377387Y277289D01*
X376940Y279539D01*
X376203Y281711D01*
X375188Y283769D01*
X373914Y285676D01*
X372401Y287401D01*
X370676Y288913D01*
X368769Y290188D01*
X366711Y291203D01*
X364539Y291940D01*
X364237Y292000D01*
X364286Y292500D01*
X607500D01*
X612500Y287500D01*
D02*
G37*
G36*
X645000Y175000D02*
Y34000D01*
X612000Y5000D01*
X330024D01*
X329869Y5500D01*
X331040Y6460D01*
X332102Y7755D01*
X332891Y9231D01*
X333377Y10834D01*
X333541Y12500D01*
X333377Y14166D01*
X332891Y15768D01*
X332102Y17245D01*
X331040Y18540D01*
X329745Y19602D01*
X328269Y20391D01*
X326666Y20877D01*
X325000Y21041D01*
X323334Y20877D01*
X321731Y20391D01*
X320255Y19602D01*
X318960Y18540D01*
X317898Y17245D01*
X317109Y15768D01*
X316623Y14166D01*
X316459Y12500D01*
X316623Y10834D01*
X317109Y9231D01*
X317898Y7755D01*
X318960Y6460D01*
X320131Y5500D01*
X319976Y5000D01*
X220000D01*
X212500Y12500D01*
Y22500D01*
Y135000D01*
X210000Y137500D01*
X10000D01*
X5000Y142500D01*
Y187500D01*
X10000Y192500D01*
X107500Y192500D01*
X119500Y202341D01*
X131072D01*
X131153Y202092D01*
X131156Y201841D01*
X130558Y201442D01*
X130558Y201442D01*
X125153Y196036D01*
X124711Y195375D01*
X124555Y194595D01*
Y181823D01*
X123775Y181225D01*
X123142Y180399D01*
X122743Y179437D01*
X122608Y178405D01*
X122743Y177374D01*
X123142Y176412D01*
X123775Y175586D01*
X124601Y174953D01*
X125563Y174555D01*
X126594Y174419D01*
X127626Y174555D01*
X128588Y174953D01*
X129414Y175586D01*
X130047Y176412D01*
X130446Y177374D01*
X130581Y178405D01*
X130446Y179437D01*
X130047Y180399D01*
X129414Y181225D01*
X128634Y181823D01*
Y193750D01*
X132845Y197961D01*
X135913D01*
Y196047D01*
X143425D01*
Y202341D01*
X144575D01*
Y196047D01*
X146291D01*
Y194953D01*
X144575D01*
Y187047D01*
X146291D01*
Y180291D01*
X146430Y179594D01*
X146365Y179437D01*
X146230Y178405D01*
X146365Y177374D01*
X146764Y176412D01*
X147397Y175586D01*
X147506Y175503D01*
X147345Y175029D01*
X141277D01*
X141116Y175503D01*
X141225Y175586D01*
X141858Y176412D01*
X142256Y177374D01*
X142392Y178405D01*
X142256Y179437D01*
X141858Y180399D01*
X141709Y180594D01*
Y187047D01*
X143425D01*
Y194953D01*
X135913D01*
Y187047D01*
X137630D01*
Y182290D01*
X137374Y182256D01*
X136412Y181858D01*
X135586Y181225D01*
X134953Y180399D01*
X134555Y179437D01*
X134419Y178405D01*
X134555Y177374D01*
X134953Y176412D01*
X135586Y175586D01*
X135695Y175503D01*
X135535Y175029D01*
X133500D01*
X132915Y174913D01*
X132419Y174581D01*
X128090Y170253D01*
X127626Y170446D01*
X126594Y170581D01*
X125563Y170446D01*
X124601Y170047D01*
X123775Y169414D01*
X123142Y168588D01*
X122743Y167626D01*
X122608Y166595D01*
X122743Y165563D01*
X123142Y164601D01*
X123775Y163775D01*
X124555Y163177D01*
Y161587D01*
X122047D01*
Y154075D01*
X129953D01*
Y161587D01*
X128634D01*
Y163177D01*
X129414Y163775D01*
X130047Y164601D01*
X130446Y165563D01*
X130581Y166595D01*
X130446Y167626D01*
X130253Y168090D01*
X134134Y171971D01*
X140965D01*
X141157Y171509D01*
X139901Y170253D01*
X139437Y170446D01*
X138406Y170581D01*
X137374Y170446D01*
X136412Y170047D01*
X135586Y169414D01*
X134953Y168588D01*
X134555Y167626D01*
X134419Y166595D01*
X134555Y165563D01*
X134953Y164601D01*
X135586Y163775D01*
X136366Y163177D01*
Y161587D01*
X134047D01*
Y154075D01*
X141953D01*
Y161587D01*
X140445D01*
Y163177D01*
X141225Y163775D01*
X141858Y164601D01*
X142256Y165563D01*
X142392Y166595D01*
X142256Y167626D01*
X142064Y168090D01*
X143945Y169971D01*
X147345D01*
X147506Y169497D01*
X147397Y169414D01*
X146764Y168588D01*
X146365Y167626D01*
X146230Y166595D01*
X146365Y165563D01*
X146764Y164601D01*
X147397Y163775D01*
X148177Y163177D01*
Y161587D01*
X146047D01*
Y154075D01*
X152089D01*
X152281Y153613D01*
X151593Y152925D01*
X146047D01*
Y151208D01*
X141953D01*
Y152925D01*
X134047D01*
Y151208D01*
X129953D01*
Y152925D01*
X122047D01*
Y151208D01*
X87169D01*
X87169Y151208D01*
X86389Y151053D01*
X85727Y150611D01*
X82155Y147039D01*
X75587D01*
Y148953D01*
X73870D01*
Y151047D01*
X75587D01*
Y158953D01*
X74756D01*
Y163177D01*
X75536Y163775D01*
X76169Y164601D01*
X76568Y165563D01*
X76703Y166595D01*
X76568Y167626D01*
X76169Y168588D01*
X75536Y169414D01*
X74710Y170047D01*
X73748Y170446D01*
X72716Y170581D01*
X71685Y170446D01*
X70723Y170047D01*
X69897Y169414D01*
X69264Y168588D01*
X68866Y167626D01*
X68730Y166595D01*
X68866Y165563D01*
X69264Y164601D01*
X69897Y163775D01*
X70677Y163177D01*
Y158953D01*
X68075D01*
Y151047D01*
X69792D01*
Y148953D01*
X68075D01*
Y141047D01*
X75587D01*
Y142961D01*
X83000D01*
X83780Y143116D01*
X84442Y143558D01*
X88014Y147130D01*
X122047D01*
Y145413D01*
X129953D01*
Y147130D01*
X134047D01*
Y145413D01*
X141953D01*
Y147130D01*
X146047D01*
Y145413D01*
X153953D01*
Y150959D01*
X155464Y152471D01*
X158252D01*
Y147685D01*
X161630D01*
Y152471D01*
X163370D01*
Y147685D01*
X166748D01*
Y152835D01*
X166529D01*
Y153500D01*
X166413Y154085D01*
X166081Y154581D01*
X165998Y154665D01*
X166205Y155165D01*
X166748D01*
Y160315D01*
X166588D01*
Y168941D01*
X166472Y169526D01*
X166140Y170022D01*
X161581Y174581D01*
X161085Y174913D01*
X160500Y175029D01*
X153088D01*
X152927Y175503D01*
X153036Y175586D01*
X153669Y176412D01*
X154068Y177374D01*
X154203Y178405D01*
X154068Y179437D01*
X153669Y180399D01*
X153036Y181225D01*
X152210Y181858D01*
X151248Y182256D01*
X150370Y182372D01*
Y187047D01*
X152087D01*
Y194953D01*
X150370D01*
Y196047D01*
X152087D01*
Y202341D01*
X617659D01*
X645000Y175000D01*
D02*
G37*
%LPC*%
G36*
X413000Y156529D02*
X411824Y156413D01*
X410693Y156070D01*
X409651Y155513D01*
X408737Y154763D01*
X407987Y153849D01*
X407430Y152807D01*
X407087Y151676D01*
X406971Y150500D01*
X407087Y149324D01*
X407430Y148193D01*
X407987Y147151D01*
X408737Y146237D01*
X409651Y145487D01*
X410693Y144930D01*
X410961Y144849D01*
Y139256D01*
X409882D01*
Y131744D01*
X410961D01*
Y125756D01*
X409882D01*
Y118244D01*
X410961D01*
Y113756D01*
X409882D01*
Y106244D01*
X410961D01*
Y100756D01*
X409882D01*
Y93244D01*
X416213D01*
Y100756D01*
X415039D01*
Y106244D01*
X416213D01*
Y113756D01*
X415039D01*
Y118244D01*
X416213D01*
Y125756D01*
X415039D01*
Y131744D01*
X416213D01*
Y139256D01*
X415039D01*
Y144849D01*
X415307Y144930D01*
X416350Y145487D01*
X417263Y146237D01*
X418013Y147151D01*
X418570Y148193D01*
X418913Y149324D01*
X419029Y150500D01*
X418913Y151676D01*
X418570Y152807D01*
X418013Y153849D01*
X417263Y154763D01*
X416350Y155513D01*
X415307Y156070D01*
X414176Y156413D01*
X413000Y156529D01*
D02*
G37*
G36*
X266000Y109845D02*
X264762Y109724D01*
X263572Y109362D01*
X262475Y108776D01*
X261513Y107987D01*
X260724Y107025D01*
X260138Y105928D01*
X260019Y105539D01*
X248000D01*
X247220Y105384D01*
X246558Y104942D01*
X245069Y103453D01*
X240047D01*
Y95547D01*
X247953D01*
Y100569D01*
X248845Y101461D01*
X260019D01*
X260138Y101072D01*
X260724Y99975D01*
X261513Y99013D01*
X262475Y98224D01*
X263572Y97637D01*
X264762Y97276D01*
X266000Y97154D01*
X267238Y97276D01*
X268428Y97637D01*
X269525Y98224D01*
X270487Y99013D01*
X271276Y99975D01*
X271863Y101072D01*
X272224Y102262D01*
X272345Y103500D01*
X272224Y104738D01*
X271863Y105928D01*
X271276Y107025D01*
X270487Y107987D01*
X269525Y108776D01*
X268428Y109362D01*
X267238Y109724D01*
X266000Y109845D01*
D02*
G37*
G36*
X244000Y83487D02*
X242968Y83351D01*
X242007Y82953D01*
X241181Y82319D01*
X240547Y81493D01*
X240149Y80532D01*
X240013Y79500D01*
X240149Y78468D01*
X240547Y77507D01*
X241181Y76681D01*
X242007Y76047D01*
X242968Y75649D01*
X244000Y75513D01*
X244975Y75642D01*
X247058Y73558D01*
X247720Y73116D01*
X248500Y72961D01*
X261019D01*
X261138Y72572D01*
X261724Y71475D01*
X262513Y70513D01*
X263475Y69724D01*
X264572Y69138D01*
X265762Y68776D01*
X267000Y68655D01*
X268238Y68776D01*
X269428Y69138D01*
X270525Y69724D01*
X271487Y70513D01*
X272276Y71475D01*
X272863Y72572D01*
X273224Y73762D01*
X273345Y75000D01*
X273224Y76238D01*
X272863Y77428D01*
X272276Y78525D01*
X271487Y79487D01*
X270525Y80276D01*
X269428Y80862D01*
X268238Y81224D01*
X267000Y81345D01*
X265762Y81224D01*
X264572Y80862D01*
X263475Y80276D01*
X262513Y79487D01*
X261724Y78525D01*
X261138Y77428D01*
X261019Y77039D01*
X249345D01*
X247859Y78525D01*
X247987Y79500D01*
X247851Y80532D01*
X247453Y81493D01*
X246819Y82319D01*
X245993Y82953D01*
X245032Y83351D01*
X244000Y83487D01*
D02*
G37*
G36*
X266500Y95846D02*
X265262Y95724D01*
X264072Y95363D01*
X262975Y94776D01*
X262013Y93987D01*
X261224Y93025D01*
X260637Y91928D01*
X260520Y91539D01*
X247418D01*
X246819Y92319D01*
X245993Y92953D01*
X245032Y93351D01*
X244000Y93487D01*
X242968Y93351D01*
X242007Y92953D01*
X241181Y92319D01*
X240547Y91493D01*
X240149Y90532D01*
X240013Y89500D01*
X240149Y88468D01*
X240547Y87507D01*
X241181Y86681D01*
X242007Y86047D01*
X242968Y85649D01*
X244000Y85513D01*
X245032Y85649D01*
X245993Y86047D01*
X246819Y86681D01*
X247418Y87461D01*
X260520D01*
X260637Y87072D01*
X261224Y85975D01*
X262013Y85013D01*
X262975Y84224D01*
X264072Y83637D01*
X265262Y83276D01*
X266500Y83154D01*
X267738Y83276D01*
X268928Y83637D01*
X270025Y84224D01*
X270987Y85013D01*
X271776Y85975D01*
X272362Y87072D01*
X272724Y88262D01*
X272846Y89500D01*
X272724Y90738D01*
X272362Y91928D01*
X271776Y93025D01*
X270987Y93987D01*
X270025Y94776D01*
X268928Y95363D01*
X267738Y95724D01*
X266500Y95846D01*
D02*
G37*
G36*
X525500Y156529D02*
X524324Y156413D01*
X523193Y156070D01*
X522151Y155513D01*
X521237Y154763D01*
X520487Y153849D01*
X519930Y152807D01*
X519587Y151676D01*
X519471Y150500D01*
X519587Y149324D01*
X519930Y148193D01*
X520487Y147151D01*
X521237Y146237D01*
X522151Y145487D01*
X523193Y144930D01*
X523461Y144849D01*
Y140756D01*
X522382D01*
Y133244D01*
X523461D01*
Y129256D01*
X522382D01*
Y121744D01*
X523461D01*
Y117256D01*
X522382D01*
Y109744D01*
X523461D01*
Y105256D01*
X522382D01*
Y97744D01*
X528713D01*
Y105256D01*
X527539D01*
Y109744D01*
X528713D01*
Y117256D01*
X527539D01*
Y121744D01*
X528713D01*
Y129256D01*
X527539D01*
Y133244D01*
X528713D01*
Y140756D01*
X527539D01*
Y144849D01*
X527807Y144930D01*
X528850Y145487D01*
X529763Y146237D01*
X530513Y147151D01*
X531070Y148193D01*
X531413Y149324D01*
X531529Y150500D01*
X531413Y151676D01*
X531070Y152807D01*
X530513Y153849D01*
X529763Y154763D01*
X528850Y155513D01*
X527807Y156070D01*
X526676Y156413D01*
X525500Y156529D01*
D02*
G37*
G36*
X244000Y132987D02*
X242968Y132851D01*
X242007Y132453D01*
X241181Y131819D01*
X240547Y130993D01*
X240149Y130032D01*
X240013Y129000D01*
X240149Y127968D01*
X240547Y127007D01*
X241181Y126181D01*
X242007Y125547D01*
X242968Y125149D01*
X244000Y125013D01*
X245032Y125149D01*
X245993Y125547D01*
X246819Y126181D01*
X247453Y127007D01*
X247851Y127968D01*
X247987Y129000D01*
X247851Y130032D01*
X247453Y130993D01*
X246819Y131819D01*
X245993Y132453D01*
X245032Y132851D01*
X244000Y132987D01*
D02*
G37*
G36*
Y142987D02*
X242968Y142851D01*
X242007Y142453D01*
X241181Y141819D01*
X240547Y140993D01*
X240149Y140032D01*
X240013Y139000D01*
X240149Y137968D01*
X240547Y137007D01*
X241181Y136181D01*
X242007Y135547D01*
X242968Y135149D01*
X244000Y135013D01*
X245032Y135149D01*
X245993Y135547D01*
X246819Y136181D01*
X247418Y136961D01*
X257625D01*
X257996Y136461D01*
X257776Y135738D01*
X257655Y134500D01*
X257776Y133262D01*
X258137Y132072D01*
X258724Y130975D01*
X259513Y130013D01*
X260475Y129224D01*
X261572Y128638D01*
X262762Y128276D01*
X264000Y128155D01*
X265238Y128276D01*
X266428Y128638D01*
X267525Y129224D01*
X268487Y130013D01*
X269276Y130975D01*
X269863Y132072D01*
X270224Y133262D01*
X270345Y134500D01*
X270224Y135738D01*
X269863Y136928D01*
X269276Y138025D01*
X268487Y138987D01*
X267525Y139776D01*
X266428Y140363D01*
X265238Y140724D01*
X264000Y140846D01*
X262762Y140724D01*
X261572Y140363D01*
X261213Y140171D01*
X260942Y140442D01*
X260280Y140884D01*
X259500Y141039D01*
X247418D01*
X246819Y141819D01*
X245993Y142453D01*
X245032Y142851D01*
X244000Y142987D01*
D02*
G37*
G36*
X453000Y156529D02*
X451824Y156413D01*
X450693Y156070D01*
X449650Y155513D01*
X448737Y154763D01*
X447987Y153849D01*
X447430Y152807D01*
X447087Y151676D01*
X446971Y150500D01*
X447087Y149324D01*
X447430Y148193D01*
X447987Y147151D01*
X448737Y146237D01*
X449650Y145487D01*
X450693Y144930D01*
X451824Y144587D01*
X453000Y144471D01*
X454176Y144587D01*
X455307Y144930D01*
X456350Y145487D01*
X457263Y146237D01*
X458013Y147151D01*
X458570Y148193D01*
X458913Y149324D01*
X459029Y150500D01*
X458913Y151676D01*
X458570Y152807D01*
X458013Y153849D01*
X457263Y154763D01*
X456350Y155513D01*
X455307Y156070D01*
X454176Y156413D01*
X453000Y156529D01*
D02*
G37*
G36*
X37284Y170581D02*
X36252Y170446D01*
X35290Y170047D01*
X34464Y169414D01*
X33831Y168588D01*
X33432Y167626D01*
X33297Y166595D01*
X33432Y165563D01*
X33831Y164601D01*
X34464Y163775D01*
X35290Y163142D01*
X36252Y162743D01*
X37284Y162608D01*
X38258Y162736D01*
X57436Y143558D01*
X58098Y143116D01*
X58878Y142961D01*
X59413D01*
Y141047D01*
X66925D01*
Y148953D01*
X59413D01*
Y148002D01*
X58951Y147810D01*
X41142Y165620D01*
X41270Y166595D01*
X41135Y167626D01*
X40736Y168588D01*
X40103Y169414D01*
X39277Y170047D01*
X38315Y170446D01*
X37284Y170581D01*
D02*
G37*
G36*
X267000Y64846D02*
X265762Y64724D01*
X264572Y64363D01*
X263475Y63776D01*
X262513Y62987D01*
X261724Y62025D01*
X261138Y60928D01*
X261019Y60539D01*
X249500D01*
X248720Y60384D01*
X248058Y59942D01*
X245569Y57453D01*
X240547D01*
Y49547D01*
X248453D01*
Y54569D01*
X250345Y56461D01*
X261019D01*
X261138Y56072D01*
X261724Y54975D01*
X262513Y54013D01*
X263475Y53224D01*
X264572Y52637D01*
X265762Y52276D01*
X267000Y52154D01*
X268238Y52276D01*
X269428Y52637D01*
X270525Y53224D01*
X271487Y54013D01*
X272276Y54975D01*
X272863Y56072D01*
X273224Y57262D01*
X273345Y58500D01*
X273224Y59738D01*
X272863Y60928D01*
X272276Y62025D01*
X271487Y62987D01*
X270525Y63776D01*
X269428Y64363D01*
X268238Y64724D01*
X267000Y64846D01*
D02*
G37*
G36*
X374071Y38244D02*
X365929D01*
Y30102D01*
X374071D01*
Y38244D01*
D02*
G37*
G36*
X411571D02*
X403429D01*
Y30102D01*
X411571D01*
Y38244D01*
D02*
G37*
G36*
X244500Y37487D02*
X243468Y37351D01*
X242507Y36953D01*
X241681Y36319D01*
X241047Y35493D01*
X240649Y34532D01*
X240513Y33500D01*
X240649Y32468D01*
X241047Y31507D01*
X241681Y30681D01*
X242507Y30047D01*
X243468Y29649D01*
X244500Y29513D01*
X245475Y29642D01*
X248058Y27058D01*
X248720Y26616D01*
X249500Y26461D01*
X261019D01*
X261138Y26072D01*
X261724Y24975D01*
X262513Y24013D01*
X263475Y23224D01*
X264572Y22637D01*
X265762Y22276D01*
X267000Y22154D01*
X268238Y22276D01*
X269428Y22637D01*
X270525Y23224D01*
X271487Y24013D01*
X272276Y24975D01*
X272863Y26072D01*
X273224Y27262D01*
X273345Y28500D01*
X273224Y29738D01*
X272863Y30928D01*
X272276Y32025D01*
X271487Y32987D01*
X270525Y33776D01*
X269428Y34363D01*
X268238Y34724D01*
X267000Y34846D01*
X265762Y34724D01*
X264572Y34363D01*
X263475Y33776D01*
X262513Y32987D01*
X261724Y32025D01*
X261138Y30928D01*
X261019Y30539D01*
X250345D01*
X248358Y32525D01*
X248487Y33500D01*
X248351Y34532D01*
X247953Y35493D01*
X247319Y36319D01*
X246493Y36953D01*
X245532Y37351D01*
X244500Y37487D01*
D02*
G37*
G36*
X475000Y33845D02*
X473762Y33724D01*
X472572Y33362D01*
X471475Y32776D01*
X470513Y31987D01*
X469724Y31025D01*
X469137Y29928D01*
X468776Y28738D01*
X468654Y27500D01*
X468776Y26262D01*
X469137Y25072D01*
X469724Y23975D01*
X470513Y23013D01*
X471475Y22224D01*
X472572Y21637D01*
X473762Y21276D01*
X475000Y21155D01*
X476238Y21276D01*
X477428Y21637D01*
X478525Y22224D01*
X479487Y23013D01*
X480276Y23975D01*
X480863Y25072D01*
X481224Y26262D01*
X481346Y27500D01*
X481224Y28738D01*
X480863Y29928D01*
X480276Y31025D01*
X479487Y31987D01*
X478525Y32776D01*
X477428Y33362D01*
X476238Y33724D01*
X475000Y33845D01*
D02*
G37*
G36*
X502500D02*
X501262Y33724D01*
X500072Y33362D01*
X498975Y32776D01*
X498013Y31987D01*
X497224Y31025D01*
X496637Y29928D01*
X496276Y28738D01*
X496154Y27500D01*
X496276Y26262D01*
X496637Y25072D01*
X497224Y23975D01*
X498013Y23013D01*
X498975Y22224D01*
X500072Y21637D01*
X501262Y21276D01*
X502500Y21155D01*
X503738Y21276D01*
X504928Y21637D01*
X506025Y22224D01*
X506987Y23013D01*
X507776Y23975D01*
X508362Y25072D01*
X508724Y26262D01*
X508846Y27500D01*
X508724Y28738D01*
X508362Y29928D01*
X507776Y31025D01*
X506987Y31987D01*
X506025Y32776D01*
X504928Y33362D01*
X503738Y33724D01*
X502500Y33845D01*
D02*
G37*
G36*
X611571Y38244D02*
X603429D01*
Y30102D01*
X611571D01*
Y38244D01*
D02*
G37*
G36*
X267000Y49845D02*
X265762Y49724D01*
X264572Y49362D01*
X263475Y48776D01*
X262513Y47987D01*
X261724Y47025D01*
X261138Y45928D01*
X261019Y45539D01*
X247918D01*
X247319Y46319D01*
X246493Y46953D01*
X245532Y47351D01*
X244500Y47487D01*
X243468Y47351D01*
X242507Y46953D01*
X241681Y46319D01*
X241047Y45493D01*
X240649Y44532D01*
X240513Y43500D01*
X240649Y42468D01*
X241047Y41507D01*
X241681Y40681D01*
X242507Y40047D01*
X243468Y39649D01*
X244500Y39513D01*
X245532Y39649D01*
X246493Y40047D01*
X247319Y40681D01*
X247918Y41461D01*
X261019D01*
X261138Y41072D01*
X261724Y39975D01*
X262513Y39013D01*
X263475Y38224D01*
X264572Y37637D01*
X265762Y37276D01*
X267000Y37154D01*
X268238Y37276D01*
X269428Y37637D01*
X270525Y38224D01*
X271487Y39013D01*
X272276Y39975D01*
X272863Y41072D01*
X273224Y42262D01*
X273345Y43500D01*
X273224Y44738D01*
X272863Y45928D01*
X272276Y47025D01*
X271487Y47987D01*
X270525Y48776D01*
X269428Y49362D01*
X268238Y49724D01*
X267000Y49845D01*
D02*
G37*
G36*
X574071Y38244D02*
X565929D01*
Y30102D01*
X574071D01*
Y38244D01*
D02*
G37*
G36*
X449071D02*
X440929D01*
Y30102D01*
X449071D01*
Y38244D01*
D02*
G37*
G36*
X536571D02*
X528429D01*
Y30102D01*
X536571D01*
Y38244D01*
D02*
G37*
G36*
X47594Y272467D02*
X45287Y272285D01*
X43036Y271745D01*
X40898Y270859D01*
X38925Y269650D01*
X37165Y268146D01*
X35661Y266387D01*
X34452Y264413D01*
X33566Y262275D01*
X33026Y260024D01*
X32844Y257716D01*
X33026Y255409D01*
X33566Y253158D01*
X34452Y251020D01*
X35661Y249047D01*
X37165Y247287D01*
X38925Y245783D01*
X40898Y244574D01*
X43036Y243688D01*
X45287Y243148D01*
X47594Y242966D01*
X49902Y243148D01*
X52153Y243688D01*
X54291Y244574D01*
X56264Y245783D01*
X58025Y247287D01*
X59528Y249047D01*
X60737Y251020D01*
X61623Y253158D01*
X62163Y255409D01*
X62345Y257716D01*
X62163Y260024D01*
X61623Y262275D01*
X60737Y264413D01*
X59528Y266387D01*
X58025Y268146D01*
X56264Y269650D01*
X54291Y270859D01*
X52153Y271745D01*
X49902Y272285D01*
X47594Y272467D01*
D02*
G37*
G36*
X86516Y266342D02*
X84791Y266172D01*
X83132Y265669D01*
X81603Y264852D01*
X80264Y263752D01*
X79164Y262412D01*
X78347Y260884D01*
X77844Y259225D01*
X77674Y257500D01*
X77844Y255775D01*
X78347Y254116D01*
X79164Y252588D01*
X80264Y251248D01*
X81603Y250148D01*
X83132Y249331D01*
X84791Y248828D01*
X86516Y248658D01*
X88241Y248828D01*
X89899Y249331D01*
X91428Y250148D01*
X92768Y251248D01*
X93867Y252588D01*
X94684Y254116D01*
X95188Y255775D01*
X95358Y257500D01*
X95188Y259225D01*
X94684Y260884D01*
X93867Y262412D01*
X92768Y263752D01*
X91428Y264852D01*
X89899Y265669D01*
X88241Y266172D01*
X86516Y266342D01*
D02*
G37*
G36*
X454713Y258756D02*
X445382D01*
Y248244D01*
Y238244D01*
X445382D01*
X445466Y238040D01*
X445127Y237692D01*
X444470Y237892D01*
X443000Y238036D01*
X441530Y237892D01*
X440116Y237463D01*
X438813Y236766D01*
X437671Y235829D01*
X436734Y234687D01*
X436037Y233384D01*
X435608Y231970D01*
X435464Y230500D01*
X435608Y229030D01*
X436037Y227616D01*
X436734Y226313D01*
X437671Y225171D01*
X438813Y224234D01*
X440116Y223537D01*
X441530Y223109D01*
X443000Y222964D01*
X444470Y223109D01*
X445884Y223537D01*
X447187Y224234D01*
X448329Y225171D01*
X449266Y226313D01*
X449963Y227616D01*
X450391Y229030D01*
X450536Y230500D01*
X450391Y231970D01*
X450175Y232683D01*
X452543Y235051D01*
X453104Y235782D01*
X453457Y236634D01*
X453577Y237547D01*
Y238244D01*
X454713D01*
Y248244D01*
Y258756D01*
D02*
G37*
G36*
X260500Y236280D02*
X259275Y236160D01*
X258097Y235802D01*
X257011Y235222D01*
X256059Y234441D01*
X255278Y233489D01*
X254698Y232403D01*
X254340Y231225D01*
X254220Y230000D01*
X254340Y228775D01*
X254698Y227597D01*
X255278Y226511D01*
X256059Y225559D01*
X257011Y224778D01*
X258097Y224198D01*
X259275Y223840D01*
X260500Y223720D01*
X261725Y223840D01*
X262903Y224198D01*
X263989Y224778D01*
X264941Y225559D01*
X265722Y226511D01*
X266302Y227597D01*
X266660Y228775D01*
X266780Y230000D01*
X266660Y231225D01*
X266302Y232403D01*
X265722Y233489D01*
X264941Y234441D01*
X263989Y235222D01*
X262903Y235802D01*
X261725Y236160D01*
X260500Y236280D01*
D02*
G37*
G36*
X564713Y261256D02*
X555382D01*
Y250744D01*
Y240744D01*
X556517D01*
Y238308D01*
X556147Y237973D01*
X555500Y238036D01*
X554030Y237892D01*
X552616Y237463D01*
X551313Y236766D01*
X550171Y235829D01*
X549234Y234687D01*
X548537Y233384D01*
X548108Y231970D01*
X547964Y230500D01*
X548108Y229030D01*
X548537Y227616D01*
X549234Y226313D01*
X550171Y225171D01*
X551313Y224234D01*
X552616Y223537D01*
X554030Y223109D01*
X555500Y222964D01*
X556970Y223109D01*
X558384Y223537D01*
X559687Y224234D01*
X560829Y225171D01*
X561766Y226313D01*
X562463Y227616D01*
X562891Y229030D01*
X563036Y230500D01*
X562891Y231970D01*
X562667Y232712D01*
X563104Y233282D01*
X563457Y234134D01*
X563577Y235047D01*
Y240744D01*
X564713D01*
Y250744D01*
Y261256D01*
D02*
G37*
G36*
X260500Y281280D02*
X259275Y281160D01*
X258097Y280802D01*
X257011Y280222D01*
X256059Y279441D01*
X255278Y278489D01*
X254698Y277403D01*
X254340Y276225D01*
X254220Y275000D01*
X254340Y273775D01*
X254698Y272597D01*
X255278Y271511D01*
X256059Y270559D01*
X257011Y269778D01*
X258097Y269198D01*
X259275Y268840D01*
X260500Y268720D01*
X261725Y268840D01*
X262903Y269198D01*
X263989Y269778D01*
X264941Y270559D01*
X265722Y271511D01*
X266302Y272597D01*
X266660Y273775D01*
X266780Y275000D01*
X266660Y276225D01*
X266302Y277403D01*
X265722Y278489D01*
X264941Y279441D01*
X263989Y280222D01*
X262903Y280802D01*
X261725Y281160D01*
X260500Y281280D01*
D02*
G37*
G36*
X86500Y288853D02*
X84968Y288702D01*
X83495Y288255D01*
X82137Y287529D01*
X80947Y286553D01*
X79971Y285363D01*
X79245Y284005D01*
X78798Y282532D01*
X78647Y281000D01*
X78798Y279468D01*
X79245Y277995D01*
X79971Y276637D01*
X80947Y275447D01*
X82137Y274471D01*
X83495Y273745D01*
X84968Y273298D01*
X86500Y273147D01*
X88032Y273298D01*
X89505Y273745D01*
X90863Y274471D01*
X92053Y275447D01*
X93029Y276637D01*
X93755Y277995D01*
X94202Y279468D01*
X94353Y281000D01*
X94202Y282532D01*
X93755Y284005D01*
X93029Y285363D01*
X92053Y286553D01*
X90863Y287529D01*
X89505Y288255D01*
X88032Y288702D01*
X86500Y288853D01*
D02*
G37*
G36*
X229500Y281280D02*
X228275Y281160D01*
X227097Y280802D01*
X226011Y280222D01*
X225059Y279441D01*
X224278Y278489D01*
X223698Y277403D01*
X223340Y276225D01*
X223220Y275000D01*
X223340Y273775D01*
X223698Y272597D01*
X224278Y271511D01*
X225059Y270559D01*
X226011Y269778D01*
X227097Y269198D01*
X228275Y268840D01*
X229500Y268720D01*
X230725Y268840D01*
X231903Y269198D01*
X232989Y269778D01*
X233941Y270559D01*
X234722Y271511D01*
X235302Y272597D01*
X235660Y273775D01*
X235780Y275000D01*
X235660Y276225D01*
X235302Y277403D01*
X234722Y278489D01*
X233941Y279441D01*
X232989Y280222D01*
X231903Y280802D01*
X230725Y281160D01*
X229500Y281280D01*
D02*
G37*
G36*
X142500Y266342D02*
X140775Y266172D01*
X139116Y265669D01*
X137588Y264852D01*
X136248Y263752D01*
X135148Y262412D01*
X134331Y260884D01*
X133828Y259225D01*
X133658Y257500D01*
X133828Y255775D01*
X134331Y254116D01*
X135148Y252588D01*
X136248Y251248D01*
X137588Y250148D01*
X139116Y249331D01*
X140775Y248828D01*
X142500Y248658D01*
X144225Y248828D01*
X145884Y249331D01*
X147412Y250148D01*
X148752Y251248D01*
X149852Y252588D01*
X150669Y254116D01*
X151172Y255775D01*
X151342Y257500D01*
X151172Y259225D01*
X150669Y260884D01*
X149852Y262412D01*
X148752Y263752D01*
X147412Y264852D01*
X145884Y265669D01*
X144225Y266172D01*
X142500Y266342D01*
D02*
G37*
G36*
X122500D02*
X120775Y266172D01*
X119116Y265669D01*
X117588Y264852D01*
X116248Y263752D01*
X115148Y262412D01*
X114758Y261682D01*
X114258D01*
X113867Y262412D01*
X112768Y263752D01*
X111428Y264852D01*
X109899Y265669D01*
X108241Y266172D01*
X106516Y266342D01*
X104791Y266172D01*
X103132Y265669D01*
X101603Y264852D01*
X100264Y263752D01*
X99164Y262412D01*
X98347Y260884D01*
X97844Y259225D01*
X97674Y257500D01*
X97844Y255775D01*
X98347Y254116D01*
X99164Y252588D01*
X100264Y251248D01*
X101603Y250148D01*
X103132Y249331D01*
X104791Y248828D01*
X106516Y248658D01*
X108241Y248828D01*
X109899Y249331D01*
X111428Y250148D01*
X112768Y251248D01*
X113867Y252588D01*
X114258Y253318D01*
X114758D01*
X115148Y252588D01*
X116248Y251248D01*
X117588Y250148D01*
X119116Y249331D01*
X120775Y248828D01*
X122500Y248658D01*
X124225Y248828D01*
X125884Y249331D01*
X127412Y250148D01*
X128752Y251248D01*
X129852Y252588D01*
X130669Y254116D01*
X131172Y255775D01*
X131342Y257500D01*
X131172Y259225D01*
X130669Y260884D01*
X129852Y262412D01*
X128752Y263752D01*
X127412Y264852D01*
X125884Y265669D01*
X124225Y266172D01*
X122500Y266342D01*
D02*
G37*
G36*
X60905Y170581D02*
X59874Y170446D01*
X58912Y170047D01*
X58086Y169414D01*
X57453Y168588D01*
X57055Y167626D01*
X56919Y166595D01*
X57055Y165563D01*
X57453Y164601D01*
X58086Y163775D01*
X58912Y163142D01*
X59874Y162743D01*
X60905Y162608D01*
X61937Y162743D01*
X62899Y163142D01*
X63725Y163775D01*
X64358Y164601D01*
X64757Y165563D01*
X64892Y166595D01*
X64757Y167626D01*
X64358Y168588D01*
X63725Y169414D01*
X62899Y170047D01*
X61937Y170446D01*
X60905Y170581D01*
D02*
G37*
G36*
X25472Y186093D02*
X24441Y185957D01*
X23479Y185559D01*
X22653Y184925D01*
X22020Y184100D01*
X21621Y183138D01*
X21486Y182106D01*
X21621Y181074D01*
X22020Y180113D01*
X22653Y179287D01*
X23479Y178654D01*
X24441Y178255D01*
X25472Y178119D01*
X26504Y178255D01*
X27466Y178654D01*
X28292Y179287D01*
X28925Y180113D01*
X29324Y181074D01*
X29459Y182106D01*
X29324Y183138D01*
X28925Y184100D01*
X28292Y184925D01*
X27466Y185559D01*
X26504Y185957D01*
X25472Y186093D01*
D02*
G37*
G36*
X49095Y170581D02*
X48063Y170446D01*
X47101Y170047D01*
X46275Y169414D01*
X45642Y168588D01*
X45243Y167626D01*
X45108Y166595D01*
X45243Y165563D01*
X45642Y164601D01*
X46275Y163775D01*
X47101Y163142D01*
X48063Y162743D01*
X49095Y162608D01*
X50069Y162736D01*
X59247Y153558D01*
X59247Y153558D01*
X59413Y153447D01*
Y151047D01*
X66925D01*
Y158953D01*
X59620D01*
X52953Y165620D01*
X53081Y166595D01*
X52946Y167626D01*
X52547Y168588D01*
X51914Y169414D01*
X51088Y170047D01*
X50126Y170446D01*
X49095Y170581D01*
D02*
G37*
G36*
X565500Y156529D02*
X564324Y156413D01*
X563193Y156070D01*
X562150Y155513D01*
X561237Y154763D01*
X560487Y153849D01*
X559930Y152807D01*
X559587Y151676D01*
X559471Y150500D01*
X559587Y149324D01*
X559930Y148193D01*
X560487Y147151D01*
X561237Y146237D01*
X562150Y145487D01*
X563193Y144930D01*
X564324Y144587D01*
X565500Y144471D01*
X566676Y144587D01*
X567807Y144930D01*
X568850Y145487D01*
X569763Y146237D01*
X570513Y147151D01*
X571070Y148193D01*
X571413Y149324D01*
X571529Y150500D01*
X571413Y151676D01*
X571070Y152807D01*
X570513Y153849D01*
X569763Y154763D01*
X568850Y155513D01*
X567807Y156070D01*
X566676Y156413D01*
X565500Y156529D01*
D02*
G37*
G36*
X264000Y155345D02*
X262762Y155224D01*
X261572Y154862D01*
X260475Y154276D01*
X259513Y153487D01*
X258724Y152525D01*
X258137Y151428D01*
X258019Y151039D01*
X247953D01*
Y152953D01*
X240047D01*
Y145047D01*
X247953D01*
Y146961D01*
X258019D01*
X258137Y146572D01*
X258724Y145475D01*
X259513Y144513D01*
X260475Y143724D01*
X261572Y143138D01*
X262762Y142776D01*
X264000Y142655D01*
X265238Y142776D01*
X266428Y143138D01*
X267525Y143724D01*
X268487Y144513D01*
X269276Y145475D01*
X269863Y146572D01*
X270224Y147762D01*
X270345Y149000D01*
X270224Y150238D01*
X269863Y151428D01*
X269276Y152525D01*
X268487Y153487D01*
X267525Y154276D01*
X266428Y154862D01*
X265238Y155224D01*
X264000Y155345D01*
D02*
G37*
G36*
X493000Y238036D02*
X491530Y237892D01*
X490116Y237463D01*
X488813Y236766D01*
X487671Y235829D01*
X486734Y234687D01*
X486037Y233384D01*
X485608Y231970D01*
X485464Y230500D01*
X485608Y229030D01*
X486037Y227616D01*
X486734Y226313D01*
X487671Y225171D01*
X488813Y224234D01*
X490116Y223537D01*
X491530Y223109D01*
X493000Y222964D01*
X494470Y223109D01*
X495884Y223537D01*
X497187Y224234D01*
X498329Y225171D01*
X499266Y226313D01*
X499963Y227616D01*
X500391Y229030D01*
X500536Y230500D01*
X500391Y231970D01*
X499963Y233384D01*
X499266Y234687D01*
X498329Y235829D01*
X497187Y236766D01*
X495884Y237463D01*
X494470Y237892D01*
X493000Y238036D01*
D02*
G37*
G36*
X229500Y236280D02*
X228275Y236160D01*
X227097Y235802D01*
X226011Y235222D01*
X225059Y234441D01*
X224278Y233489D01*
X223698Y232403D01*
X223340Y231225D01*
X223220Y230000D01*
X223340Y228775D01*
X223698Y227597D01*
X224278Y226511D01*
X225059Y225559D01*
X226011Y224778D01*
X227097Y224198D01*
X228275Y223840D01*
X229500Y223720D01*
X230725Y223840D01*
X231903Y224198D01*
X232989Y224778D01*
X233941Y225559D01*
X234722Y226511D01*
X235302Y227597D01*
X235660Y228775D01*
X235780Y230000D01*
X235660Y231225D01*
X235302Y232403D01*
X234722Y233489D01*
X233941Y234441D01*
X232989Y235222D01*
X231903Y235802D01*
X230725Y236160D01*
X229500Y236280D01*
D02*
G37*
G36*
X162028Y186093D02*
X160996Y185957D01*
X160034Y185559D01*
X159208Y184925D01*
X158575Y184100D01*
X158177Y183138D01*
X158041Y182106D01*
X158177Y181074D01*
X158575Y180113D01*
X159208Y179287D01*
X160034Y178654D01*
X160996Y178255D01*
X162028Y178119D01*
X163059Y178255D01*
X164021Y178654D01*
X164847Y179287D01*
X165480Y180113D01*
X165879Y181074D01*
X166014Y182106D01*
X165879Y183138D01*
X165480Y184100D01*
X164847Y184925D01*
X164021Y185559D01*
X163059Y185957D01*
X162028Y186093D01*
D02*
G37*
G36*
X84528D02*
X83496Y185957D01*
X82534Y185559D01*
X81708Y184925D01*
X81075Y184100D01*
X80677Y183138D01*
X80541Y182106D01*
X80677Y181074D01*
X81075Y180113D01*
X81708Y179287D01*
X82534Y178654D01*
X83496Y178255D01*
X84528Y178119D01*
X85559Y178255D01*
X86521Y178654D01*
X87347Y179287D01*
X87980Y180113D01*
X88379Y181074D01*
X88514Y182106D01*
X88379Y183138D01*
X87980Y184100D01*
X87347Y184925D01*
X86521Y185559D01*
X85559Y185957D01*
X84528Y186093D01*
D02*
G37*
G36*
X102972D02*
X101941Y185957D01*
X100979Y185559D01*
X100153Y184925D01*
X99520Y184100D01*
X99121Y183138D01*
X98986Y182106D01*
X99121Y181074D01*
X99520Y180113D01*
X100153Y179287D01*
X100979Y178654D01*
X101941Y178255D01*
X102972Y178119D01*
X104004Y178255D01*
X104966Y178654D01*
X105792Y179287D01*
X106425Y180113D01*
X106824Y181074D01*
X106959Y182106D01*
X106824Y183138D01*
X106425Y184100D01*
X105792Y184925D01*
X104966Y185559D01*
X104004Y185957D01*
X102972Y186093D01*
D02*
G37*
%LPD*%
D10*
X150000Y149169D02*
D03*
Y157831D02*
D03*
X138000Y149169D02*
D03*
Y157831D02*
D03*
X126000Y149169D02*
D03*
Y157831D02*
D03*
D11*
X87169Y149169D02*
X126000D01*
X83000Y145000D02*
X87169Y149169D01*
X71831Y145000D02*
X83000D01*
X259500Y139000D02*
X264000Y134500D01*
X244000Y139000D02*
X259500D01*
X244000Y149000D02*
X264000D01*
X244500Y53500D02*
X249500Y58500D01*
X267000D01*
X244500Y43500D02*
X267000D01*
X244500Y33500D02*
X249500Y28500D01*
X267000D01*
X244000Y79500D02*
X248500Y75000D01*
X267000D01*
X244000Y89500D02*
X266500D01*
X244000Y99500D02*
X248000Y103500D01*
X266000D01*
X37284Y166595D02*
X58878Y145000D01*
X63169D01*
X49095Y166595D02*
X60689Y155000D01*
X63169D01*
X72716Y155886D02*
Y166595D01*
X71831Y155000D02*
X72716Y155886D01*
X71831Y145000D02*
Y155000D01*
X150000Y157831D02*
X150091Y157740D01*
X150000Y148500D02*
Y149169D01*
X138000D02*
X150000D01*
X126000D02*
X138000D01*
X150000Y157831D02*
X150216Y158047D01*
Y166595D01*
X138000Y157831D02*
X138406Y158236D01*
Y166595D01*
X126000Y157831D02*
X126594Y158425D01*
Y166595D01*
Y178405D02*
Y194595D01*
X132000Y200000D01*
X139669D01*
X138406Y178405D02*
X139669Y179669D01*
Y191000D01*
X148331Y180291D02*
X150216Y178405D01*
X148331Y180291D02*
Y191000D01*
Y200000D01*
X555500Y230500D02*
X560047Y235047D01*
Y246000D01*
Y256000D01*
X443000Y230500D02*
X450047Y237547D01*
Y243500D01*
Y253500D01*
X413000Y97047D02*
Y150500D01*
Y97047D02*
X413047Y97000D01*
X525500Y101547D02*
Y150500D01*
X630500Y177000D02*
X630500Y177000D01*
X625500Y214000D02*
X628250Y211250D01*
X609000Y214000D02*
X625500D01*
X607500Y212500D02*
X609000Y214000D01*
X628250Y206793D02*
Y211250D01*
Y206793D02*
X628500Y206543D01*
Y195500D02*
Y199457D01*
X625500Y192500D02*
X628500Y195500D01*
X625500Y192500D02*
Y192500D01*
D12*
X360000Y275000D02*
D03*
Y220000D02*
D03*
X187500Y120000D02*
D03*
X187000Y80000D02*
D03*
Y38000D02*
D03*
D13*
X81516Y120000D02*
D03*
X101516D02*
D03*
X117500D02*
D03*
X137500D02*
D03*
X81016Y80000D02*
D03*
X101016D02*
D03*
X117000D02*
D03*
X137000D02*
D03*
X81516Y38000D02*
D03*
X101516D02*
D03*
X117500D02*
D03*
X137500D02*
D03*
X86516Y257500D02*
D03*
X106516D02*
D03*
X122500D02*
D03*
X142500D02*
D03*
D14*
X260500Y275000D02*
D03*
X229500D02*
D03*
X260500Y230000D02*
D03*
X229500D02*
D03*
D15*
X47594Y257716D02*
D03*
Y217717D02*
D03*
Y120217D02*
D03*
X47095Y80216D02*
D03*
X48094Y38217D02*
D03*
D16*
X532500Y34173D02*
D03*
X370000D02*
D03*
X570000D02*
D03*
X407500D02*
D03*
X607500D02*
D03*
X445000D02*
D03*
D17*
X532500Y55827D02*
D03*
X370000D02*
D03*
X570000D02*
D03*
X407500D02*
D03*
X607500D02*
D03*
X445000D02*
D03*
D18*
X150216Y166595D02*
D03*
X138406Y178405D02*
D03*
X150216D02*
D03*
X138406Y166595D02*
D03*
X114784D02*
D03*
X126594Y178405D02*
D03*
X162028Y182106D02*
D03*
X102972D02*
D03*
X114784Y178405D02*
D03*
X126594Y166595D02*
D03*
X244000Y79500D02*
D03*
Y89500D02*
D03*
X72716Y166595D02*
D03*
X60905Y178405D02*
D03*
X72716D02*
D03*
X60905Y166595D02*
D03*
X37284D02*
D03*
X49095Y178405D02*
D03*
X84528Y182106D02*
D03*
X25472D02*
D03*
X37284Y178405D02*
D03*
X49095Y166595D02*
D03*
X244500Y33500D02*
D03*
Y43500D02*
D03*
X244000Y129000D02*
D03*
Y139000D02*
D03*
D19*
Y99500D02*
D03*
X244500Y53500D02*
D03*
X244000Y149000D02*
D03*
D20*
X502500Y27500D02*
D03*
X475000D02*
D03*
X266000Y103500D02*
D03*
X266500Y89500D02*
D03*
X267000Y75000D02*
D03*
Y58500D02*
D03*
Y43500D02*
D03*
Y28500D02*
D03*
X264000Y149000D02*
D03*
Y134500D02*
D03*
X502500Y55000D02*
D03*
X475000D02*
D03*
X86500Y216500D02*
D03*
Y281000D02*
D03*
D21*
X575500Y230500D02*
D03*
X463000D02*
D03*
D22*
X555500D02*
D03*
X605500D02*
D03*
Y150500D02*
D03*
X565500D02*
D03*
X525500D02*
D03*
X443000Y230500D02*
D03*
X493000D02*
D03*
Y150500D02*
D03*
X453000D02*
D03*
X413000D02*
D03*
D23*
X627500Y70000D02*
D03*
X335000D02*
D03*
D24*
X531453Y125500D02*
D03*
X525547D02*
D03*
X418953Y110000D02*
D03*
X413047D02*
D03*
X531453Y113500D02*
D03*
X525547D02*
D03*
X418953Y97000D02*
D03*
X413047D02*
D03*
X531453Y101500D02*
D03*
X525547D02*
D03*
X418953Y122000D02*
D03*
X413047D02*
D03*
X531453Y137000D02*
D03*
X525547D02*
D03*
X418953Y135500D02*
D03*
X413047D02*
D03*
X565953Y246000D02*
D03*
X560047D02*
D03*
X455953Y243500D02*
D03*
X450047D02*
D03*
X565953Y256000D02*
D03*
X560047D02*
D03*
X455953Y253500D02*
D03*
X450047D02*
D03*
D25*
X165059Y157740D02*
D03*
X162500D02*
D03*
X159941D02*
D03*
Y150260D02*
D03*
X162500D02*
D03*
X165059D02*
D03*
D26*
X71831Y145000D02*
D03*
X63169D02*
D03*
X71831Y155000D02*
D03*
X63169D02*
D03*
X148331Y191000D02*
D03*
X139669D02*
D03*
X148331Y200000D02*
D03*
X139669D02*
D03*
D27*
X628500Y199457D02*
D03*
Y206543D02*
D03*
D28*
X165000Y150319D02*
X165059Y150260D01*
X165000Y150319D02*
Y153500D01*
X164500Y154000D02*
X165000Y153500D01*
X154831Y154000D02*
X164500D01*
X150000Y149169D02*
X154831Y154000D01*
X143311Y171500D02*
X158000D01*
X138406Y166595D02*
X143311Y171500D01*
X158000D02*
X162500Y167000D01*
Y157740D02*
Y167000D01*
X126594Y166595D02*
X133500Y173500D01*
X160500D01*
X165059Y168941D01*
Y157740D02*
Y168941D01*
X150091Y157740D02*
X159941D01*
M02*
