G04 Layer_Physical_Order=1*
G04 Layer_Color=255*
%FSLAX25Y25*%
%MOIN*%
G70*
G01*
G75*
%ADD10R,0.05906X0.05512*%
%ADD11C,0.02000*%
%ADD12C,0.10630*%
%ADD13C,0.12598*%
%ADD14C,0.30000*%
%ADD15C,0.10000*%
%ADD16R,0.10000X0.10000*%
%ADD17C,0.06142*%
%ADD18R,0.06142X0.06142*%
%ADD19R,0.05906X0.05906*%
%ADD20C,0.05906*%
%ADD21C,0.24410*%
%ADD22C,0.07500*%
%ADD23C,0.05000*%
G36*
X210000Y132500D02*
Y107500D01*
X205000Y102500D01*
X117500D01*
X112500Y107500D01*
Y132500D01*
X117500Y137500D01*
X205000D01*
X210000Y132500D01*
D02*
G37*
G36*
X240000Y287500D02*
Y210000D01*
X235000Y205000D01*
X122500Y205000D01*
X117500Y210000D01*
Y250000D01*
Y285000D01*
Y287500D01*
X122500Y292500D01*
X235000D01*
X240000Y287500D01*
D02*
G37*
G36*
X369661Y202463D02*
X369787Y202476D01*
X369911Y202451D01*
X492549D01*
X495000Y200000D01*
Y156583D01*
X494598Y156285D01*
X494176Y156413D01*
X493000Y156529D01*
X491824Y156413D01*
X490693Y156070D01*
X489650Y155513D01*
X488737Y154763D01*
X487987Y153849D01*
X487430Y152807D01*
X487087Y151676D01*
X486971Y150500D01*
X487087Y149324D01*
X487430Y148193D01*
X487987Y147151D01*
X488737Y146237D01*
X489650Y145487D01*
X490693Y144930D01*
X491824Y144587D01*
X493000Y144471D01*
X494176Y144587D01*
X494598Y144715D01*
X495000Y144417D01*
Y75000D01*
X485000Y65000D01*
Y10000D01*
X480000Y5000D01*
X332347D01*
X332192Y5500D01*
X333355Y6917D01*
X334283Y8655D01*
X334855Y10540D01*
X335048Y12500D01*
X334855Y14460D01*
X334283Y16345D01*
X333355Y18083D01*
X332105Y19605D01*
X330583Y20855D01*
X328845Y21783D01*
X326960Y22355D01*
X325000Y22548D01*
X323040Y22355D01*
X321155Y21783D01*
X319417Y20855D01*
X317895Y19605D01*
X316645Y18083D01*
X315717Y16345D01*
X315145Y14460D01*
X314952Y12500D01*
X315145Y10540D01*
X315717Y8655D01*
X316645Y6917D01*
X317808Y5500D01*
X317653Y5000D01*
X220000D01*
X212500Y12500D01*
Y24754D01*
X212549Y25000D01*
Y50000D01*
X212500Y50246D01*
Y59854D01*
X212962Y60046D01*
X239059Y33948D01*
X239000Y33500D01*
X239188Y32076D01*
X239737Y30750D01*
X240611Y29611D01*
X241750Y28737D01*
X243076Y28188D01*
X244500Y28000D01*
X245923Y28188D01*
X247250Y28737D01*
X248389Y29611D01*
X249263Y30750D01*
X249812Y32076D01*
X250000Y33500D01*
X249812Y34923D01*
X249263Y36250D01*
X248389Y37389D01*
X247307Y38219D01*
X247276Y38500D01*
X247307Y38781D01*
X248389Y39611D01*
X249263Y40750D01*
X249812Y42077D01*
X250000Y43500D01*
X249812Y44923D01*
X249263Y46250D01*
X248389Y47389D01*
X248148Y47574D01*
X248309Y48047D01*
X249953D01*
Y58953D01*
X244040D01*
X227030Y75962D01*
Y79824D01*
X227492Y80015D01*
X230504Y77004D01*
X231235Y76443D01*
X232086Y76090D01*
X233000Y75970D01*
X239836D01*
X240111Y75611D01*
X241250Y74737D01*
X242577Y74188D01*
X244000Y74000D01*
X245424Y74188D01*
X246750Y74737D01*
X247889Y75611D01*
X248763Y76750D01*
X249312Y78076D01*
X249500Y79500D01*
X249312Y80923D01*
X248763Y82250D01*
X247889Y83389D01*
X246807Y84219D01*
X246776Y84500D01*
X246807Y84781D01*
X247889Y85611D01*
X248763Y86750D01*
X249312Y88077D01*
X249500Y89500D01*
X249312Y90924D01*
X248763Y92250D01*
X247889Y93389D01*
X247648Y93574D01*
X247809Y94047D01*
X249453D01*
Y104953D01*
X243540D01*
X241030Y107462D01*
Y123804D01*
X241530Y124121D01*
X242577Y123688D01*
X244000Y123500D01*
X245424Y123688D01*
X246750Y124237D01*
X247889Y125111D01*
X248763Y126250D01*
X249312Y127576D01*
X249500Y129000D01*
X249312Y130423D01*
X248763Y131750D01*
X247889Y132889D01*
X246807Y133719D01*
X246776Y134000D01*
X246807Y134281D01*
X247889Y135111D01*
X248763Y136250D01*
X248854Y136470D01*
X250000D01*
X250914Y136590D01*
X251765Y136943D01*
X252496Y137504D01*
X254996Y140004D01*
X255557Y140735D01*
X255910Y141586D01*
X256030Y142500D01*
Y146629D01*
X256530Y146703D01*
X256745Y145995D01*
X257471Y144637D01*
X258447Y143447D01*
X259637Y142471D01*
X260518Y142000D01*
Y141500D01*
X259637Y141029D01*
X258447Y140053D01*
X257471Y138863D01*
X256745Y137505D01*
X256298Y136032D01*
X256147Y134500D01*
X256298Y132968D01*
X256745Y131495D01*
X257471Y130137D01*
X258447Y128947D01*
X259637Y127971D01*
X260995Y127245D01*
X262468Y126798D01*
X264000Y126647D01*
X265532Y126798D01*
X267005Y127245D01*
X268363Y127971D01*
X269553Y128947D01*
X270529Y130137D01*
X271255Y131495D01*
X271702Y132968D01*
X271853Y134500D01*
X271702Y136032D01*
X271255Y137505D01*
X270529Y138863D01*
X269553Y140053D01*
X268363Y141029D01*
X267482Y141500D01*
Y142000D01*
X268363Y142471D01*
X269553Y143447D01*
X270529Y144637D01*
X271255Y145995D01*
X271702Y147468D01*
X271853Y149000D01*
X271702Y150532D01*
X271255Y152005D01*
X270529Y153363D01*
X269553Y154553D01*
X268363Y155529D01*
X267005Y156255D01*
X265532Y156702D01*
X264000Y156853D01*
X262468Y156702D01*
X260995Y156255D01*
X259637Y155529D01*
X258447Y154553D01*
X257471Y153363D01*
X256745Y152005D01*
X256530Y151297D01*
X256030Y151371D01*
Y177500D01*
X255910Y178414D01*
X255557Y179265D01*
X254996Y179996D01*
X237996Y196996D01*
X237265Y197557D01*
X236414Y197910D01*
X235500Y198030D01*
X142000D01*
X141086Y197910D01*
X140235Y197557D01*
X139504Y196996D01*
X126385Y183878D01*
X125171Y183718D01*
X123845Y183168D01*
X122705Y182294D01*
X121832Y181155D01*
X121282Y179829D01*
X121095Y178405D01*
X121282Y176982D01*
X121832Y175656D01*
X122705Y174517D01*
X123845Y173643D01*
X125171Y173093D01*
X126594Y172906D01*
X128018Y173093D01*
X129344Y173643D01*
X130483Y174517D01*
X131358Y175656D01*
X131907Y176982D01*
X132094Y178405D01*
X131955Y179463D01*
X132733Y180240D01*
X133148Y179962D01*
X133093Y179829D01*
X132906Y178405D01*
X133093Y176982D01*
X133642Y175656D01*
X134517Y174517D01*
X135656Y173643D01*
X136982Y173093D01*
X138406Y172906D01*
X139829Y173093D01*
X141155Y173643D01*
X142295Y174517D01*
X143168Y175656D01*
X143718Y176982D01*
X143905Y178405D01*
X143788Y179296D01*
X150962Y186470D01*
X157979D01*
X158091Y186141D01*
X158119Y185970D01*
X157265Y184856D01*
X156715Y183530D01*
X156528Y182106D01*
X156715Y180683D01*
X157265Y179356D01*
X158139Y178217D01*
X159278Y177343D01*
X160604Y176794D01*
X162028Y176607D01*
X163451Y176794D01*
X164778Y177343D01*
X165917Y178217D01*
X166790Y179356D01*
X167340Y180683D01*
X167527Y182106D01*
X167340Y183530D01*
X166790Y184856D01*
X165936Y185970D01*
X165964Y186141D01*
X166076Y186470D01*
X231538D01*
X240470Y177538D01*
Y165157D01*
X240104Y165033D01*
X239970Y165023D01*
X235902Y169091D01*
X235171Y169652D01*
X234319Y170004D01*
X233405Y170125D01*
X154381D01*
X154105Y170483D01*
X152966Y171358D01*
X151640Y171907D01*
X150216Y172094D01*
X148793Y171907D01*
X147467Y171358D01*
X146328Y170483D01*
X145454Y169344D01*
X144904Y168018D01*
X144717Y166595D01*
X144809Y165890D01*
X144336Y165657D01*
X143846Y166146D01*
X143905Y166595D01*
X143718Y168018D01*
X143168Y169344D01*
X142295Y170483D01*
X141155Y171358D01*
X139829Y171907D01*
X138406Y172094D01*
X136982Y171907D01*
X135656Y171358D01*
X134517Y170483D01*
X133642Y169344D01*
X133093Y168018D01*
X132906Y166595D01*
X132998Y165890D01*
X132525Y165657D01*
X132035Y166146D01*
X132094Y166595D01*
X131907Y168018D01*
X131358Y169344D01*
X130483Y170483D01*
X129344Y171358D01*
X128018Y171907D01*
X126594Y172094D01*
X125171Y171907D01*
X123845Y171358D01*
X122705Y170483D01*
X121832Y169344D01*
X121282Y168018D01*
X121095Y166595D01*
X121282Y165171D01*
X121832Y163845D01*
X122705Y162706D01*
X123845Y161831D01*
X125171Y161282D01*
X126594Y161095D01*
X127043Y161154D01*
X133204Y154992D01*
X133013Y154530D01*
X77962D01*
X66346Y166146D01*
X66405Y166595D01*
X66218Y168018D01*
X65668Y169344D01*
X64794Y170483D01*
X63655Y171358D01*
X62329Y171907D01*
X60905Y172094D01*
X59482Y171907D01*
X58156Y171358D01*
X57017Y170483D01*
X56142Y169344D01*
X55593Y168018D01*
X55406Y166595D01*
X55498Y165890D01*
X55025Y165657D01*
X54535Y166146D01*
X54594Y166595D01*
X54407Y168018D01*
X53857Y169344D01*
X52983Y170483D01*
X51844Y171358D01*
X50518Y171907D01*
X49095Y172094D01*
X47671Y171907D01*
X46345Y171358D01*
X45206Y170483D01*
X44331Y169344D01*
X43782Y168018D01*
X43595Y166595D01*
X43687Y165890D01*
X43214Y165657D01*
X42724Y166146D01*
X42783Y166595D01*
X42596Y168018D01*
X42046Y169344D01*
X41172Y170483D01*
X40033Y171358D01*
X38707Y171907D01*
X37284Y172094D01*
X35860Y171907D01*
X34534Y171358D01*
X33395Y170483D01*
X32520Y169344D01*
X31971Y168018D01*
X31784Y166595D01*
X31971Y165171D01*
X32520Y163845D01*
X33395Y162706D01*
X34534Y161831D01*
X35860Y161282D01*
X37284Y161095D01*
X37732Y161154D01*
X58087Y140798D01*
X58191Y140549D01*
X57857Y140049D01*
X10000D01*
X9025Y139855D01*
X8198Y139302D01*
X5000Y142500D01*
Y187500D01*
X9959Y192459D01*
X10000Y192451D01*
X107500D01*
X108475Y192645D01*
X109302Y193198D01*
X113024Y196919D01*
X120000Y202500D01*
X122254D01*
X122500Y202451D01*
X235000Y202451D01*
X235246Y202500D01*
X254754D01*
X255000Y202451D01*
X350089D01*
X350213Y202476D01*
X350339Y202463D01*
X350460Y202500D01*
X359427D01*
X360000Y202462D01*
X360573Y202500D01*
X369541D01*
X369661Y202463D01*
D02*
G37*
G36*
X107500Y92500D02*
X107000Y65000D01*
X102000Y60000D01*
X9500D01*
X5000Y65000D01*
Y92500D01*
X10000Y97500D01*
X102500D01*
X107500Y92500D01*
D02*
G37*
G36*
X209500D02*
Y65000D01*
X204500Y60000D01*
X117000D01*
X112000Y65000D01*
Y92500D01*
X117000Y97500D01*
X204500D01*
X209500Y92500D01*
D02*
G37*
G36*
X107500Y132500D02*
Y107500D01*
X102500Y102500D01*
X10000D01*
X5500Y107500D01*
Y132500D01*
X5500Y132500D01*
X5500Y133000D01*
X10000Y137500D01*
X102500D01*
X107500Y132500D01*
D02*
G37*
G36*
X112500Y287500D02*
Y200000D01*
X107500Y195000D01*
X10000D01*
X5500Y199500D01*
Y200000D01*
Y279724D01*
X5952Y279937D01*
X6917Y279145D01*
X8655Y278217D01*
X10540Y277645D01*
X12500Y277452D01*
X14460Y277645D01*
X16345Y278217D01*
X18083Y279145D01*
X19605Y280395D01*
X20855Y281917D01*
X21783Y283655D01*
X22355Y285540D01*
X22548Y287500D01*
X22355Y289460D01*
X21783Y291345D01*
X21396Y292071D01*
X21653Y292500D01*
X107500D01*
X112500Y287500D01*
D02*
G37*
G36*
X612500D02*
Y234375D01*
X612000Y234249D01*
X611766Y234687D01*
X610829Y235829D01*
X609687Y236766D01*
X608384Y237463D01*
X606970Y237892D01*
X605500Y238036D01*
X604030Y237892D01*
X602616Y237463D01*
X601313Y236766D01*
X600171Y235829D01*
X599234Y234687D01*
X598537Y233384D01*
X598108Y231970D01*
X597964Y230500D01*
X598108Y229030D01*
X598537Y227616D01*
X599234Y226313D01*
X600171Y225171D01*
X601313Y224234D01*
X602616Y223537D01*
X604030Y223109D01*
X605500Y222964D01*
X606970Y223109D01*
X608384Y223537D01*
X609687Y224234D01*
X610829Y225171D01*
X611766Y226313D01*
X612000Y226750D01*
X612500Y226625D01*
Y210000D01*
X607500Y205000D01*
X369911D01*
X369766Y205479D01*
X370676Y206086D01*
X372401Y207599D01*
X373914Y209324D01*
X375188Y211231D01*
X376203Y213289D01*
X376940Y215461D01*
X377387Y217711D01*
X377538Y220000D01*
X377387Y222289D01*
X376940Y224539D01*
X376203Y226711D01*
X375188Y228769D01*
X373914Y230676D01*
X372401Y232401D01*
X370676Y233913D01*
X368769Y235188D01*
X366711Y236203D01*
X364539Y236940D01*
X362289Y237387D01*
X360000Y237538D01*
X357711Y237387D01*
X355461Y236940D01*
X353289Y236203D01*
X351231Y235188D01*
X349324Y233913D01*
X347599Y232401D01*
X346087Y230676D01*
X344812Y228769D01*
X343797Y226711D01*
X343060Y224539D01*
X342613Y222289D01*
X342462Y220000D01*
X342613Y217711D01*
X343060Y215461D01*
X343797Y213289D01*
X344812Y211231D01*
X346087Y209324D01*
X347599Y207599D01*
X349324Y206086D01*
X350234Y205479D01*
X350089Y205000D01*
X255000D01*
X250000Y210000D01*
Y287500D01*
X255000Y292500D01*
X315847D01*
X316104Y292071D01*
X315717Y291345D01*
X315145Y289460D01*
X314952Y287500D01*
X315145Y285540D01*
X315717Y283655D01*
X316645Y281917D01*
X317895Y280395D01*
X319417Y279145D01*
X321155Y278217D01*
X323040Y277645D01*
X325000Y277452D01*
X326960Y277645D01*
X328845Y278217D01*
X330583Y279145D01*
X332105Y280395D01*
X333355Y281917D01*
X334283Y283655D01*
X334855Y285540D01*
X335048Y287500D01*
X334855Y289460D01*
X334283Y291345D01*
X333896Y292071D01*
X334153Y292500D01*
X607500D01*
X612500Y287500D01*
D02*
G37*
G36*
X617500Y202500D02*
X645000Y175000D01*
Y34000D01*
X611500Y4500D01*
X505000Y5000D01*
X495000Y15000D01*
Y65000D01*
X505000Y75000D01*
Y198000D01*
X509451Y202451D01*
X607500D01*
X607746Y202500D01*
X617500D01*
D02*
G37*
G36*
X210000Y50000D02*
Y25000D01*
X205000Y20000D01*
X117500D01*
X112500Y25000D01*
Y49500D01*
X117500Y55000D01*
X205000D01*
X210000Y50000D01*
D02*
G37*
G36*
X107500D02*
Y25000D01*
X102500Y20000D01*
X19124D01*
X18083Y20855D01*
X16345Y21783D01*
X14460Y22355D01*
X12500Y22548D01*
X10540Y22355D01*
X8655Y21783D01*
X8369Y21631D01*
X5000Y25000D01*
Y50000D01*
X10000Y55000D01*
X102500D01*
X107500Y50000D01*
D02*
G37*
%LPC*%
G36*
X570000Y59933D02*
X568937Y59793D01*
X567947Y59383D01*
X567097Y58730D01*
X566444Y57880D01*
X566034Y56889D01*
X565894Y55827D01*
X566034Y54764D01*
X566444Y53774D01*
X567097Y52923D01*
X567947Y52271D01*
X568937Y51861D01*
X570000Y51721D01*
X571063Y51861D01*
X572053Y52271D01*
X572903Y52923D01*
X573556Y53774D01*
X573966Y54764D01*
X574106Y55827D01*
X573966Y56889D01*
X573556Y57880D01*
X572903Y58730D01*
X572053Y59383D01*
X571063Y59793D01*
X570000Y59933D01*
D02*
G37*
G36*
X532500D02*
X531437Y59793D01*
X530447Y59383D01*
X529597Y58730D01*
X528944Y57880D01*
X528534Y56889D01*
X528394Y55827D01*
X528534Y54764D01*
X528944Y53774D01*
X529597Y52923D01*
X530447Y52271D01*
X531437Y51861D01*
X532500Y51721D01*
X533563Y51861D01*
X534553Y52271D01*
X535403Y52923D01*
X536056Y53774D01*
X536466Y54764D01*
X536606Y55827D01*
X536466Y56889D01*
X536056Y57880D01*
X535403Y58730D01*
X534553Y59383D01*
X533563Y59793D01*
X532500Y59933D01*
D02*
G37*
G36*
X266000Y111353D02*
X264468Y111202D01*
X262995Y110755D01*
X261637Y110029D01*
X260447Y109053D01*
X259471Y107863D01*
X258745Y106505D01*
X258298Y105032D01*
X258147Y103500D01*
X258298Y101968D01*
X258745Y100495D01*
X259471Y99137D01*
X260447Y97947D01*
X261637Y96971D01*
X262300Y96616D01*
Y96116D01*
X262137Y96029D01*
X260947Y95053D01*
X259971Y93863D01*
X259245Y92505D01*
X258798Y91032D01*
X258647Y89500D01*
X258798Y87968D01*
X259245Y86495D01*
X259971Y85137D01*
X260947Y83947D01*
X262137Y82971D01*
X263205Y82400D01*
Y81833D01*
X262637Y81529D01*
X261447Y80553D01*
X260471Y79363D01*
X259745Y78005D01*
X259298Y76532D01*
X259147Y75000D01*
X259298Y73468D01*
X259745Y71995D01*
X260471Y70637D01*
X261447Y69447D01*
X262637Y68471D01*
X263995Y67745D01*
X265468Y67298D01*
X267000Y67147D01*
X268532Y67298D01*
X270005Y67745D01*
X271363Y68471D01*
X272553Y69447D01*
X273529Y70637D01*
X274255Y71995D01*
X274702Y73468D01*
X274853Y75000D01*
X274702Y76532D01*
X274255Y78005D01*
X273529Y79363D01*
X272553Y80553D01*
X271363Y81529D01*
X270295Y82100D01*
Y82667D01*
X270863Y82971D01*
X272053Y83947D01*
X273029Y85137D01*
X273755Y86495D01*
X274202Y87968D01*
X274353Y89500D01*
X274202Y91032D01*
X273755Y92505D01*
X273029Y93863D01*
X272053Y95053D01*
X270863Y96029D01*
X270200Y96384D01*
Y96884D01*
X270363Y96971D01*
X271553Y97947D01*
X272529Y99137D01*
X273255Y100495D01*
X273702Y101968D01*
X273853Y103500D01*
X273702Y105032D01*
X273255Y106505D01*
X272529Y107863D01*
X271553Y109053D01*
X270363Y110029D01*
X269005Y110755D01*
X267532Y111202D01*
X266000Y111353D01*
D02*
G37*
G36*
X607500Y59933D02*
X606437Y59793D01*
X605447Y59383D01*
X604597Y58730D01*
X603944Y57880D01*
X603534Y56889D01*
X603394Y55827D01*
X603534Y54764D01*
X603944Y53774D01*
X604597Y52923D01*
X605447Y52271D01*
X606437Y51861D01*
X607500Y51721D01*
X608563Y51861D01*
X609553Y52271D01*
X610403Y52923D01*
X611056Y53774D01*
X611466Y54764D01*
X611606Y55827D01*
X611466Y56889D01*
X611056Y57880D01*
X610403Y58730D01*
X609553Y59383D01*
X608563Y59793D01*
X607500Y59933D01*
D02*
G37*
G36*
X627500Y73530D02*
X626586Y73410D01*
X625735Y73057D01*
X625004Y72496D01*
X624443Y71765D01*
X624090Y70914D01*
X623970Y70000D01*
X624090Y69086D01*
X624443Y68235D01*
X625004Y67504D01*
X625735Y66943D01*
X626586Y66590D01*
X627500Y66470D01*
X628071Y66545D01*
X631047Y63569D01*
Y58425D01*
X629547D01*
Y47913D01*
Y39075D01*
X640453D01*
Y47913D01*
Y58425D01*
X638953D01*
Y65587D01*
X634797D01*
X630955Y69429D01*
X631030Y70000D01*
X630910Y70914D01*
X630557Y71765D01*
X629996Y72496D01*
X629265Y73057D01*
X628414Y73410D01*
X627500Y73530D01*
D02*
G37*
G36*
X475000Y61345D02*
X473762Y61224D01*
X472572Y60862D01*
X471475Y60276D01*
X470513Y59487D01*
X469724Y58525D01*
X469137Y57428D01*
X468776Y56238D01*
X468654Y55000D01*
X468776Y53762D01*
X469137Y52572D01*
X469724Y51475D01*
X470513Y50513D01*
X471475Y49724D01*
X472572Y49137D01*
X473762Y48776D01*
X475000Y48654D01*
X476238Y48776D01*
X477428Y49137D01*
X478525Y49724D01*
X479487Y50513D01*
X480276Y51475D01*
X480863Y52572D01*
X481224Y53762D01*
X481346Y55000D01*
X481224Y56238D01*
X480863Y57428D01*
X480276Y58525D01*
X479487Y59487D01*
X478525Y60276D01*
X477428Y60862D01*
X476238Y61224D01*
X475000Y61345D01*
D02*
G37*
G36*
X267000Y66353D02*
X265468Y66202D01*
X263995Y65755D01*
X262637Y65029D01*
X261447Y64053D01*
X260471Y62863D01*
X259745Y61505D01*
X259298Y60032D01*
X259147Y58500D01*
X259298Y56968D01*
X259745Y55495D01*
X260471Y54137D01*
X261447Y52947D01*
X262637Y51971D01*
X263956Y51266D01*
X263995Y51081D01*
Y50919D01*
X263956Y50734D01*
X262637Y50029D01*
X261447Y49053D01*
X260471Y47863D01*
X259745Y46505D01*
X259298Y45032D01*
X259147Y43500D01*
X259298Y41968D01*
X259745Y40495D01*
X260471Y39137D01*
X261447Y37947D01*
X262637Y36971D01*
X263956Y36266D01*
X263995Y36081D01*
Y35919D01*
X263956Y35734D01*
X262637Y35029D01*
X261447Y34053D01*
X260471Y32863D01*
X259745Y31505D01*
X259298Y30032D01*
X259147Y28500D01*
X259298Y26968D01*
X259745Y25495D01*
X260471Y24137D01*
X261447Y22947D01*
X262637Y21971D01*
X263995Y21245D01*
X265468Y20798D01*
X267000Y20647D01*
X268532Y20798D01*
X270005Y21245D01*
X271363Y21971D01*
X272553Y22947D01*
X273529Y24137D01*
X274255Y25495D01*
X274702Y26968D01*
X274853Y28500D01*
X274702Y30032D01*
X274255Y31505D01*
X273529Y32863D01*
X272553Y34053D01*
X271363Y35029D01*
X270044Y35734D01*
X270005Y35919D01*
Y36081D01*
X270044Y36266D01*
X271363Y36971D01*
X272553Y37947D01*
X273529Y39137D01*
X274255Y40495D01*
X274702Y41968D01*
X274853Y43500D01*
X274702Y45032D01*
X274255Y46505D01*
X273529Y47863D01*
X272553Y49053D01*
X271363Y50029D01*
X270044Y50734D01*
X270005Y50919D01*
Y51081D01*
X270044Y51266D01*
X271363Y51971D01*
X272553Y52947D01*
X273529Y54137D01*
X274255Y55495D01*
X274702Y56968D01*
X274853Y58500D01*
X274702Y60032D01*
X274255Y61505D01*
X273529Y62863D01*
X272553Y64053D01*
X271363Y65029D01*
X270005Y65755D01*
X268532Y66202D01*
X267000Y66353D01*
D02*
G37*
G36*
X335000Y73530D02*
X334086Y73410D01*
X333235Y73057D01*
X332504Y72496D01*
X331943Y71765D01*
X331590Y70914D01*
X331470Y70000D01*
X331590Y69086D01*
X331943Y68235D01*
X332504Y67504D01*
X333235Y66943D01*
X334086Y66590D01*
X334974Y66473D01*
X341047Y60400D01*
Y55925D01*
X339547D01*
Y45413D01*
Y36575D01*
X350453D01*
Y45413D01*
Y55925D01*
X348953D01*
Y63087D01*
X344128D01*
X338327Y68887D01*
X338410Y69086D01*
X338530Y70000D01*
X338410Y70914D01*
X338057Y71765D01*
X337496Y72496D01*
X336765Y73057D01*
X335914Y73410D01*
X335000Y73530D01*
D02*
G37*
G36*
X407500Y59933D02*
X406437Y59793D01*
X405447Y59383D01*
X404597Y58730D01*
X403944Y57880D01*
X403534Y56889D01*
X403394Y55827D01*
X403534Y54764D01*
X403944Y53774D01*
X404597Y52923D01*
X405447Y52271D01*
X406437Y51861D01*
X407500Y51721D01*
X408563Y51861D01*
X409553Y52271D01*
X410403Y52923D01*
X411056Y53774D01*
X411466Y54764D01*
X411606Y55827D01*
X411466Y56889D01*
X411056Y57880D01*
X410403Y58730D01*
X409553Y59383D01*
X408563Y59793D01*
X407500Y59933D01*
D02*
G37*
G36*
X445000D02*
X443937Y59793D01*
X442947Y59383D01*
X442097Y58730D01*
X441444Y57880D01*
X441034Y56889D01*
X440894Y55827D01*
X441034Y54764D01*
X441444Y53774D01*
X442097Y52923D01*
X442947Y52271D01*
X443937Y51861D01*
X445000Y51721D01*
X446063Y51861D01*
X447053Y52271D01*
X447903Y52923D01*
X448556Y53774D01*
X448966Y54764D01*
X449106Y55827D01*
X448966Y56889D01*
X448556Y57880D01*
X447903Y58730D01*
X447053Y59383D01*
X446063Y59793D01*
X445000Y59933D01*
D02*
G37*
G36*
X502500Y61345D02*
X501262Y61224D01*
X500072Y60862D01*
X498975Y60276D01*
X498013Y59487D01*
X497224Y58525D01*
X496637Y57428D01*
X496276Y56238D01*
X496154Y55000D01*
X496276Y53762D01*
X496637Y52572D01*
X497224Y51475D01*
X498013Y50513D01*
X498975Y49724D01*
X500072Y49137D01*
X501262Y48776D01*
X502500Y48654D01*
X503738Y48776D01*
X504928Y49137D01*
X506025Y49724D01*
X506987Y50513D01*
X507776Y51475D01*
X508362Y52572D01*
X508724Y53762D01*
X508846Y55000D01*
X508724Y56238D01*
X508362Y57428D01*
X507776Y58525D01*
X506987Y59487D01*
X506025Y60276D01*
X504928Y60862D01*
X503738Y61224D01*
X502500Y61345D01*
D02*
G37*
G36*
X370000Y59933D02*
X368937Y59793D01*
X367947Y59383D01*
X367097Y58730D01*
X366444Y57880D01*
X366034Y56889D01*
X365894Y55827D01*
X366034Y54764D01*
X366444Y53774D01*
X367097Y52923D01*
X367947Y52271D01*
X368937Y51861D01*
X370000Y51721D01*
X371063Y51861D01*
X372053Y52271D01*
X372903Y52923D01*
X373556Y53774D01*
X373966Y54764D01*
X374106Y55827D01*
X373966Y56889D01*
X373556Y57880D01*
X372903Y58730D01*
X372053Y59383D01*
X371063Y59793D01*
X370000Y59933D01*
D02*
G37*
G36*
X102972Y187606D02*
X101549Y187419D01*
X100223Y186869D01*
X99084Y185995D01*
X98210Y184856D01*
X97660Y183530D01*
X97473Y182106D01*
X97660Y180683D01*
X98210Y179356D01*
X99084Y178217D01*
X100223Y177343D01*
X101549Y176794D01*
X102972Y176607D01*
X104396Y176794D01*
X105722Y177343D01*
X106861Y178217D01*
X107735Y179356D01*
X108285Y180683D01*
X108472Y182106D01*
X108285Y183530D01*
X107735Y184856D01*
X106861Y185995D01*
X105722Y186869D01*
X104396Y187419D01*
X102972Y187606D01*
D02*
G37*
G36*
X47594Y232467D02*
X45287Y232285D01*
X43036Y231745D01*
X40898Y230859D01*
X38925Y229650D01*
X37165Y228147D01*
X35661Y226386D01*
X34452Y224413D01*
X33566Y222275D01*
X33026Y220024D01*
X32844Y217717D01*
X33026Y215409D01*
X33566Y213158D01*
X34452Y211020D01*
X35661Y209047D01*
X37165Y207287D01*
X38925Y205783D01*
X40898Y204574D01*
X43036Y203688D01*
X45287Y203148D01*
X47594Y202966D01*
X49902Y203148D01*
X52153Y203688D01*
X54291Y204574D01*
X56264Y205783D01*
X58025Y207287D01*
X59528Y209047D01*
X60737Y211020D01*
X61623Y213158D01*
X62163Y215409D01*
X62345Y217717D01*
X62163Y220024D01*
X61623Y222275D01*
X60737Y224413D01*
X59528Y226386D01*
X58025Y228147D01*
X56264Y229650D01*
X54291Y230859D01*
X52153Y231745D01*
X49902Y232285D01*
X47594Y232467D01*
D02*
G37*
G36*
X25472Y187606D02*
X24049Y187419D01*
X22723Y186869D01*
X21584Y185995D01*
X20709Y184856D01*
X20160Y183530D01*
X19973Y182106D01*
X20160Y180683D01*
X20709Y179356D01*
X21584Y178217D01*
X22723Y177343D01*
X24049Y176794D01*
X25472Y176607D01*
X26896Y176794D01*
X28222Y177343D01*
X29361Y178217D01*
X30235Y179356D01*
X30785Y180683D01*
X30972Y182106D01*
X30785Y183530D01*
X30235Y184856D01*
X29361Y185995D01*
X28222Y186869D01*
X26896Y187419D01*
X25472Y187606D01*
D02*
G37*
G36*
X84528D02*
X83104Y187419D01*
X81778Y186869D01*
X80639Y185995D01*
X79765Y184856D01*
X79215Y183530D01*
X79028Y182106D01*
X79215Y180683D01*
X79765Y179356D01*
X80639Y178217D01*
X81778Y177343D01*
X83104Y176794D01*
X84528Y176607D01*
X85951Y176794D01*
X87278Y177343D01*
X88416Y178217D01*
X89290Y179356D01*
X89840Y180683D01*
X90027Y182106D01*
X89840Y183530D01*
X89290Y184856D01*
X88416Y185995D01*
X87278Y186869D01*
X85951Y187419D01*
X84528Y187606D01*
D02*
G37*
G36*
X470500Y238000D02*
X455500D01*
Y223000D01*
X470500D01*
Y238000D01*
D02*
G37*
G36*
X583000D02*
X568000D01*
Y223000D01*
X583000D01*
Y238000D01*
D02*
G37*
G36*
X86500Y224353D02*
X84968Y224202D01*
X83495Y223755D01*
X82137Y223029D01*
X80947Y222053D01*
X79971Y220863D01*
X79245Y219505D01*
X78798Y218032D01*
X78647Y216500D01*
X78798Y214968D01*
X79245Y213495D01*
X79971Y212137D01*
X80947Y210947D01*
X82137Y209971D01*
X83495Y209245D01*
X84968Y208798D01*
X86500Y208647D01*
X88032Y208798D01*
X89505Y209245D01*
X90863Y209971D01*
X92053Y210947D01*
X93029Y212137D01*
X93755Y213495D01*
X94202Y214968D01*
X94353Y216500D01*
X94202Y218032D01*
X93755Y219505D01*
X93029Y220863D01*
X92053Y222053D01*
X90863Y223029D01*
X89505Y223755D01*
X88032Y224202D01*
X86500Y224353D01*
D02*
G37*
G36*
X493000Y238036D02*
X491530Y237892D01*
X490116Y237463D01*
X488813Y236766D01*
X487671Y235829D01*
X486734Y234687D01*
X486037Y233384D01*
X485608Y231970D01*
X485464Y230500D01*
X485608Y229030D01*
X486037Y227616D01*
X486734Y226313D01*
X487671Y225171D01*
X488813Y224234D01*
X490116Y223537D01*
X491530Y223109D01*
X493000Y222964D01*
X494470Y223109D01*
X495884Y223537D01*
X497187Y224234D01*
X498329Y225171D01*
X499266Y226313D01*
X499963Y227616D01*
X500391Y229030D01*
X500536Y230500D01*
X500391Y231970D01*
X499963Y233384D01*
X499266Y234687D01*
X498329Y235829D01*
X497187Y236766D01*
X495884Y237463D01*
X494470Y237892D01*
X493000Y238036D01*
D02*
G37*
G36*
X114784Y182392D02*
X113752Y182256D01*
X112790Y181858D01*
X111964Y181225D01*
X111331Y180399D01*
X110933Y179437D01*
X110797Y178405D01*
X110933Y177374D01*
X111331Y176412D01*
X111964Y175586D01*
X112790Y174953D01*
X113752Y174555D01*
X114784Y174419D01*
X115815Y174555D01*
X116777Y174953D01*
X117603Y175586D01*
X118236Y176412D01*
X118634Y177374D01*
X118770Y178405D01*
X118634Y179437D01*
X118236Y180399D01*
X117603Y181225D01*
X116777Y181858D01*
X115815Y182256D01*
X114784Y182392D01*
D02*
G37*
G36*
X605500Y156529D02*
X604324Y156413D01*
X603193Y156070D01*
X602150Y155513D01*
X601237Y154763D01*
X600487Y153849D01*
X599930Y152807D01*
X599587Y151676D01*
X599471Y150500D01*
X599587Y149324D01*
X599930Y148193D01*
X600487Y147151D01*
X601237Y146237D01*
X602150Y145487D01*
X603193Y144930D01*
X604324Y144587D01*
X605500Y144471D01*
X606676Y144587D01*
X607807Y144930D01*
X608849Y145487D01*
X609763Y146237D01*
X610513Y147151D01*
X611070Y148193D01*
X611413Y149324D01*
X611529Y150500D01*
X611413Y151676D01*
X611070Y152807D01*
X610513Y153849D01*
X609763Y154763D01*
X608849Y155513D01*
X607807Y156070D01*
X606676Y156413D01*
X605500Y156529D01*
D02*
G37*
G36*
X114784Y170581D02*
X113752Y170446D01*
X112790Y170047D01*
X111964Y169414D01*
X111331Y168588D01*
X110933Y167626D01*
X110797Y166595D01*
X110933Y165563D01*
X111331Y164601D01*
X111964Y163775D01*
X112790Y163142D01*
X113752Y162743D01*
X114784Y162608D01*
X115815Y162743D01*
X116777Y163142D01*
X117603Y163775D01*
X118236Y164601D01*
X118634Y165563D01*
X118770Y166595D01*
X118634Y167626D01*
X118236Y168588D01*
X117603Y169414D01*
X116777Y170047D01*
X115815Y170446D01*
X114784Y170581D01*
D02*
G37*
G36*
X453000Y158036D02*
X451530Y157891D01*
X450116Y157463D01*
X448813Y156766D01*
X447671Y155829D01*
X446734Y154687D01*
X446037Y153384D01*
X445609Y151970D01*
X445464Y150500D01*
X445609Y149030D01*
X446037Y147616D01*
X446734Y146313D01*
X447671Y145171D01*
X448813Y144234D01*
X450116Y143537D01*
X451530Y143108D01*
X453000Y142964D01*
X454470Y143108D01*
X455884Y143537D01*
X457187Y144234D01*
X458329Y145171D01*
X459266Y146313D01*
X459963Y147616D01*
X460392Y149030D01*
X460536Y150500D01*
X460392Y151970D01*
X459963Y153384D01*
X459266Y154687D01*
X458329Y155829D01*
X457187Y156766D01*
X455884Y157463D01*
X454470Y157891D01*
X453000Y158036D01*
D02*
G37*
G36*
X565500D02*
X564030Y157891D01*
X562616Y157463D01*
X561313Y156766D01*
X560171Y155829D01*
X559234Y154687D01*
X558537Y153384D01*
X558109Y151970D01*
X557964Y150500D01*
X558109Y149030D01*
X558537Y147616D01*
X559234Y146313D01*
X560171Y145171D01*
X561313Y144234D01*
X562616Y143537D01*
X564030Y143108D01*
X565500Y142964D01*
X566970Y143108D01*
X568384Y143537D01*
X569687Y144234D01*
X570829Y145171D01*
X571766Y146313D01*
X572463Y147616D01*
X572892Y149030D01*
X573036Y150500D01*
X572892Y151970D01*
X572463Y153384D01*
X571766Y154687D01*
X570829Y155829D01*
X569687Y156766D01*
X568384Y157463D01*
X566970Y157891D01*
X565500Y158036D01*
D02*
G37*
G36*
X60905Y182392D02*
X59874Y182256D01*
X58912Y181858D01*
X58086Y181225D01*
X57453Y180399D01*
X57055Y179437D01*
X56919Y178405D01*
X57055Y177374D01*
X57453Y176412D01*
X58086Y175586D01*
X58912Y174953D01*
X59874Y174555D01*
X60905Y174419D01*
X61937Y174555D01*
X62899Y174953D01*
X63725Y175586D01*
X64358Y176412D01*
X64757Y177374D01*
X64892Y178405D01*
X64757Y179437D01*
X64358Y180399D01*
X63725Y181225D01*
X62899Y181858D01*
X61937Y182256D01*
X60905Y182392D01*
D02*
G37*
G36*
X72716D02*
X71685Y182256D01*
X70723Y181858D01*
X69897Y181225D01*
X69264Y180399D01*
X68866Y179437D01*
X68730Y178405D01*
X68866Y177374D01*
X69264Y176412D01*
X69897Y175586D01*
X70723Y174953D01*
X71685Y174555D01*
X72716Y174419D01*
X73748Y174555D01*
X74710Y174953D01*
X75536Y175586D01*
X76169Y176412D01*
X76568Y177374D01*
X76703Y178405D01*
X76568Y179437D01*
X76169Y180399D01*
X75536Y181225D01*
X74710Y181858D01*
X73748Y182256D01*
X72716Y182392D01*
D02*
G37*
G36*
X37284D02*
X36252Y182256D01*
X35290Y181858D01*
X34464Y181225D01*
X33831Y180399D01*
X33432Y179437D01*
X33297Y178405D01*
X33432Y177374D01*
X33831Y176412D01*
X34464Y175586D01*
X35290Y174953D01*
X36252Y174555D01*
X37284Y174419D01*
X38315Y174555D01*
X39277Y174953D01*
X40103Y175586D01*
X40736Y176412D01*
X41135Y177374D01*
X41270Y178405D01*
X41135Y179437D01*
X40736Y180399D01*
X40103Y181225D01*
X39277Y181858D01*
X38315Y182256D01*
X37284Y182392D01*
D02*
G37*
G36*
X49095D02*
X48063Y182256D01*
X47101Y181858D01*
X46275Y181225D01*
X45642Y180399D01*
X45243Y179437D01*
X45108Y178405D01*
X45243Y177374D01*
X45642Y176412D01*
X46275Y175586D01*
X47101Y174953D01*
X48063Y174555D01*
X49095Y174419D01*
X50126Y174555D01*
X51088Y174953D01*
X51914Y175586D01*
X52547Y176412D01*
X52946Y177374D01*
X53081Y178405D01*
X52946Y179437D01*
X52547Y180399D01*
X51914Y181225D01*
X51088Y181858D01*
X50126Y182256D01*
X49095Y182392D01*
D02*
G37*
%LPD*%
G36*
X210000Y432500D02*
Y407500D01*
X205000Y402500D01*
X117500D01*
X112500Y407500D01*
Y432500D01*
X117500Y437500D01*
X205000D01*
X210000Y432500D01*
D02*
G37*
G36*
X240000Y587500D02*
Y510000D01*
X235000Y505000D01*
X122500Y505000D01*
X117500Y510000D01*
Y550000D01*
Y585000D01*
Y587500D01*
X122500Y592500D01*
X235000D01*
X240000Y587500D01*
D02*
G37*
G36*
X369661Y502463D02*
X369787Y502476D01*
X369911Y502451D01*
X492549D01*
X495000Y500000D01*
Y456583D01*
X494598Y456285D01*
X494176Y456413D01*
X493000Y456529D01*
X491824Y456413D01*
X490693Y456070D01*
X489650Y455513D01*
X488737Y454763D01*
X487987Y453850D01*
X487430Y452807D01*
X487087Y451676D01*
X486971Y450500D01*
X487087Y449324D01*
X487430Y448193D01*
X487987Y447151D01*
X488737Y446237D01*
X489650Y445487D01*
X490693Y444930D01*
X491824Y444587D01*
X493000Y444471D01*
X494176Y444587D01*
X494598Y444715D01*
X495000Y444417D01*
Y375000D01*
X485000Y365000D01*
Y310000D01*
X480000Y305000D01*
X332347D01*
X332192Y305500D01*
X333355Y306917D01*
X334283Y308655D01*
X334855Y310540D01*
X335048Y312500D01*
X334855Y314460D01*
X334283Y316345D01*
X333355Y318083D01*
X332105Y319605D01*
X330583Y320855D01*
X328845Y321783D01*
X326960Y322355D01*
X325000Y322548D01*
X323040Y322355D01*
X321155Y321783D01*
X319417Y320855D01*
X317895Y319605D01*
X316645Y318083D01*
X315717Y316345D01*
X315145Y314460D01*
X314952Y312500D01*
X315145Y310540D01*
X315717Y308655D01*
X316645Y306917D01*
X317808Y305500D01*
X317653Y305000D01*
X220000D01*
X212500Y312500D01*
Y324754D01*
X212549Y325000D01*
Y350000D01*
X212500Y350246D01*
Y359854D01*
X212962Y360046D01*
X239059Y333948D01*
X239000Y333500D01*
X239188Y332077D01*
X239737Y330750D01*
X240611Y329611D01*
X241750Y328737D01*
X243076Y328188D01*
X244500Y328000D01*
X245923Y328188D01*
X247250Y328737D01*
X248389Y329611D01*
X249263Y330750D01*
X249812Y332077D01*
X250000Y333500D01*
X249812Y334924D01*
X249263Y336250D01*
X248389Y337389D01*
X247307Y338219D01*
X247276Y338500D01*
X247307Y338781D01*
X248389Y339611D01*
X249263Y340750D01*
X249812Y342076D01*
X250000Y343500D01*
X249812Y344923D01*
X249263Y346250D01*
X248389Y347389D01*
X248148Y347574D01*
X248309Y348047D01*
X249953D01*
Y358953D01*
X244040D01*
X227030Y375962D01*
Y379824D01*
X227492Y380015D01*
X230504Y377004D01*
X231235Y376443D01*
X232086Y376090D01*
X233000Y375970D01*
X239836D01*
X240111Y375611D01*
X241250Y374737D01*
X242577Y374188D01*
X244000Y374000D01*
X245424Y374188D01*
X246750Y374737D01*
X247889Y375611D01*
X248763Y376750D01*
X249312Y378077D01*
X249500Y379500D01*
X249312Y380924D01*
X248763Y382250D01*
X247889Y383389D01*
X246807Y384219D01*
X246776Y384500D01*
X246807Y384781D01*
X247889Y385611D01*
X248763Y386750D01*
X249312Y388076D01*
X249500Y389500D01*
X249312Y390924D01*
X248763Y392250D01*
X247889Y393389D01*
X247648Y393574D01*
X247809Y394047D01*
X249453D01*
Y404953D01*
X243540D01*
X241030Y407462D01*
Y423804D01*
X241530Y424121D01*
X242577Y423688D01*
X244000Y423500D01*
X245424Y423688D01*
X246750Y424237D01*
X247889Y425111D01*
X248763Y426250D01*
X249312Y427577D01*
X249500Y429000D01*
X249312Y430423D01*
X248763Y431750D01*
X247889Y432889D01*
X246807Y433719D01*
X246776Y434000D01*
X246807Y434281D01*
X247889Y435111D01*
X248763Y436250D01*
X248854Y436470D01*
X250000D01*
X250914Y436590D01*
X251765Y436943D01*
X252496Y437504D01*
X254996Y440004D01*
X255557Y440735D01*
X255910Y441586D01*
X256030Y442500D01*
Y446629D01*
X256530Y446703D01*
X256745Y445995D01*
X257471Y444637D01*
X258447Y443447D01*
X259637Y442471D01*
X260518Y442000D01*
Y441500D01*
X259637Y441029D01*
X258447Y440053D01*
X257471Y438863D01*
X256745Y437505D01*
X256298Y436032D01*
X256147Y434500D01*
X256298Y432968D01*
X256745Y431495D01*
X257471Y430137D01*
X258447Y428947D01*
X259637Y427971D01*
X260995Y427245D01*
X262468Y426798D01*
X264000Y426647D01*
X265532Y426798D01*
X267005Y427245D01*
X268363Y427971D01*
X269553Y428947D01*
X270529Y430137D01*
X271255Y431495D01*
X271702Y432968D01*
X271853Y434500D01*
X271702Y436032D01*
X271255Y437505D01*
X270529Y438863D01*
X269553Y440053D01*
X268363Y441029D01*
X267482Y441500D01*
Y442000D01*
X268363Y442471D01*
X269553Y443447D01*
X270529Y444637D01*
X271255Y445995D01*
X271702Y447468D01*
X271853Y449000D01*
X271702Y450532D01*
X271255Y452005D01*
X270529Y453363D01*
X269553Y454553D01*
X268363Y455529D01*
X267005Y456255D01*
X265532Y456702D01*
X264000Y456853D01*
X262468Y456702D01*
X260995Y456255D01*
X259637Y455529D01*
X258447Y454553D01*
X257471Y453363D01*
X256745Y452005D01*
X256530Y451297D01*
X256030Y451371D01*
Y477500D01*
X255910Y478414D01*
X255557Y479265D01*
X254996Y479996D01*
X237996Y496996D01*
X237265Y497557D01*
X236414Y497910D01*
X235500Y498030D01*
X142000D01*
X141086Y497910D01*
X140235Y497557D01*
X139504Y496996D01*
X126385Y483878D01*
X125171Y483718D01*
X123845Y483169D01*
X122705Y482295D01*
X121832Y481155D01*
X121282Y479829D01*
X121095Y478406D01*
X121282Y476982D01*
X121832Y475656D01*
X122705Y474517D01*
X123845Y473642D01*
X125171Y473093D01*
X126594Y472906D01*
X128018Y473093D01*
X129344Y473642D01*
X130483Y474517D01*
X131358Y475656D01*
X131907Y476982D01*
X132094Y478406D01*
X131955Y479463D01*
X132733Y480240D01*
X133148Y479962D01*
X133093Y479829D01*
X132906Y478406D01*
X133093Y476982D01*
X133642Y475656D01*
X134517Y474517D01*
X135656Y473642D01*
X136982Y473093D01*
X138406Y472906D01*
X139829Y473093D01*
X141155Y473642D01*
X142295Y474517D01*
X143168Y475656D01*
X143718Y476982D01*
X143905Y478406D01*
X143788Y479296D01*
X150962Y486470D01*
X157979D01*
X158091Y486141D01*
X158119Y485970D01*
X157265Y484856D01*
X156715Y483530D01*
X156528Y482106D01*
X156715Y480683D01*
X157265Y479356D01*
X158139Y478217D01*
X159278Y477343D01*
X160604Y476794D01*
X162028Y476607D01*
X163451Y476794D01*
X164778Y477343D01*
X165917Y478217D01*
X166790Y479356D01*
X167340Y480683D01*
X167527Y482106D01*
X167340Y483530D01*
X166790Y484856D01*
X165936Y485970D01*
X165964Y486141D01*
X166076Y486470D01*
X231538D01*
X240470Y477538D01*
Y465157D01*
X240104Y465033D01*
X239970Y465023D01*
X235902Y469091D01*
X235171Y469652D01*
X234319Y470004D01*
X233405Y470125D01*
X154381D01*
X154105Y470483D01*
X152966Y471357D01*
X151640Y471907D01*
X150216Y472094D01*
X148793Y471907D01*
X147467Y471357D01*
X146328Y470483D01*
X145454Y469344D01*
X144904Y468018D01*
X144717Y466595D01*
X144809Y465890D01*
X144336Y465657D01*
X143846Y466146D01*
X143905Y466595D01*
X143718Y468018D01*
X143168Y469344D01*
X142295Y470483D01*
X141155Y471357D01*
X139829Y471907D01*
X138406Y472094D01*
X136982Y471907D01*
X135656Y471357D01*
X134517Y470483D01*
X133642Y469344D01*
X133093Y468018D01*
X132906Y466595D01*
X132998Y465890D01*
X132525Y465657D01*
X132035Y466146D01*
X132094Y466595D01*
X131907Y468018D01*
X131358Y469344D01*
X130483Y470483D01*
X129344Y471357D01*
X128018Y471907D01*
X126594Y472094D01*
X125171Y471907D01*
X123845Y471357D01*
X122705Y470483D01*
X121832Y469344D01*
X121282Y468018D01*
X121095Y466595D01*
X121282Y465171D01*
X121832Y463845D01*
X122705Y462706D01*
X123845Y461832D01*
X125171Y461282D01*
X126594Y461095D01*
X127043Y461154D01*
X133204Y454992D01*
X133013Y454530D01*
X77962D01*
X66346Y466146D01*
X66405Y466595D01*
X66218Y468018D01*
X65668Y469344D01*
X64794Y470483D01*
X63655Y471357D01*
X62329Y471907D01*
X60905Y472094D01*
X59482Y471907D01*
X58156Y471357D01*
X57017Y470483D01*
X56142Y469344D01*
X55593Y468018D01*
X55406Y466595D01*
X55498Y465890D01*
X55025Y465657D01*
X54535Y466146D01*
X54594Y466595D01*
X54407Y468018D01*
X53857Y469344D01*
X52983Y470483D01*
X51844Y471357D01*
X50518Y471907D01*
X49095Y472094D01*
X47671Y471907D01*
X46345Y471357D01*
X45206Y470483D01*
X44331Y469344D01*
X43782Y468018D01*
X43595Y466595D01*
X43687Y465890D01*
X43214Y465657D01*
X42724Y466146D01*
X42783Y466595D01*
X42596Y468018D01*
X42046Y469344D01*
X41172Y470483D01*
X40033Y471357D01*
X38707Y471907D01*
X37284Y472094D01*
X35860Y471907D01*
X34534Y471357D01*
X33395Y470483D01*
X32520Y469344D01*
X31971Y468018D01*
X31784Y466595D01*
X31971Y465171D01*
X32520Y463845D01*
X33395Y462706D01*
X34534Y461832D01*
X35860Y461282D01*
X37284Y461095D01*
X37732Y461154D01*
X58087Y440798D01*
X58191Y440549D01*
X57857Y440049D01*
X10000D01*
X9025Y439855D01*
X8198Y439302D01*
X5000Y442500D01*
Y487500D01*
X9959Y492459D01*
X10000Y492451D01*
X107500D01*
X108475Y492645D01*
X109302Y493198D01*
X113024Y496919D01*
X120000Y502500D01*
X122254D01*
X122500Y502451D01*
X235000Y502451D01*
X235246Y502500D01*
X254754D01*
X255000Y502451D01*
X350089D01*
X350213Y502476D01*
X350339Y502463D01*
X350460Y502500D01*
X359427D01*
X360000Y502462D01*
X360573Y502500D01*
X369541D01*
X369661Y502463D01*
D02*
G37*
G36*
X107500Y392500D02*
X107000Y365000D01*
X102000Y360000D01*
X9500D01*
X5000Y365000D01*
Y392500D01*
X10000Y397500D01*
X102500D01*
X107500Y392500D01*
D02*
G37*
G36*
X209500D02*
Y365000D01*
X204500Y360000D01*
X117000D01*
X112000Y365000D01*
Y392500D01*
X117000Y397500D01*
X204500D01*
X209500Y392500D01*
D02*
G37*
G36*
X107500Y432500D02*
Y407500D01*
X102500Y402500D01*
X10000D01*
X5500Y407500D01*
Y432500D01*
X5500Y432500D01*
X5500Y433000D01*
X10000Y437500D01*
X102500D01*
X107500Y432500D01*
D02*
G37*
G36*
X112500Y587500D02*
Y500000D01*
X107500Y495000D01*
X10000D01*
X5500Y499500D01*
Y500000D01*
Y579724D01*
X5952Y579937D01*
X6917Y579145D01*
X8655Y578217D01*
X10540Y577645D01*
X12500Y577452D01*
X14460Y577645D01*
X16345Y578217D01*
X18083Y579145D01*
X19605Y580395D01*
X20855Y581917D01*
X21783Y583655D01*
X22355Y585540D01*
X22548Y587500D01*
X22355Y589460D01*
X21783Y591345D01*
X21396Y592071D01*
X21653Y592500D01*
X107500D01*
X112500Y587500D01*
D02*
G37*
G36*
X612500D02*
Y534375D01*
X612000Y534249D01*
X611766Y534687D01*
X610829Y535829D01*
X609687Y536766D01*
X608384Y537463D01*
X606970Y537891D01*
X605500Y538036D01*
X604030Y537891D01*
X602616Y537463D01*
X601313Y536766D01*
X600171Y535829D01*
X599234Y534687D01*
X598537Y533384D01*
X598108Y531970D01*
X597964Y530500D01*
X598108Y529030D01*
X598537Y527616D01*
X599234Y526313D01*
X600171Y525171D01*
X601313Y524234D01*
X602616Y523537D01*
X604030Y523108D01*
X605500Y522964D01*
X606970Y523108D01*
X608384Y523537D01*
X609687Y524234D01*
X610829Y525171D01*
X611766Y526313D01*
X612000Y526751D01*
X612500Y526625D01*
Y510000D01*
X607500Y505000D01*
X369911D01*
X369766Y505478D01*
X370676Y506086D01*
X372401Y507599D01*
X373914Y509324D01*
X375188Y511231D01*
X376203Y513289D01*
X376940Y515461D01*
X377387Y517711D01*
X377538Y520000D01*
X377387Y522289D01*
X376940Y524539D01*
X376203Y526711D01*
X375188Y528769D01*
X373914Y530676D01*
X372401Y532401D01*
X370676Y533914D01*
X368769Y535188D01*
X366711Y536203D01*
X364539Y536940D01*
X362289Y537388D01*
X360000Y537538D01*
X357711Y537388D01*
X355461Y536940D01*
X353289Y536203D01*
X351231Y535188D01*
X349324Y533914D01*
X347599Y532401D01*
X346087Y530676D01*
X344812Y528769D01*
X343797Y526711D01*
X343060Y524539D01*
X342613Y522289D01*
X342462Y520000D01*
X342613Y517711D01*
X343060Y515461D01*
X343797Y513289D01*
X344812Y511231D01*
X346087Y509324D01*
X347599Y507599D01*
X349324Y506086D01*
X350234Y505478D01*
X350089Y505000D01*
X255000D01*
X250000Y510000D01*
Y587500D01*
X255000Y592500D01*
X315847D01*
X316104Y592071D01*
X315717Y591345D01*
X315145Y589460D01*
X314952Y587500D01*
X315145Y585540D01*
X315717Y583655D01*
X316645Y581917D01*
X317895Y580395D01*
X319417Y579145D01*
X321155Y578217D01*
X323040Y577645D01*
X325000Y577452D01*
X326960Y577645D01*
X328845Y578217D01*
X330583Y579145D01*
X332105Y580395D01*
X333355Y581917D01*
X334283Y583655D01*
X334855Y585540D01*
X335048Y587500D01*
X334855Y589460D01*
X334283Y591345D01*
X333896Y592071D01*
X334153Y592500D01*
X607500D01*
X612500Y587500D01*
D02*
G37*
G36*
X617500Y502500D02*
X645000Y475000D01*
Y334000D01*
X611500Y304500D01*
X505000Y305000D01*
X495000Y315000D01*
Y365000D01*
X505000Y375000D01*
Y498000D01*
X509451Y502451D01*
X607500D01*
X607746Y502500D01*
X617500D01*
D02*
G37*
G36*
X210000Y350000D02*
Y325000D01*
X205000Y320000D01*
X117500D01*
X112500Y325000D01*
Y349500D01*
X117500Y355000D01*
X205000D01*
X210000Y350000D01*
D02*
G37*
G36*
X107500D02*
Y325000D01*
X102500Y320000D01*
X19124D01*
X18083Y320855D01*
X16345Y321783D01*
X14460Y322355D01*
X12500Y322548D01*
X10540Y322355D01*
X8655Y321783D01*
X8369Y321631D01*
X5000Y325000D01*
Y350000D01*
X10000Y355000D01*
X102500D01*
X107500Y350000D01*
D02*
G37*
%LPC*%
G36*
X570000Y359933D02*
X568937Y359793D01*
X567947Y359383D01*
X567097Y358730D01*
X566444Y357880D01*
X566034Y356890D01*
X565894Y355827D01*
X566034Y354764D01*
X566444Y353774D01*
X567097Y352923D01*
X567947Y352271D01*
X568937Y351861D01*
X570000Y351721D01*
X571063Y351861D01*
X572053Y352271D01*
X572903Y352923D01*
X573556Y353774D01*
X573966Y354764D01*
X574106Y355827D01*
X573966Y356890D01*
X573556Y357880D01*
X572903Y358730D01*
X572053Y359383D01*
X571063Y359793D01*
X570000Y359933D01*
D02*
G37*
G36*
X532500D02*
X531437Y359793D01*
X530447Y359383D01*
X529597Y358730D01*
X528944Y357880D01*
X528534Y356890D01*
X528394Y355827D01*
X528534Y354764D01*
X528944Y353774D01*
X529597Y352923D01*
X530447Y352271D01*
X531437Y351861D01*
X532500Y351721D01*
X533563Y351861D01*
X534553Y352271D01*
X535403Y352923D01*
X536056Y353774D01*
X536466Y354764D01*
X536606Y355827D01*
X536466Y356890D01*
X536056Y357880D01*
X535403Y358730D01*
X534553Y359383D01*
X533563Y359793D01*
X532500Y359933D01*
D02*
G37*
G36*
X266000Y411353D02*
X264468Y411202D01*
X262995Y410755D01*
X261637Y410029D01*
X260447Y409053D01*
X259471Y407863D01*
X258745Y406505D01*
X258298Y405032D01*
X258147Y403500D01*
X258298Y401968D01*
X258745Y400495D01*
X259471Y399137D01*
X260447Y397947D01*
X261637Y396971D01*
X262300Y396616D01*
Y396116D01*
X262137Y396029D01*
X260947Y395053D01*
X259971Y393863D01*
X259245Y392505D01*
X258798Y391032D01*
X258647Y389500D01*
X258798Y387968D01*
X259245Y386495D01*
X259971Y385137D01*
X260947Y383947D01*
X262137Y382971D01*
X263205Y382400D01*
Y381833D01*
X262637Y381529D01*
X261447Y380553D01*
X260471Y379363D01*
X259745Y378005D01*
X259298Y376532D01*
X259147Y375000D01*
X259298Y373468D01*
X259745Y371995D01*
X260471Y370637D01*
X261447Y369447D01*
X262637Y368471D01*
X263995Y367745D01*
X265468Y367298D01*
X267000Y367147D01*
X268532Y367298D01*
X270005Y367745D01*
X271363Y368471D01*
X272553Y369447D01*
X273529Y370637D01*
X274255Y371995D01*
X274702Y373468D01*
X274853Y375000D01*
X274702Y376532D01*
X274255Y378005D01*
X273529Y379363D01*
X272553Y380553D01*
X271363Y381529D01*
X270295Y382100D01*
Y382667D01*
X270863Y382971D01*
X272053Y383947D01*
X273029Y385137D01*
X273755Y386495D01*
X274202Y387968D01*
X274353Y389500D01*
X274202Y391032D01*
X273755Y392505D01*
X273029Y393863D01*
X272053Y395053D01*
X270863Y396029D01*
X270200Y396384D01*
Y396884D01*
X270363Y396971D01*
X271553Y397947D01*
X272529Y399137D01*
X273255Y400495D01*
X273702Y401968D01*
X273853Y403500D01*
X273702Y405032D01*
X273255Y406505D01*
X272529Y407863D01*
X271553Y409053D01*
X270363Y410029D01*
X269005Y410755D01*
X267532Y411202D01*
X266000Y411353D01*
D02*
G37*
G36*
X607500Y359933D02*
X606437Y359793D01*
X605447Y359383D01*
X604597Y358730D01*
X603944Y357880D01*
X603534Y356890D01*
X603394Y355827D01*
X603534Y354764D01*
X603944Y353774D01*
X604597Y352923D01*
X605447Y352271D01*
X606437Y351861D01*
X607500Y351721D01*
X608563Y351861D01*
X609553Y352271D01*
X610403Y352923D01*
X611056Y353774D01*
X611466Y354764D01*
X611606Y355827D01*
X611466Y356890D01*
X611056Y357880D01*
X610403Y358730D01*
X609553Y359383D01*
X608563Y359793D01*
X607500Y359933D01*
D02*
G37*
G36*
X627500Y373530D02*
X626586Y373410D01*
X625735Y373057D01*
X625004Y372496D01*
X624443Y371765D01*
X624090Y370914D01*
X623970Y370000D01*
X624090Y369086D01*
X624443Y368235D01*
X625004Y367504D01*
X625735Y366943D01*
X626586Y366590D01*
X627500Y366470D01*
X628071Y366545D01*
X631047Y363569D01*
Y358425D01*
X629547D01*
Y347913D01*
Y339075D01*
X640453D01*
Y347913D01*
Y358425D01*
X638953D01*
Y365587D01*
X634797D01*
X630955Y369429D01*
X631030Y370000D01*
X630910Y370914D01*
X630557Y371765D01*
X629996Y372496D01*
X629265Y373057D01*
X628414Y373410D01*
X627500Y373530D01*
D02*
G37*
G36*
X475000Y361346D02*
X473762Y361224D01*
X472572Y360862D01*
X471475Y360276D01*
X470513Y359487D01*
X469724Y358525D01*
X469137Y357428D01*
X468776Y356238D01*
X468654Y355000D01*
X468776Y353762D01*
X469137Y352572D01*
X469724Y351475D01*
X470513Y350513D01*
X471475Y349724D01*
X472572Y349137D01*
X473762Y348776D01*
X475000Y348655D01*
X476238Y348776D01*
X477428Y349137D01*
X478525Y349724D01*
X479487Y350513D01*
X480276Y351475D01*
X480863Y352572D01*
X481224Y353762D01*
X481346Y355000D01*
X481224Y356238D01*
X480863Y357428D01*
X480276Y358525D01*
X479487Y359487D01*
X478525Y360276D01*
X477428Y360862D01*
X476238Y361224D01*
X475000Y361346D01*
D02*
G37*
G36*
X267000Y366353D02*
X265468Y366202D01*
X263995Y365755D01*
X262637Y365029D01*
X261447Y364053D01*
X260471Y362863D01*
X259745Y361505D01*
X259298Y360032D01*
X259147Y358500D01*
X259298Y356968D01*
X259745Y355495D01*
X260471Y354137D01*
X261447Y352947D01*
X262637Y351971D01*
X263956Y351266D01*
X263995Y351081D01*
Y350919D01*
X263956Y350734D01*
X262637Y350029D01*
X261447Y349053D01*
X260471Y347863D01*
X259745Y346505D01*
X259298Y345032D01*
X259147Y343500D01*
X259298Y341968D01*
X259745Y340495D01*
X260471Y339137D01*
X261447Y337947D01*
X262637Y336971D01*
X263956Y336266D01*
X263995Y336081D01*
Y335919D01*
X263956Y335734D01*
X262637Y335029D01*
X261447Y334053D01*
X260471Y332863D01*
X259745Y331505D01*
X259298Y330032D01*
X259147Y328500D01*
X259298Y326968D01*
X259745Y325495D01*
X260471Y324137D01*
X261447Y322947D01*
X262637Y321971D01*
X263995Y321245D01*
X265468Y320798D01*
X267000Y320647D01*
X268532Y320798D01*
X270005Y321245D01*
X271363Y321971D01*
X272553Y322947D01*
X273529Y324137D01*
X274255Y325495D01*
X274702Y326968D01*
X274853Y328500D01*
X274702Y330032D01*
X274255Y331505D01*
X273529Y332863D01*
X272553Y334053D01*
X271363Y335029D01*
X270044Y335734D01*
X270005Y335919D01*
Y336081D01*
X270044Y336266D01*
X271363Y336971D01*
X272553Y337947D01*
X273529Y339137D01*
X274255Y340495D01*
X274702Y341968D01*
X274853Y343500D01*
X274702Y345032D01*
X274255Y346505D01*
X273529Y347863D01*
X272553Y349053D01*
X271363Y350029D01*
X270044Y350734D01*
X270005Y350919D01*
Y351081D01*
X270044Y351266D01*
X271363Y351971D01*
X272553Y352947D01*
X273529Y354137D01*
X274255Y355495D01*
X274702Y356968D01*
X274853Y358500D01*
X274702Y360032D01*
X274255Y361505D01*
X273529Y362863D01*
X272553Y364053D01*
X271363Y365029D01*
X270005Y365755D01*
X268532Y366202D01*
X267000Y366353D01*
D02*
G37*
G36*
X335000Y373530D02*
X334086Y373410D01*
X333235Y373057D01*
X332504Y372496D01*
X331943Y371765D01*
X331590Y370914D01*
X331470Y370000D01*
X331590Y369086D01*
X331943Y368235D01*
X332504Y367504D01*
X333235Y366943D01*
X334086Y366590D01*
X334974Y366473D01*
X341047Y360400D01*
Y355925D01*
X339547D01*
Y345413D01*
Y336575D01*
X350453D01*
Y345413D01*
Y355925D01*
X348953D01*
Y363087D01*
X344128D01*
X338327Y368887D01*
X338410Y369086D01*
X338530Y370000D01*
X338410Y370914D01*
X338057Y371765D01*
X337496Y372496D01*
X336765Y373057D01*
X335914Y373410D01*
X335000Y373530D01*
D02*
G37*
G36*
X407500Y359933D02*
X406437Y359793D01*
X405447Y359383D01*
X404597Y358730D01*
X403944Y357880D01*
X403534Y356890D01*
X403394Y355827D01*
X403534Y354764D01*
X403944Y353774D01*
X404597Y352923D01*
X405447Y352271D01*
X406437Y351861D01*
X407500Y351721D01*
X408563Y351861D01*
X409553Y352271D01*
X410403Y352923D01*
X411056Y353774D01*
X411466Y354764D01*
X411606Y355827D01*
X411466Y356890D01*
X411056Y357880D01*
X410403Y358730D01*
X409553Y359383D01*
X408563Y359793D01*
X407500Y359933D01*
D02*
G37*
G36*
X445000D02*
X443937Y359793D01*
X442947Y359383D01*
X442097Y358730D01*
X441444Y357880D01*
X441034Y356890D01*
X440894Y355827D01*
X441034Y354764D01*
X441444Y353774D01*
X442097Y352923D01*
X442947Y352271D01*
X443937Y351861D01*
X445000Y351721D01*
X446063Y351861D01*
X447053Y352271D01*
X447903Y352923D01*
X448556Y353774D01*
X448966Y354764D01*
X449106Y355827D01*
X448966Y356890D01*
X448556Y357880D01*
X447903Y358730D01*
X447053Y359383D01*
X446063Y359793D01*
X445000Y359933D01*
D02*
G37*
G36*
X502500Y361346D02*
X501262Y361224D01*
X500072Y360862D01*
X498975Y360276D01*
X498013Y359487D01*
X497224Y358525D01*
X496637Y357428D01*
X496276Y356238D01*
X496154Y355000D01*
X496276Y353762D01*
X496637Y352572D01*
X497224Y351475D01*
X498013Y350513D01*
X498975Y349724D01*
X500072Y349137D01*
X501262Y348776D01*
X502500Y348655D01*
X503738Y348776D01*
X504928Y349137D01*
X506025Y349724D01*
X506987Y350513D01*
X507776Y351475D01*
X508362Y352572D01*
X508724Y353762D01*
X508846Y355000D01*
X508724Y356238D01*
X508362Y357428D01*
X507776Y358525D01*
X506987Y359487D01*
X506025Y360276D01*
X504928Y360862D01*
X503738Y361224D01*
X502500Y361346D01*
D02*
G37*
G36*
X370000Y359933D02*
X368937Y359793D01*
X367947Y359383D01*
X367097Y358730D01*
X366444Y357880D01*
X366034Y356890D01*
X365894Y355827D01*
X366034Y354764D01*
X366444Y353774D01*
X367097Y352923D01*
X367947Y352271D01*
X368937Y351861D01*
X370000Y351721D01*
X371063Y351861D01*
X372053Y352271D01*
X372903Y352923D01*
X373556Y353774D01*
X373966Y354764D01*
X374106Y355827D01*
X373966Y356890D01*
X373556Y357880D01*
X372903Y358730D01*
X372053Y359383D01*
X371063Y359793D01*
X370000Y359933D01*
D02*
G37*
G36*
X102972Y487606D02*
X101549Y487419D01*
X100223Y486869D01*
X99084Y485995D01*
X98210Y484856D01*
X97660Y483530D01*
X97473Y482106D01*
X97660Y480683D01*
X98210Y479356D01*
X99084Y478217D01*
X100223Y477343D01*
X101549Y476794D01*
X102972Y476607D01*
X104396Y476794D01*
X105722Y477343D01*
X106861Y478217D01*
X107735Y479356D01*
X108285Y480683D01*
X108472Y482106D01*
X108285Y483530D01*
X107735Y484856D01*
X106861Y485995D01*
X105722Y486869D01*
X104396Y487419D01*
X102972Y487606D01*
D02*
G37*
G36*
X47594Y532467D02*
X45287Y532285D01*
X43036Y531745D01*
X40898Y530859D01*
X38925Y529650D01*
X37165Y528147D01*
X35661Y526386D01*
X34452Y524413D01*
X33566Y522275D01*
X33026Y520024D01*
X32844Y517717D01*
X33026Y515409D01*
X33566Y513159D01*
X34452Y511020D01*
X35661Y509047D01*
X37165Y507287D01*
X38925Y505783D01*
X40898Y504574D01*
X43036Y503688D01*
X45287Y503148D01*
X47594Y502966D01*
X49902Y503148D01*
X52153Y503688D01*
X54291Y504574D01*
X56264Y505783D01*
X58025Y507287D01*
X59528Y509047D01*
X60737Y511020D01*
X61623Y513159D01*
X62163Y515409D01*
X62345Y517717D01*
X62163Y520024D01*
X61623Y522275D01*
X60737Y524413D01*
X59528Y526386D01*
X58025Y528147D01*
X56264Y529650D01*
X54291Y530859D01*
X52153Y531745D01*
X49902Y532285D01*
X47594Y532467D01*
D02*
G37*
G36*
X25472Y487606D02*
X24049Y487419D01*
X22723Y486869D01*
X21584Y485995D01*
X20709Y484856D01*
X20160Y483530D01*
X19973Y482106D01*
X20160Y480683D01*
X20709Y479356D01*
X21584Y478217D01*
X22723Y477343D01*
X24049Y476794D01*
X25472Y476607D01*
X26896Y476794D01*
X28222Y477343D01*
X29361Y478217D01*
X30235Y479356D01*
X30785Y480683D01*
X30972Y482106D01*
X30785Y483530D01*
X30235Y484856D01*
X29361Y485995D01*
X28222Y486869D01*
X26896Y487419D01*
X25472Y487606D01*
D02*
G37*
G36*
X84528D02*
X83104Y487419D01*
X81778Y486869D01*
X80639Y485995D01*
X79765Y484856D01*
X79215Y483530D01*
X79028Y482106D01*
X79215Y480683D01*
X79765Y479356D01*
X80639Y478217D01*
X81778Y477343D01*
X83104Y476794D01*
X84528Y476607D01*
X85951Y476794D01*
X87278Y477343D01*
X88416Y478217D01*
X89290Y479356D01*
X89840Y480683D01*
X90027Y482106D01*
X89840Y483530D01*
X89290Y484856D01*
X88416Y485995D01*
X87278Y486869D01*
X85951Y487419D01*
X84528Y487606D01*
D02*
G37*
G36*
X470500Y538000D02*
X455500D01*
Y523000D01*
X470500D01*
Y538000D01*
D02*
G37*
G36*
X583000D02*
X568000D01*
Y523000D01*
X583000D01*
Y538000D01*
D02*
G37*
G36*
X86500Y524353D02*
X84968Y524202D01*
X83495Y523755D01*
X82137Y523029D01*
X80947Y522053D01*
X79971Y520863D01*
X79245Y519505D01*
X78798Y518032D01*
X78647Y516500D01*
X78798Y514968D01*
X79245Y513495D01*
X79971Y512137D01*
X80947Y510947D01*
X82137Y509971D01*
X83495Y509245D01*
X84968Y508798D01*
X86500Y508647D01*
X88032Y508798D01*
X89505Y509245D01*
X90863Y509971D01*
X92053Y510947D01*
X93029Y512137D01*
X93755Y513495D01*
X94202Y514968D01*
X94353Y516500D01*
X94202Y518032D01*
X93755Y519505D01*
X93029Y520863D01*
X92053Y522053D01*
X90863Y523029D01*
X89505Y523755D01*
X88032Y524202D01*
X86500Y524353D01*
D02*
G37*
G36*
X493000Y538036D02*
X491530Y537891D01*
X490116Y537463D01*
X488813Y536766D01*
X487671Y535829D01*
X486734Y534687D01*
X486037Y533384D01*
X485608Y531970D01*
X485464Y530500D01*
X485608Y529030D01*
X486037Y527616D01*
X486734Y526313D01*
X487671Y525171D01*
X488813Y524234D01*
X490116Y523537D01*
X491530Y523108D01*
X493000Y522964D01*
X494470Y523108D01*
X495884Y523537D01*
X497187Y524234D01*
X498329Y525171D01*
X499266Y526313D01*
X499963Y527616D01*
X500391Y529030D01*
X500536Y530500D01*
X500391Y531970D01*
X499963Y533384D01*
X499266Y534687D01*
X498329Y535829D01*
X497187Y536766D01*
X495884Y537463D01*
X494470Y537891D01*
X493000Y538036D01*
D02*
G37*
G36*
X114784Y482392D02*
X113752Y482257D01*
X112790Y481858D01*
X111964Y481225D01*
X111331Y480399D01*
X110933Y479437D01*
X110797Y478406D01*
X110933Y477374D01*
X111331Y476412D01*
X111964Y475586D01*
X112790Y474953D01*
X113752Y474554D01*
X114784Y474419D01*
X115815Y474554D01*
X116777Y474953D01*
X117603Y475586D01*
X118236Y476412D01*
X118634Y477374D01*
X118770Y478406D01*
X118634Y479437D01*
X118236Y480399D01*
X117603Y481225D01*
X116777Y481858D01*
X115815Y482257D01*
X114784Y482392D01*
D02*
G37*
G36*
X605500Y456529D02*
X604324Y456413D01*
X603193Y456070D01*
X602150Y455513D01*
X601237Y454763D01*
X600487Y453850D01*
X599930Y452807D01*
X599587Y451676D01*
X599471Y450500D01*
X599587Y449324D01*
X599930Y448193D01*
X600487Y447151D01*
X601237Y446237D01*
X602150Y445487D01*
X603193Y444930D01*
X604324Y444587D01*
X605500Y444471D01*
X606676Y444587D01*
X607807Y444930D01*
X608849Y445487D01*
X609763Y446237D01*
X610513Y447151D01*
X611070Y448193D01*
X611413Y449324D01*
X611529Y450500D01*
X611413Y451676D01*
X611070Y452807D01*
X610513Y453850D01*
X609763Y454763D01*
X608849Y455513D01*
X607807Y456070D01*
X606676Y456413D01*
X605500Y456529D01*
D02*
G37*
G36*
X114784Y470581D02*
X113752Y470445D01*
X112790Y470047D01*
X111964Y469414D01*
X111331Y468588D01*
X110933Y467626D01*
X110797Y466595D01*
X110933Y465563D01*
X111331Y464601D01*
X111964Y463775D01*
X112790Y463142D01*
X113752Y462744D01*
X114784Y462608D01*
X115815Y462744D01*
X116777Y463142D01*
X117603Y463775D01*
X118236Y464601D01*
X118634Y465563D01*
X118770Y466595D01*
X118634Y467626D01*
X118236Y468588D01*
X117603Y469414D01*
X116777Y470047D01*
X115815Y470445D01*
X114784Y470581D01*
D02*
G37*
G36*
X453000Y458036D02*
X451530Y457892D01*
X450116Y457463D01*
X448813Y456766D01*
X447671Y455829D01*
X446734Y454687D01*
X446037Y453384D01*
X445609Y451970D01*
X445464Y450500D01*
X445609Y449030D01*
X446037Y447616D01*
X446734Y446313D01*
X447671Y445171D01*
X448813Y444234D01*
X450116Y443537D01*
X451530Y443109D01*
X453000Y442964D01*
X454470Y443109D01*
X455884Y443537D01*
X457187Y444234D01*
X458329Y445171D01*
X459266Y446313D01*
X459963Y447616D01*
X460392Y449030D01*
X460536Y450500D01*
X460392Y451970D01*
X459963Y453384D01*
X459266Y454687D01*
X458329Y455829D01*
X457187Y456766D01*
X455884Y457463D01*
X454470Y457892D01*
X453000Y458036D01*
D02*
G37*
G36*
X565500D02*
X564030Y457892D01*
X562616Y457463D01*
X561313Y456766D01*
X560171Y455829D01*
X559234Y454687D01*
X558537Y453384D01*
X558109Y451970D01*
X557964Y450500D01*
X558109Y449030D01*
X558537Y447616D01*
X559234Y446313D01*
X560171Y445171D01*
X561313Y444234D01*
X562616Y443537D01*
X564030Y443109D01*
X565500Y442964D01*
X566970Y443109D01*
X568384Y443537D01*
X569687Y444234D01*
X570829Y445171D01*
X571766Y446313D01*
X572463Y447616D01*
X572892Y449030D01*
X573036Y450500D01*
X572892Y451970D01*
X572463Y453384D01*
X571766Y454687D01*
X570829Y455829D01*
X569687Y456766D01*
X568384Y457463D01*
X566970Y457892D01*
X565500Y458036D01*
D02*
G37*
G36*
X60905Y482392D02*
X59874Y482257D01*
X58912Y481858D01*
X58086Y481225D01*
X57453Y480399D01*
X57055Y479437D01*
X56919Y478406D01*
X57055Y477374D01*
X57453Y476412D01*
X58086Y475586D01*
X58912Y474953D01*
X59874Y474554D01*
X60905Y474419D01*
X61937Y474554D01*
X62899Y474953D01*
X63725Y475586D01*
X64358Y476412D01*
X64757Y477374D01*
X64892Y478406D01*
X64757Y479437D01*
X64358Y480399D01*
X63725Y481225D01*
X62899Y481858D01*
X61937Y482257D01*
X60905Y482392D01*
D02*
G37*
G36*
X72716D02*
X71685Y482257D01*
X70723Y481858D01*
X69897Y481225D01*
X69264Y480399D01*
X68866Y479437D01*
X68730Y478406D01*
X68866Y477374D01*
X69264Y476412D01*
X69897Y475586D01*
X70723Y474953D01*
X71685Y474554D01*
X72716Y474419D01*
X73748Y474554D01*
X74710Y474953D01*
X75536Y475586D01*
X76169Y476412D01*
X76568Y477374D01*
X76703Y478406D01*
X76568Y479437D01*
X76169Y480399D01*
X75536Y481225D01*
X74710Y481858D01*
X73748Y482257D01*
X72716Y482392D01*
D02*
G37*
G36*
X37284D02*
X36252Y482257D01*
X35290Y481858D01*
X34464Y481225D01*
X33831Y480399D01*
X33432Y479437D01*
X33297Y478406D01*
X33432Y477374D01*
X33831Y476412D01*
X34464Y475586D01*
X35290Y474953D01*
X36252Y474554D01*
X37284Y474419D01*
X38315Y474554D01*
X39277Y474953D01*
X40103Y475586D01*
X40736Y476412D01*
X41135Y477374D01*
X41270Y478406D01*
X41135Y479437D01*
X40736Y480399D01*
X40103Y481225D01*
X39277Y481858D01*
X38315Y482257D01*
X37284Y482392D01*
D02*
G37*
G36*
X49095D02*
X48063Y482257D01*
X47101Y481858D01*
X46275Y481225D01*
X45642Y480399D01*
X45243Y479437D01*
X45108Y478406D01*
X45243Y477374D01*
X45642Y476412D01*
X46275Y475586D01*
X47101Y474953D01*
X48063Y474554D01*
X49095Y474419D01*
X50126Y474554D01*
X51088Y474953D01*
X51914Y475586D01*
X52547Y476412D01*
X52946Y477374D01*
X53081Y478406D01*
X52946Y479437D01*
X52547Y480399D01*
X51914Y481225D01*
X51088Y481858D01*
X50126Y482257D01*
X49095Y482392D01*
D02*
G37*
%LPD*%
G36*
X210000Y732500D02*
Y707500D01*
X205000Y702500D01*
X117500D01*
X112500Y707500D01*
Y732500D01*
X117500Y737500D01*
X205000D01*
X210000Y732500D01*
D02*
G37*
G36*
X240000Y887500D02*
Y810000D01*
X235000Y805000D01*
X122500Y805000D01*
X117500Y810000D01*
Y850000D01*
Y885000D01*
Y887500D01*
X122500Y892500D01*
X235000D01*
X240000Y887500D01*
D02*
G37*
G36*
X369661Y802463D02*
X369787Y802476D01*
X369911Y802451D01*
X492549D01*
X495000Y800000D01*
Y756583D01*
X494598Y756285D01*
X494176Y756413D01*
X493000Y756529D01*
X491824Y756413D01*
X490693Y756070D01*
X489650Y755513D01*
X488737Y754763D01*
X487987Y753850D01*
X487430Y752807D01*
X487087Y751676D01*
X486971Y750500D01*
X487087Y749324D01*
X487430Y748193D01*
X487987Y747151D01*
X488737Y746237D01*
X489650Y745487D01*
X490693Y744930D01*
X491824Y744587D01*
X493000Y744471D01*
X494176Y744587D01*
X494598Y744715D01*
X495000Y744417D01*
Y675000D01*
X485000Y665000D01*
Y610000D01*
X480000Y605000D01*
X332347D01*
X332192Y605500D01*
X333355Y606917D01*
X334283Y608655D01*
X334855Y610540D01*
X335048Y612500D01*
X334855Y614460D01*
X334283Y616345D01*
X333355Y618083D01*
X332105Y619605D01*
X330583Y620855D01*
X328845Y621783D01*
X326960Y622355D01*
X325000Y622548D01*
X323040Y622355D01*
X321155Y621783D01*
X319417Y620855D01*
X317895Y619605D01*
X316645Y618083D01*
X315717Y616345D01*
X315145Y614460D01*
X314952Y612500D01*
X315145Y610540D01*
X315717Y608655D01*
X316645Y606917D01*
X317808Y605500D01*
X317653Y605000D01*
X220000D01*
X212500Y612500D01*
Y624754D01*
X212549Y625000D01*
Y650000D01*
X212500Y650246D01*
Y659854D01*
X212962Y660046D01*
X239059Y633948D01*
X239000Y633500D01*
X239188Y632077D01*
X239737Y630750D01*
X240611Y629611D01*
X241750Y628737D01*
X243076Y628188D01*
X244500Y628000D01*
X245923Y628188D01*
X247250Y628737D01*
X248389Y629611D01*
X249263Y630750D01*
X249812Y632077D01*
X250000Y633500D01*
X249812Y634923D01*
X249263Y636250D01*
X248389Y637389D01*
X247307Y638219D01*
X247276Y638500D01*
X247307Y638781D01*
X248389Y639611D01*
X249263Y640750D01*
X249812Y642077D01*
X250000Y643500D01*
X249812Y644923D01*
X249263Y646250D01*
X248389Y647389D01*
X248148Y647574D01*
X248309Y648047D01*
X249953D01*
Y658953D01*
X244040D01*
X227030Y675962D01*
Y679824D01*
X227492Y680015D01*
X230504Y677004D01*
X231235Y676443D01*
X232086Y676090D01*
X233000Y675970D01*
X239836D01*
X240111Y675611D01*
X241250Y674737D01*
X242577Y674188D01*
X244000Y674000D01*
X245424Y674188D01*
X246750Y674737D01*
X247889Y675611D01*
X248763Y676750D01*
X249312Y678077D01*
X249500Y679500D01*
X249312Y680923D01*
X248763Y682250D01*
X247889Y683389D01*
X246807Y684219D01*
X246776Y684500D01*
X246807Y684781D01*
X247889Y685611D01*
X248763Y686750D01*
X249312Y688077D01*
X249500Y689500D01*
X249312Y690923D01*
X248763Y692250D01*
X247889Y693389D01*
X247648Y693574D01*
X247809Y694047D01*
X249453D01*
Y704953D01*
X243540D01*
X241030Y707462D01*
Y723804D01*
X241530Y724121D01*
X242577Y723688D01*
X244000Y723500D01*
X245424Y723688D01*
X246750Y724237D01*
X247889Y725111D01*
X248763Y726250D01*
X249312Y727577D01*
X249500Y729000D01*
X249312Y730423D01*
X248763Y731750D01*
X247889Y732889D01*
X246807Y733719D01*
X246776Y734000D01*
X246807Y734281D01*
X247889Y735111D01*
X248763Y736250D01*
X248854Y736470D01*
X250000D01*
X250914Y736590D01*
X251765Y736943D01*
X252496Y737504D01*
X254996Y740004D01*
X255557Y740735D01*
X255910Y741586D01*
X256030Y742500D01*
Y746629D01*
X256530Y746703D01*
X256745Y745995D01*
X257471Y744637D01*
X258447Y743447D01*
X259637Y742471D01*
X260518Y742000D01*
Y741500D01*
X259637Y741029D01*
X258447Y740053D01*
X257471Y738863D01*
X256745Y737505D01*
X256298Y736032D01*
X256147Y734500D01*
X256298Y732968D01*
X256745Y731495D01*
X257471Y730137D01*
X258447Y728947D01*
X259637Y727971D01*
X260995Y727245D01*
X262468Y726798D01*
X264000Y726647D01*
X265532Y726798D01*
X267005Y727245D01*
X268363Y727971D01*
X269553Y728947D01*
X270529Y730137D01*
X271255Y731495D01*
X271702Y732968D01*
X271853Y734500D01*
X271702Y736032D01*
X271255Y737505D01*
X270529Y738863D01*
X269553Y740053D01*
X268363Y741029D01*
X267482Y741500D01*
Y742000D01*
X268363Y742471D01*
X269553Y743447D01*
X270529Y744637D01*
X271255Y745995D01*
X271702Y747468D01*
X271853Y749000D01*
X271702Y750532D01*
X271255Y752005D01*
X270529Y753363D01*
X269553Y754553D01*
X268363Y755529D01*
X267005Y756255D01*
X265532Y756702D01*
X264000Y756853D01*
X262468Y756702D01*
X260995Y756255D01*
X259637Y755529D01*
X258447Y754553D01*
X257471Y753363D01*
X256745Y752005D01*
X256530Y751297D01*
X256030Y751371D01*
Y777500D01*
X255910Y778414D01*
X255557Y779265D01*
X254996Y779996D01*
X237996Y796996D01*
X237265Y797557D01*
X236414Y797910D01*
X235500Y798030D01*
X142000D01*
X141086Y797910D01*
X140235Y797557D01*
X139504Y796996D01*
X126385Y783878D01*
X125171Y783718D01*
X123845Y783169D01*
X122705Y782295D01*
X121832Y781155D01*
X121282Y779829D01*
X121095Y778406D01*
X121282Y776982D01*
X121832Y775656D01*
X122705Y774517D01*
X123845Y773642D01*
X125171Y773093D01*
X126594Y772906D01*
X128018Y773093D01*
X129344Y773642D01*
X130483Y774517D01*
X131358Y775656D01*
X131907Y776982D01*
X132094Y778406D01*
X131955Y779463D01*
X132733Y780240D01*
X133148Y779962D01*
X133093Y779829D01*
X132906Y778406D01*
X133093Y776982D01*
X133642Y775656D01*
X134517Y774517D01*
X135656Y773642D01*
X136982Y773093D01*
X138406Y772906D01*
X139829Y773093D01*
X141155Y773642D01*
X142295Y774517D01*
X143168Y775656D01*
X143718Y776982D01*
X143905Y778406D01*
X143788Y779296D01*
X150962Y786470D01*
X157979D01*
X158091Y786141D01*
X158119Y785970D01*
X157265Y784856D01*
X156715Y783530D01*
X156528Y782106D01*
X156715Y780683D01*
X157265Y779356D01*
X158139Y778217D01*
X159278Y777343D01*
X160604Y776794D01*
X162028Y776607D01*
X163451Y776794D01*
X164778Y777343D01*
X165917Y778217D01*
X166790Y779356D01*
X167340Y780683D01*
X167527Y782106D01*
X167340Y783530D01*
X166790Y784856D01*
X165936Y785970D01*
X165964Y786141D01*
X166076Y786470D01*
X231538D01*
X240470Y777538D01*
Y765157D01*
X240104Y765033D01*
X239970Y765023D01*
X235902Y769091D01*
X235171Y769652D01*
X234319Y770004D01*
X233405Y770125D01*
X154381D01*
X154105Y770483D01*
X152966Y771357D01*
X151640Y771907D01*
X150216Y772094D01*
X148793Y771907D01*
X147467Y771357D01*
X146328Y770483D01*
X145454Y769344D01*
X144904Y768018D01*
X144717Y766595D01*
X144809Y765890D01*
X144336Y765657D01*
X143846Y766146D01*
X143905Y766595D01*
X143718Y768018D01*
X143168Y769344D01*
X142295Y770483D01*
X141155Y771357D01*
X139829Y771907D01*
X138406Y772094D01*
X136982Y771907D01*
X135656Y771357D01*
X134517Y770483D01*
X133642Y769344D01*
X133093Y768018D01*
X132906Y766595D01*
X132998Y765890D01*
X132525Y765657D01*
X132035Y766146D01*
X132094Y766595D01*
X131907Y768018D01*
X131358Y769344D01*
X130483Y770483D01*
X129344Y771357D01*
X128018Y771907D01*
X126594Y772094D01*
X125171Y771907D01*
X123845Y771357D01*
X122705Y770483D01*
X121832Y769344D01*
X121282Y768018D01*
X121095Y766595D01*
X121282Y765171D01*
X121832Y763845D01*
X122705Y762706D01*
X123845Y761832D01*
X125171Y761282D01*
X126594Y761095D01*
X127043Y761154D01*
X133204Y754992D01*
X133013Y754530D01*
X77962D01*
X66346Y766146D01*
X66405Y766595D01*
X66218Y768018D01*
X65668Y769344D01*
X64794Y770483D01*
X63655Y771357D01*
X62329Y771907D01*
X60905Y772094D01*
X59482Y771907D01*
X58156Y771357D01*
X57017Y770483D01*
X56142Y769344D01*
X55593Y768018D01*
X55406Y766595D01*
X55498Y765890D01*
X55025Y765657D01*
X54535Y766146D01*
X54594Y766595D01*
X54407Y768018D01*
X53857Y769344D01*
X52983Y770483D01*
X51844Y771357D01*
X50518Y771907D01*
X49095Y772094D01*
X47671Y771907D01*
X46345Y771357D01*
X45206Y770483D01*
X44331Y769344D01*
X43782Y768018D01*
X43595Y766595D01*
X43687Y765890D01*
X43214Y765657D01*
X42724Y766146D01*
X42783Y766595D01*
X42596Y768018D01*
X42046Y769344D01*
X41172Y770483D01*
X40033Y771357D01*
X38707Y771907D01*
X37284Y772094D01*
X35860Y771907D01*
X34534Y771357D01*
X33395Y770483D01*
X32520Y769344D01*
X31971Y768018D01*
X31784Y766595D01*
X31971Y765171D01*
X32520Y763845D01*
X33395Y762706D01*
X34534Y761832D01*
X35860Y761282D01*
X37284Y761095D01*
X37732Y761154D01*
X58087Y740798D01*
X58191Y740549D01*
X57857Y740049D01*
X10000D01*
X9025Y739855D01*
X8198Y739302D01*
X5000Y742500D01*
Y787500D01*
X9959Y792459D01*
X10000Y792451D01*
X107500D01*
X108475Y792645D01*
X109302Y793198D01*
X113024Y796919D01*
X120000Y802500D01*
X122254D01*
X122500Y802451D01*
X235000Y802451D01*
X235246Y802500D01*
X254754D01*
X255000Y802451D01*
X350089D01*
X350213Y802476D01*
X350339Y802463D01*
X350460Y802500D01*
X359427D01*
X360000Y802462D01*
X360573Y802500D01*
X369541D01*
X369661Y802463D01*
D02*
G37*
G36*
X107500Y692500D02*
X107000Y665000D01*
X102000Y660000D01*
X9500D01*
X5000Y665000D01*
Y692500D01*
X10000Y697500D01*
X102500D01*
X107500Y692500D01*
D02*
G37*
G36*
X209500D02*
Y665000D01*
X204500Y660000D01*
X117000D01*
X112000Y665000D01*
Y692500D01*
X117000Y697500D01*
X204500D01*
X209500Y692500D01*
D02*
G37*
G36*
X107500Y732500D02*
Y707500D01*
X102500Y702500D01*
X10000D01*
X5500Y707500D01*
Y732500D01*
X5500Y732500D01*
X5500Y733000D01*
X10000Y737500D01*
X102500D01*
X107500Y732500D01*
D02*
G37*
G36*
X112500Y887500D02*
Y800000D01*
X107500Y795000D01*
X10000D01*
X5500Y799500D01*
Y800000D01*
Y879724D01*
X5952Y879937D01*
X6917Y879145D01*
X8655Y878216D01*
X10540Y877645D01*
X12500Y877452D01*
X14460Y877645D01*
X16345Y878216D01*
X18083Y879145D01*
X19605Y880395D01*
X20855Y881917D01*
X21783Y883655D01*
X22355Y885540D01*
X22548Y887500D01*
X22355Y889460D01*
X21783Y891345D01*
X21396Y892071D01*
X21653Y892500D01*
X107500D01*
X112500Y887500D01*
D02*
G37*
G36*
X612500D02*
Y834375D01*
X612000Y834249D01*
X611766Y834687D01*
X610829Y835829D01*
X609687Y836766D01*
X608384Y837463D01*
X606970Y837891D01*
X605500Y838036D01*
X604030Y837891D01*
X602616Y837463D01*
X601313Y836766D01*
X600171Y835829D01*
X599234Y834687D01*
X598537Y833384D01*
X598108Y831970D01*
X597964Y830500D01*
X598108Y829030D01*
X598537Y827616D01*
X599234Y826313D01*
X600171Y825171D01*
X601313Y824234D01*
X602616Y823537D01*
X604030Y823108D01*
X605500Y822964D01*
X606970Y823108D01*
X608384Y823537D01*
X609687Y824234D01*
X610829Y825171D01*
X611766Y826313D01*
X612000Y826750D01*
X612500Y826625D01*
Y810000D01*
X607500Y805000D01*
X369911D01*
X369766Y805478D01*
X370676Y806087D01*
X372401Y807599D01*
X373914Y809324D01*
X375188Y811231D01*
X376203Y813289D01*
X376940Y815461D01*
X377387Y817711D01*
X377538Y820000D01*
X377387Y822289D01*
X376940Y824539D01*
X376203Y826711D01*
X375188Y828769D01*
X373914Y830676D01*
X372401Y832401D01*
X370676Y833914D01*
X368769Y835188D01*
X366711Y836203D01*
X364539Y836940D01*
X362289Y837387D01*
X360000Y837538D01*
X357711Y837387D01*
X355461Y836940D01*
X353289Y836203D01*
X351231Y835188D01*
X349324Y833914D01*
X347599Y832401D01*
X346087Y830676D01*
X344812Y828769D01*
X343797Y826711D01*
X343060Y824539D01*
X342613Y822289D01*
X342462Y820000D01*
X342613Y817711D01*
X343060Y815461D01*
X343797Y813289D01*
X344812Y811231D01*
X346087Y809324D01*
X347599Y807599D01*
X349324Y806087D01*
X350234Y805478D01*
X350089Y805000D01*
X255000D01*
X250000Y810000D01*
Y887500D01*
X255000Y892500D01*
X315847D01*
X316104Y892071D01*
X315717Y891345D01*
X315145Y889460D01*
X314952Y887500D01*
X315145Y885540D01*
X315717Y883655D01*
X316645Y881917D01*
X317895Y880395D01*
X319417Y879145D01*
X321155Y878216D01*
X323040Y877645D01*
X325000Y877452D01*
X326960Y877645D01*
X328845Y878216D01*
X330583Y879145D01*
X332105Y880395D01*
X333355Y881917D01*
X334283Y883655D01*
X334855Y885540D01*
X335048Y887500D01*
X334855Y889460D01*
X334283Y891345D01*
X333896Y892071D01*
X334153Y892500D01*
X607500D01*
X612500Y887500D01*
D02*
G37*
G36*
X617500Y802500D02*
X645000Y775000D01*
Y634000D01*
X611500Y604500D01*
X505000Y605000D01*
X495000Y615000D01*
Y665000D01*
X505000Y675000D01*
Y798000D01*
X509451Y802451D01*
X607500D01*
X607746Y802500D01*
X617500D01*
D02*
G37*
G36*
X210000Y650000D02*
Y625000D01*
X205000Y620000D01*
X117500D01*
X112500Y625000D01*
Y649500D01*
X117500Y655000D01*
X205000D01*
X210000Y650000D01*
D02*
G37*
G36*
X107500D02*
Y625000D01*
X102500Y620000D01*
X19124D01*
X18083Y620855D01*
X16345Y621783D01*
X14460Y622355D01*
X12500Y622548D01*
X10540Y622355D01*
X8655Y621783D01*
X8369Y621631D01*
X5000Y625000D01*
Y650000D01*
X10000Y655000D01*
X102500D01*
X107500Y650000D01*
D02*
G37*
%LPC*%
G36*
X570000Y659933D02*
X568937Y659793D01*
X567947Y659383D01*
X567097Y658730D01*
X566444Y657880D01*
X566034Y656889D01*
X565894Y655827D01*
X566034Y654764D01*
X566444Y653774D01*
X567097Y652923D01*
X567947Y652271D01*
X568937Y651861D01*
X570000Y651721D01*
X571063Y651861D01*
X572053Y652271D01*
X572903Y652923D01*
X573556Y653774D01*
X573966Y654764D01*
X574106Y655827D01*
X573966Y656889D01*
X573556Y657880D01*
X572903Y658730D01*
X572053Y659383D01*
X571063Y659793D01*
X570000Y659933D01*
D02*
G37*
G36*
X532500D02*
X531437Y659793D01*
X530447Y659383D01*
X529597Y658730D01*
X528944Y657880D01*
X528534Y656889D01*
X528394Y655827D01*
X528534Y654764D01*
X528944Y653774D01*
X529597Y652923D01*
X530447Y652271D01*
X531437Y651861D01*
X532500Y651721D01*
X533563Y651861D01*
X534553Y652271D01*
X535403Y652923D01*
X536056Y653774D01*
X536466Y654764D01*
X536606Y655827D01*
X536466Y656889D01*
X536056Y657880D01*
X535403Y658730D01*
X534553Y659383D01*
X533563Y659793D01*
X532500Y659933D01*
D02*
G37*
G36*
X266000Y711353D02*
X264468Y711202D01*
X262995Y710755D01*
X261637Y710029D01*
X260447Y709053D01*
X259471Y707863D01*
X258745Y706505D01*
X258298Y705032D01*
X258147Y703500D01*
X258298Y701968D01*
X258745Y700495D01*
X259471Y699137D01*
X260447Y697947D01*
X261637Y696971D01*
X262300Y696616D01*
Y696116D01*
X262137Y696029D01*
X260947Y695053D01*
X259971Y693863D01*
X259245Y692505D01*
X258798Y691032D01*
X258647Y689500D01*
X258798Y687968D01*
X259245Y686495D01*
X259971Y685137D01*
X260947Y683947D01*
X262137Y682971D01*
X263205Y682400D01*
Y681833D01*
X262637Y681529D01*
X261447Y680553D01*
X260471Y679363D01*
X259745Y678005D01*
X259298Y676532D01*
X259147Y675000D01*
X259298Y673468D01*
X259745Y671995D01*
X260471Y670637D01*
X261447Y669447D01*
X262637Y668471D01*
X263995Y667745D01*
X265468Y667298D01*
X267000Y667147D01*
X268532Y667298D01*
X270005Y667745D01*
X271363Y668471D01*
X272553Y669447D01*
X273529Y670637D01*
X274255Y671995D01*
X274702Y673468D01*
X274853Y675000D01*
X274702Y676532D01*
X274255Y678005D01*
X273529Y679363D01*
X272553Y680553D01*
X271363Y681529D01*
X270295Y682100D01*
Y682667D01*
X270863Y682971D01*
X272053Y683947D01*
X273029Y685137D01*
X273755Y686495D01*
X274202Y687968D01*
X274353Y689500D01*
X274202Y691032D01*
X273755Y692505D01*
X273029Y693863D01*
X272053Y695053D01*
X270863Y696029D01*
X270200Y696384D01*
Y696884D01*
X270363Y696971D01*
X271553Y697947D01*
X272529Y699137D01*
X273255Y700495D01*
X273702Y701968D01*
X273853Y703500D01*
X273702Y705032D01*
X273255Y706505D01*
X272529Y707863D01*
X271553Y709053D01*
X270363Y710029D01*
X269005Y710755D01*
X267532Y711202D01*
X266000Y711353D01*
D02*
G37*
G36*
X607500Y659933D02*
X606437Y659793D01*
X605447Y659383D01*
X604597Y658730D01*
X603944Y657880D01*
X603534Y656889D01*
X603394Y655827D01*
X603534Y654764D01*
X603944Y653774D01*
X604597Y652923D01*
X605447Y652271D01*
X606437Y651861D01*
X607500Y651721D01*
X608563Y651861D01*
X609553Y652271D01*
X610403Y652923D01*
X611056Y653774D01*
X611466Y654764D01*
X611606Y655827D01*
X611466Y656889D01*
X611056Y657880D01*
X610403Y658730D01*
X609553Y659383D01*
X608563Y659793D01*
X607500Y659933D01*
D02*
G37*
G36*
X627500Y673530D02*
X626586Y673410D01*
X625735Y673057D01*
X625004Y672496D01*
X624443Y671765D01*
X624090Y670914D01*
X623970Y670000D01*
X624090Y669086D01*
X624443Y668235D01*
X625004Y667504D01*
X625735Y666943D01*
X626586Y666590D01*
X627500Y666470D01*
X628071Y666545D01*
X631047Y663569D01*
Y658425D01*
X629547D01*
Y647913D01*
Y639075D01*
X640453D01*
Y647913D01*
Y658425D01*
X638953D01*
Y665587D01*
X634797D01*
X630955Y669429D01*
X631030Y670000D01*
X630910Y670914D01*
X630557Y671765D01*
X629996Y672496D01*
X629265Y673057D01*
X628414Y673410D01*
X627500Y673530D01*
D02*
G37*
G36*
X475000Y661345D02*
X473762Y661224D01*
X472572Y660862D01*
X471475Y660276D01*
X470513Y659487D01*
X469724Y658525D01*
X469137Y657428D01*
X468776Y656238D01*
X468654Y655000D01*
X468776Y653762D01*
X469137Y652572D01*
X469724Y651475D01*
X470513Y650513D01*
X471475Y649724D01*
X472572Y649137D01*
X473762Y648776D01*
X475000Y648655D01*
X476238Y648776D01*
X477428Y649137D01*
X478525Y649724D01*
X479487Y650513D01*
X480276Y651475D01*
X480863Y652572D01*
X481224Y653762D01*
X481346Y655000D01*
X481224Y656238D01*
X480863Y657428D01*
X480276Y658525D01*
X479487Y659487D01*
X478525Y660276D01*
X477428Y660862D01*
X476238Y661224D01*
X475000Y661345D01*
D02*
G37*
G36*
X267000Y666353D02*
X265468Y666202D01*
X263995Y665755D01*
X262637Y665029D01*
X261447Y664053D01*
X260471Y662863D01*
X259745Y661505D01*
X259298Y660032D01*
X259147Y658500D01*
X259298Y656968D01*
X259745Y655495D01*
X260471Y654137D01*
X261447Y652947D01*
X262637Y651971D01*
X263956Y651266D01*
X263995Y651081D01*
Y650919D01*
X263956Y650734D01*
X262637Y650029D01*
X261447Y649053D01*
X260471Y647863D01*
X259745Y646505D01*
X259298Y645032D01*
X259147Y643500D01*
X259298Y641968D01*
X259745Y640495D01*
X260471Y639137D01*
X261447Y637947D01*
X262637Y636971D01*
X263956Y636266D01*
X263995Y636081D01*
Y635919D01*
X263956Y635734D01*
X262637Y635029D01*
X261447Y634053D01*
X260471Y632863D01*
X259745Y631505D01*
X259298Y630032D01*
X259147Y628500D01*
X259298Y626968D01*
X259745Y625495D01*
X260471Y624137D01*
X261447Y622947D01*
X262637Y621971D01*
X263995Y621245D01*
X265468Y620798D01*
X267000Y620647D01*
X268532Y620798D01*
X270005Y621245D01*
X271363Y621971D01*
X272553Y622947D01*
X273529Y624137D01*
X274255Y625495D01*
X274702Y626968D01*
X274853Y628500D01*
X274702Y630032D01*
X274255Y631505D01*
X273529Y632863D01*
X272553Y634053D01*
X271363Y635029D01*
X270044Y635734D01*
X270005Y635919D01*
Y636081D01*
X270044Y636266D01*
X271363Y636971D01*
X272553Y637947D01*
X273529Y639137D01*
X274255Y640495D01*
X274702Y641968D01*
X274853Y643500D01*
X274702Y645032D01*
X274255Y646505D01*
X273529Y647863D01*
X272553Y649053D01*
X271363Y650029D01*
X270044Y650734D01*
X270005Y650919D01*
Y651081D01*
X270044Y651266D01*
X271363Y651971D01*
X272553Y652947D01*
X273529Y654137D01*
X274255Y655495D01*
X274702Y656968D01*
X274853Y658500D01*
X274702Y660032D01*
X274255Y661505D01*
X273529Y662863D01*
X272553Y664053D01*
X271363Y665029D01*
X270005Y665755D01*
X268532Y666202D01*
X267000Y666353D01*
D02*
G37*
G36*
X335000Y673530D02*
X334086Y673410D01*
X333235Y673057D01*
X332504Y672496D01*
X331943Y671765D01*
X331590Y670914D01*
X331470Y670000D01*
X331590Y669086D01*
X331943Y668235D01*
X332504Y667504D01*
X333235Y666943D01*
X334086Y666590D01*
X334974Y666473D01*
X341047Y660400D01*
Y655925D01*
X339547D01*
Y645413D01*
Y636575D01*
X350453D01*
Y645413D01*
Y655925D01*
X348953D01*
Y663087D01*
X344128D01*
X338327Y668887D01*
X338410Y669086D01*
X338530Y670000D01*
X338410Y670914D01*
X338057Y671765D01*
X337496Y672496D01*
X336765Y673057D01*
X335914Y673410D01*
X335000Y673530D01*
D02*
G37*
G36*
X407500Y659933D02*
X406437Y659793D01*
X405447Y659383D01*
X404597Y658730D01*
X403944Y657880D01*
X403534Y656889D01*
X403394Y655827D01*
X403534Y654764D01*
X403944Y653774D01*
X404597Y652923D01*
X405447Y652271D01*
X406437Y651861D01*
X407500Y651721D01*
X408563Y651861D01*
X409553Y652271D01*
X410403Y652923D01*
X411056Y653774D01*
X411466Y654764D01*
X411606Y655827D01*
X411466Y656889D01*
X411056Y657880D01*
X410403Y658730D01*
X409553Y659383D01*
X408563Y659793D01*
X407500Y659933D01*
D02*
G37*
G36*
X445000D02*
X443937Y659793D01*
X442947Y659383D01*
X442097Y658730D01*
X441444Y657880D01*
X441034Y656889D01*
X440894Y655827D01*
X441034Y654764D01*
X441444Y653774D01*
X442097Y652923D01*
X442947Y652271D01*
X443937Y651861D01*
X445000Y651721D01*
X446063Y651861D01*
X447053Y652271D01*
X447903Y652923D01*
X448556Y653774D01*
X448966Y654764D01*
X449106Y655827D01*
X448966Y656889D01*
X448556Y657880D01*
X447903Y658730D01*
X447053Y659383D01*
X446063Y659793D01*
X445000Y659933D01*
D02*
G37*
G36*
X502500Y661345D02*
X501262Y661224D01*
X500072Y660862D01*
X498975Y660276D01*
X498013Y659487D01*
X497224Y658525D01*
X496637Y657428D01*
X496276Y656238D01*
X496154Y655000D01*
X496276Y653762D01*
X496637Y652572D01*
X497224Y651475D01*
X498013Y650513D01*
X498975Y649724D01*
X500072Y649137D01*
X501262Y648776D01*
X502500Y648655D01*
X503738Y648776D01*
X504928Y649137D01*
X506025Y649724D01*
X506987Y650513D01*
X507776Y651475D01*
X508362Y652572D01*
X508724Y653762D01*
X508846Y655000D01*
X508724Y656238D01*
X508362Y657428D01*
X507776Y658525D01*
X506987Y659487D01*
X506025Y660276D01*
X504928Y660862D01*
X503738Y661224D01*
X502500Y661345D01*
D02*
G37*
G36*
X370000Y659933D02*
X368937Y659793D01*
X367947Y659383D01*
X367097Y658730D01*
X366444Y657880D01*
X366034Y656889D01*
X365894Y655827D01*
X366034Y654764D01*
X366444Y653774D01*
X367097Y652923D01*
X367947Y652271D01*
X368937Y651861D01*
X370000Y651721D01*
X371063Y651861D01*
X372053Y652271D01*
X372903Y652923D01*
X373556Y653774D01*
X373966Y654764D01*
X374106Y655827D01*
X373966Y656889D01*
X373556Y657880D01*
X372903Y658730D01*
X372053Y659383D01*
X371063Y659793D01*
X370000Y659933D01*
D02*
G37*
G36*
X102972Y787606D02*
X101549Y787419D01*
X100223Y786869D01*
X99084Y785995D01*
X98210Y784856D01*
X97660Y783530D01*
X97473Y782106D01*
X97660Y780683D01*
X98210Y779356D01*
X99084Y778217D01*
X100223Y777343D01*
X101549Y776794D01*
X102972Y776607D01*
X104396Y776794D01*
X105722Y777343D01*
X106861Y778217D01*
X107735Y779356D01*
X108285Y780683D01*
X108472Y782106D01*
X108285Y783530D01*
X107735Y784856D01*
X106861Y785995D01*
X105722Y786869D01*
X104396Y787419D01*
X102972Y787606D01*
D02*
G37*
G36*
X47594Y832467D02*
X45287Y832285D01*
X43036Y831745D01*
X40898Y830859D01*
X38925Y829650D01*
X37165Y828146D01*
X35661Y826387D01*
X34452Y824413D01*
X33566Y822275D01*
X33026Y820024D01*
X32844Y817717D01*
X33026Y815409D01*
X33566Y813159D01*
X34452Y811020D01*
X35661Y809047D01*
X37165Y807287D01*
X38925Y805783D01*
X40898Y804574D01*
X43036Y803688D01*
X45287Y803148D01*
X47594Y802966D01*
X49902Y803148D01*
X52153Y803688D01*
X54291Y804574D01*
X56264Y805783D01*
X58025Y807287D01*
X59528Y809047D01*
X60737Y811020D01*
X61623Y813159D01*
X62163Y815409D01*
X62345Y817717D01*
X62163Y820024D01*
X61623Y822275D01*
X60737Y824413D01*
X59528Y826387D01*
X58025Y828146D01*
X56264Y829650D01*
X54291Y830859D01*
X52153Y831745D01*
X49902Y832285D01*
X47594Y832467D01*
D02*
G37*
G36*
X25472Y787606D02*
X24049Y787419D01*
X22723Y786869D01*
X21584Y785995D01*
X20709Y784856D01*
X20160Y783530D01*
X19973Y782106D01*
X20160Y780683D01*
X20709Y779356D01*
X21584Y778217D01*
X22723Y777343D01*
X24049Y776794D01*
X25472Y776607D01*
X26896Y776794D01*
X28222Y777343D01*
X29361Y778217D01*
X30235Y779356D01*
X30785Y780683D01*
X30972Y782106D01*
X30785Y783530D01*
X30235Y784856D01*
X29361Y785995D01*
X28222Y786869D01*
X26896Y787419D01*
X25472Y787606D01*
D02*
G37*
G36*
X84528D02*
X83104Y787419D01*
X81778Y786869D01*
X80639Y785995D01*
X79765Y784856D01*
X79215Y783530D01*
X79028Y782106D01*
X79215Y780683D01*
X79765Y779356D01*
X80639Y778217D01*
X81778Y777343D01*
X83104Y776794D01*
X84528Y776607D01*
X85951Y776794D01*
X87278Y777343D01*
X88416Y778217D01*
X89290Y779356D01*
X89840Y780683D01*
X90027Y782106D01*
X89840Y783530D01*
X89290Y784856D01*
X88416Y785995D01*
X87278Y786869D01*
X85951Y787419D01*
X84528Y787606D01*
D02*
G37*
G36*
X470500Y838000D02*
X455500D01*
Y823000D01*
X470500D01*
Y838000D01*
D02*
G37*
G36*
X583000D02*
X568000D01*
Y823000D01*
X583000D01*
Y838000D01*
D02*
G37*
G36*
X86500Y824353D02*
X84968Y824202D01*
X83495Y823755D01*
X82137Y823029D01*
X80947Y822053D01*
X79971Y820863D01*
X79245Y819505D01*
X78798Y818032D01*
X78647Y816500D01*
X78798Y814968D01*
X79245Y813495D01*
X79971Y812137D01*
X80947Y810947D01*
X82137Y809971D01*
X83495Y809245D01*
X84968Y808798D01*
X86500Y808647D01*
X88032Y808798D01*
X89505Y809245D01*
X90863Y809971D01*
X92053Y810947D01*
X93029Y812137D01*
X93755Y813495D01*
X94202Y814968D01*
X94353Y816500D01*
X94202Y818032D01*
X93755Y819505D01*
X93029Y820863D01*
X92053Y822053D01*
X90863Y823029D01*
X89505Y823755D01*
X88032Y824202D01*
X86500Y824353D01*
D02*
G37*
G36*
X493000Y838036D02*
X491530Y837891D01*
X490116Y837463D01*
X488813Y836766D01*
X487671Y835829D01*
X486734Y834687D01*
X486037Y833384D01*
X485608Y831970D01*
X485464Y830500D01*
X485608Y829030D01*
X486037Y827616D01*
X486734Y826313D01*
X487671Y825171D01*
X488813Y824234D01*
X490116Y823537D01*
X491530Y823108D01*
X493000Y822964D01*
X494470Y823108D01*
X495884Y823537D01*
X497187Y824234D01*
X498329Y825171D01*
X499266Y826313D01*
X499963Y827616D01*
X500391Y829030D01*
X500536Y830500D01*
X500391Y831970D01*
X499963Y833384D01*
X499266Y834687D01*
X498329Y835829D01*
X497187Y836766D01*
X495884Y837463D01*
X494470Y837891D01*
X493000Y838036D01*
D02*
G37*
G36*
X114784Y782392D02*
X113752Y782257D01*
X112790Y781858D01*
X111964Y781225D01*
X111331Y780399D01*
X110933Y779437D01*
X110797Y778406D01*
X110933Y777374D01*
X111331Y776412D01*
X111964Y775586D01*
X112790Y774953D01*
X113752Y774554D01*
X114784Y774419D01*
X115815Y774554D01*
X116777Y774953D01*
X117603Y775586D01*
X118236Y776412D01*
X118634Y777374D01*
X118770Y778406D01*
X118634Y779437D01*
X118236Y780399D01*
X117603Y781225D01*
X116777Y781858D01*
X115815Y782257D01*
X114784Y782392D01*
D02*
G37*
G36*
X605500Y756529D02*
X604324Y756413D01*
X603193Y756070D01*
X602150Y755513D01*
X601237Y754763D01*
X600487Y753850D01*
X599930Y752807D01*
X599587Y751676D01*
X599471Y750500D01*
X599587Y749324D01*
X599930Y748193D01*
X600487Y747151D01*
X601237Y746237D01*
X602150Y745487D01*
X603193Y744930D01*
X604324Y744587D01*
X605500Y744471D01*
X606676Y744587D01*
X607807Y744930D01*
X608849Y745487D01*
X609763Y746237D01*
X610513Y747151D01*
X611070Y748193D01*
X611413Y749324D01*
X611529Y750500D01*
X611413Y751676D01*
X611070Y752807D01*
X610513Y753850D01*
X609763Y754763D01*
X608849Y755513D01*
X607807Y756070D01*
X606676Y756413D01*
X605500Y756529D01*
D02*
G37*
G36*
X114784Y770581D02*
X113752Y770445D01*
X112790Y770047D01*
X111964Y769414D01*
X111331Y768588D01*
X110933Y767626D01*
X110797Y766595D01*
X110933Y765563D01*
X111331Y764601D01*
X111964Y763775D01*
X112790Y763142D01*
X113752Y762744D01*
X114784Y762608D01*
X115815Y762744D01*
X116777Y763142D01*
X117603Y763775D01*
X118236Y764601D01*
X118634Y765563D01*
X118770Y766595D01*
X118634Y767626D01*
X118236Y768588D01*
X117603Y769414D01*
X116777Y770047D01*
X115815Y770445D01*
X114784Y770581D01*
D02*
G37*
G36*
X453000Y758036D02*
X451530Y757892D01*
X450116Y757463D01*
X448813Y756766D01*
X447671Y755829D01*
X446734Y754687D01*
X446037Y753384D01*
X445609Y751970D01*
X445464Y750500D01*
X445609Y749030D01*
X446037Y747616D01*
X446734Y746313D01*
X447671Y745171D01*
X448813Y744234D01*
X450116Y743537D01*
X451530Y743109D01*
X453000Y742964D01*
X454470Y743109D01*
X455884Y743537D01*
X457187Y744234D01*
X458329Y745171D01*
X459266Y746313D01*
X459963Y747616D01*
X460392Y749030D01*
X460536Y750500D01*
X460392Y751970D01*
X459963Y753384D01*
X459266Y754687D01*
X458329Y755829D01*
X457187Y756766D01*
X455884Y757463D01*
X454470Y757892D01*
X453000Y758036D01*
D02*
G37*
G36*
X565500D02*
X564030Y757892D01*
X562616Y757463D01*
X561313Y756766D01*
X560171Y755829D01*
X559234Y754687D01*
X558537Y753384D01*
X558109Y751970D01*
X557964Y750500D01*
X558109Y749030D01*
X558537Y747616D01*
X559234Y746313D01*
X560171Y745171D01*
X561313Y744234D01*
X562616Y743537D01*
X564030Y743109D01*
X565500Y742964D01*
X566970Y743109D01*
X568384Y743537D01*
X569687Y744234D01*
X570829Y745171D01*
X571766Y746313D01*
X572463Y747616D01*
X572892Y749030D01*
X573036Y750500D01*
X572892Y751970D01*
X572463Y753384D01*
X571766Y754687D01*
X570829Y755829D01*
X569687Y756766D01*
X568384Y757463D01*
X566970Y757892D01*
X565500Y758036D01*
D02*
G37*
G36*
X60905Y782392D02*
X59874Y782257D01*
X58912Y781858D01*
X58086Y781225D01*
X57453Y780399D01*
X57055Y779437D01*
X56919Y778406D01*
X57055Y777374D01*
X57453Y776412D01*
X58086Y775586D01*
X58912Y774953D01*
X59874Y774554D01*
X60905Y774419D01*
X61937Y774554D01*
X62899Y774953D01*
X63725Y775586D01*
X64358Y776412D01*
X64757Y777374D01*
X64892Y778406D01*
X64757Y779437D01*
X64358Y780399D01*
X63725Y781225D01*
X62899Y781858D01*
X61937Y782257D01*
X60905Y782392D01*
D02*
G37*
G36*
X72716D02*
X71685Y782257D01*
X70723Y781858D01*
X69897Y781225D01*
X69264Y780399D01*
X68866Y779437D01*
X68730Y778406D01*
X68866Y777374D01*
X69264Y776412D01*
X69897Y775586D01*
X70723Y774953D01*
X71685Y774554D01*
X72716Y774419D01*
X73748Y774554D01*
X74710Y774953D01*
X75536Y775586D01*
X76169Y776412D01*
X76568Y777374D01*
X76703Y778406D01*
X76568Y779437D01*
X76169Y780399D01*
X75536Y781225D01*
X74710Y781858D01*
X73748Y782257D01*
X72716Y782392D01*
D02*
G37*
G36*
X37284D02*
X36252Y782257D01*
X35290Y781858D01*
X34464Y781225D01*
X33831Y780399D01*
X33432Y779437D01*
X33297Y778406D01*
X33432Y777374D01*
X33831Y776412D01*
X34464Y775586D01*
X35290Y774953D01*
X36252Y774554D01*
X37284Y774419D01*
X38315Y774554D01*
X39277Y774953D01*
X40103Y775586D01*
X40736Y776412D01*
X41135Y777374D01*
X41270Y778406D01*
X41135Y779437D01*
X40736Y780399D01*
X40103Y781225D01*
X39277Y781858D01*
X38315Y782257D01*
X37284Y782392D01*
D02*
G37*
G36*
X49095D02*
X48063Y782257D01*
X47101Y781858D01*
X46275Y781225D01*
X45642Y780399D01*
X45243Y779437D01*
X45108Y778406D01*
X45243Y777374D01*
X45642Y776412D01*
X46275Y775586D01*
X47101Y774953D01*
X48063Y774554D01*
X49095Y774419D01*
X50126Y774554D01*
X51088Y774953D01*
X51914Y775586D01*
X52547Y776412D01*
X52946Y777374D01*
X53081Y778406D01*
X52946Y779437D01*
X52547Y780399D01*
X51914Y781225D01*
X51088Y781858D01*
X50126Y782257D01*
X49095Y782392D01*
D02*
G37*
%LPD*%
D10*
X635000Y35669D02*
D03*
Y44331D02*
D03*
X345000Y33169D02*
D03*
Y41831D02*
D03*
X635000Y53169D02*
D03*
Y61831D02*
D03*
X345000Y50669D02*
D03*
Y59331D02*
D03*
X635000Y335669D02*
D03*
Y344331D02*
D03*
X345000Y333169D02*
D03*
Y341831D02*
D03*
X635000Y353169D02*
D03*
Y361831D02*
D03*
X345000Y350669D02*
D03*
Y359331D02*
D03*
X635000Y635669D02*
D03*
Y644331D02*
D03*
X345000Y633169D02*
D03*
Y641831D02*
D03*
X635000Y653169D02*
D03*
Y661831D02*
D03*
X345000Y650669D02*
D03*
Y659331D02*
D03*
D11*
X138406Y178405D02*
Y178905D01*
X244000Y149000D02*
Y179000D01*
X126594Y178405D02*
Y179095D01*
X233000Y190000D02*
X244000Y179000D01*
X142000Y194500D02*
X235500D01*
X252500Y177500D01*
X126594Y179095D02*
X142000Y194500D01*
X138406Y178905D02*
X149500Y190000D01*
X233000D01*
X252500Y147500D02*
Y177500D01*
Y142500D02*
Y147500D01*
X250000Y140000D02*
X252500Y142500D01*
X245000Y140000D02*
X250000D01*
X244000Y139000D02*
X245000Y140000D01*
X150216Y166595D02*
X233405D01*
X237500Y162500D01*
Y106000D02*
Y162500D01*
Y106000D02*
X244000Y99500D01*
X138406Y166595D02*
X145000Y160000D01*
X227500D01*
X232500Y155000D01*
Y92500D02*
Y155000D01*
Y92500D02*
X235500Y89500D01*
X244000D01*
X126594Y166595D02*
X137689Y155500D01*
X224000D01*
X228000Y151500D01*
Y84500D02*
Y151500D01*
Y84500D02*
X233000Y79500D01*
X244000D01*
X60905Y166595D02*
X76500Y151000D01*
X221000D01*
X223500Y148500D01*
Y74500D02*
Y148500D01*
Y74500D02*
X244500Y53500D01*
X49095Y166595D02*
X69189Y146500D01*
X217500D01*
X219000Y145000D01*
Y69000D02*
Y145000D01*
X37284Y166595D02*
X61878Y142000D01*
X61378D02*
X211000D01*
X211500D02*
X214500Y139000D01*
Y63500D02*
Y139000D01*
Y63500D02*
X244500Y33500D01*
X219000Y66000D02*
Y69000D01*
Y66000D02*
X241500Y43500D01*
X244500D01*
X635000Y44331D02*
Y53169D01*
X335000Y69331D02*
X345000Y59331D01*
X335000Y69331D02*
Y70000D01*
X345000Y41831D02*
Y50669D01*
X635000Y61831D02*
Y62500D01*
X627500Y70000D02*
X635000Y62500D01*
X138406Y478406D02*
Y478905D01*
X244000Y449000D02*
Y479000D01*
X126594Y478406D02*
Y479095D01*
X233000Y490000D02*
X244000Y479000D01*
X142000Y494500D02*
X235500D01*
X252500Y477500D01*
X126594Y479095D02*
X142000Y494500D01*
X138406Y478905D02*
X149500Y490000D01*
X233000D01*
X252500Y447500D02*
Y477500D01*
Y442500D02*
Y447500D01*
X250000Y440000D02*
X252500Y442500D01*
X245000Y440000D02*
X250000D01*
X244000Y439000D02*
X245000Y440000D01*
X150216Y466595D02*
X233405D01*
X237500Y462500D01*
Y406000D02*
Y462500D01*
Y406000D02*
X244000Y399500D01*
X138406Y466595D02*
X145000Y460000D01*
X227500D01*
X232500Y455000D01*
Y392500D02*
Y455000D01*
Y392500D02*
X235500Y389500D01*
X244000D01*
X126594Y466595D02*
X137689Y455500D01*
X224000D01*
X228000Y451500D01*
Y384500D02*
Y451500D01*
Y384500D02*
X233000Y379500D01*
X244000D01*
X60905Y466595D02*
X76500Y451000D01*
X221000D01*
X223500Y448500D01*
Y374500D02*
Y448500D01*
Y374500D02*
X244500Y353500D01*
X49095Y466595D02*
X69189Y446500D01*
X217500D01*
X219000Y445000D01*
Y369000D02*
Y445000D01*
X37284Y466595D02*
X61878Y442000D01*
X61378D02*
X211000D01*
X211500D02*
X214500Y439000D01*
Y363500D02*
Y439000D01*
Y363500D02*
X244500Y333500D01*
X219000Y366000D02*
Y369000D01*
Y366000D02*
X241500Y343500D01*
X244500D01*
X635000Y344331D02*
Y353169D01*
X335000Y369331D02*
X345000Y359331D01*
X335000Y369331D02*
Y370000D01*
X345000Y341831D02*
Y350669D01*
X635000Y361831D02*
Y362500D01*
X627500Y370000D02*
X635000Y362500D01*
X138406Y778406D02*
Y778905D01*
X244000Y749000D02*
Y779000D01*
X126594Y778406D02*
Y779095D01*
X233000Y790000D02*
X244000Y779000D01*
X142000Y794500D02*
X235500D01*
X252500Y777500D01*
X126594Y779095D02*
X142000Y794500D01*
X138406Y778905D02*
X149500Y790000D01*
X233000D01*
X252500Y747500D02*
Y777500D01*
Y742500D02*
Y747500D01*
X250000Y740000D02*
X252500Y742500D01*
X245000Y740000D02*
X250000D01*
X244000Y739000D02*
X245000Y740000D01*
X150216Y766595D02*
X233405D01*
X237500Y762500D01*
Y706000D02*
Y762500D01*
Y706000D02*
X244000Y699500D01*
X138406Y766595D02*
X145000Y760000D01*
X227500D01*
X232500Y755000D01*
Y692500D02*
Y755000D01*
Y692500D02*
X235500Y689500D01*
X244000D01*
X126594Y766595D02*
X137689Y755500D01*
X224000D01*
X228000Y751500D01*
Y684500D02*
Y751500D01*
Y684500D02*
X233000Y679500D01*
X244000D01*
X60905Y766595D02*
X76500Y751000D01*
X221000D01*
X223500Y748500D01*
Y674500D02*
Y748500D01*
Y674500D02*
X244500Y653500D01*
X49095Y766595D02*
X69189Y746500D01*
X217500D01*
X219000Y745000D01*
Y669000D02*
Y745000D01*
X37284Y766595D02*
X61878Y742000D01*
X61378D02*
X211000D01*
X211500D02*
X214500Y739000D01*
Y663500D02*
Y739000D01*
Y663500D02*
X244500Y633500D01*
X219000Y666000D02*
Y669000D01*
Y666000D02*
X241500Y643500D01*
X244500D01*
X635000Y644331D02*
Y653169D01*
X335000Y669331D02*
X345000Y659331D01*
X335000Y669331D02*
Y670000D01*
X345000Y641831D02*
Y650669D01*
X635000Y661831D02*
Y662500D01*
X627500Y670000D02*
X635000Y662500D01*
D12*
X86500Y281000D02*
D03*
Y216500D02*
D03*
X475000Y55000D02*
D03*
X502500D02*
D03*
X264000Y134500D02*
D03*
Y149000D02*
D03*
X267000Y28500D02*
D03*
Y43500D02*
D03*
Y58500D02*
D03*
Y75000D02*
D03*
X266500Y89500D02*
D03*
X266000Y103500D02*
D03*
X475000Y27500D02*
D03*
X502500D02*
D03*
X86500Y581000D02*
D03*
Y516500D02*
D03*
X475000Y355000D02*
D03*
X502500D02*
D03*
X264000Y434500D02*
D03*
Y449000D02*
D03*
X267000Y328500D02*
D03*
Y343500D02*
D03*
Y358500D02*
D03*
Y375000D02*
D03*
X266500Y389500D02*
D03*
X266000Y403500D02*
D03*
X475000Y327500D02*
D03*
X502500D02*
D03*
X86500Y881000D02*
D03*
Y816500D02*
D03*
X475000Y655000D02*
D03*
X502500D02*
D03*
X264000Y734500D02*
D03*
Y749000D02*
D03*
X267000Y628500D02*
D03*
Y643500D02*
D03*
Y658500D02*
D03*
Y675000D02*
D03*
X266500Y689500D02*
D03*
X266000Y703500D02*
D03*
X475000Y627500D02*
D03*
X502500D02*
D03*
D13*
X142500Y257500D02*
D03*
X122500D02*
D03*
X106516D02*
D03*
X86516D02*
D03*
X137500Y38000D02*
D03*
X117500D02*
D03*
X101516D02*
D03*
X81516D02*
D03*
X137000Y80000D02*
D03*
X117000D02*
D03*
X101016D02*
D03*
X81016D02*
D03*
X137500Y120000D02*
D03*
X117500D02*
D03*
X101516D02*
D03*
X81516D02*
D03*
X142500Y557500D02*
D03*
X122500D02*
D03*
X106516D02*
D03*
X86516D02*
D03*
X137500Y338000D02*
D03*
X117500D02*
D03*
X101516D02*
D03*
X81516D02*
D03*
X137000Y380000D02*
D03*
X117000D02*
D03*
X101016D02*
D03*
X81016D02*
D03*
X137500Y420000D02*
D03*
X117500D02*
D03*
X101516D02*
D03*
X81516D02*
D03*
X142500Y857500D02*
D03*
X122500D02*
D03*
X106516D02*
D03*
X86516D02*
D03*
X137500Y638000D02*
D03*
X117500D02*
D03*
X101516D02*
D03*
X81516D02*
D03*
X137000Y680000D02*
D03*
X117000D02*
D03*
X101016D02*
D03*
X81016D02*
D03*
X137500Y720000D02*
D03*
X117500D02*
D03*
X101516D02*
D03*
X81516D02*
D03*
D14*
X187000Y38000D02*
D03*
Y80000D02*
D03*
X187500Y120000D02*
D03*
X360000Y220000D02*
D03*
Y275000D02*
D03*
X187000Y338000D02*
D03*
Y380000D02*
D03*
X187500Y420000D02*
D03*
X360000Y520000D02*
D03*
Y575000D02*
D03*
X187000Y638000D02*
D03*
Y680000D02*
D03*
X187500Y720000D02*
D03*
X360000Y820000D02*
D03*
Y875000D02*
D03*
D15*
X413000Y150500D02*
D03*
X453000D02*
D03*
X493000D02*
D03*
Y230500D02*
D03*
X443000D02*
D03*
X525500Y150500D02*
D03*
X565500D02*
D03*
X605500D02*
D03*
Y230500D02*
D03*
X555500D02*
D03*
X413000Y450500D02*
D03*
X453000D02*
D03*
X493000D02*
D03*
Y530500D02*
D03*
X443000D02*
D03*
X525500Y450500D02*
D03*
X565500D02*
D03*
X605500D02*
D03*
Y530500D02*
D03*
X555500D02*
D03*
X413000Y750500D02*
D03*
X453000D02*
D03*
X493000D02*
D03*
Y830500D02*
D03*
X443000D02*
D03*
X525500Y750500D02*
D03*
X565500D02*
D03*
X605500D02*
D03*
Y830500D02*
D03*
X555500D02*
D03*
D16*
X463000Y230500D02*
D03*
X575500D02*
D03*
X463000Y530500D02*
D03*
X575500D02*
D03*
X463000Y830500D02*
D03*
X575500D02*
D03*
D17*
X445000Y55827D02*
D03*
X607500D02*
D03*
X407500D02*
D03*
X570000D02*
D03*
X370000D02*
D03*
X532500D02*
D03*
X445000Y355827D02*
D03*
X607500D02*
D03*
X407500D02*
D03*
X570000D02*
D03*
X370000D02*
D03*
X532500D02*
D03*
X445000Y655827D02*
D03*
X607500D02*
D03*
X407500D02*
D03*
X570000D02*
D03*
X370000D02*
D03*
X532500D02*
D03*
D18*
X445000Y34173D02*
D03*
X607500D02*
D03*
X407500D02*
D03*
X570000D02*
D03*
X370000D02*
D03*
X532500D02*
D03*
X445000Y334173D02*
D03*
X607500D02*
D03*
X407500D02*
D03*
X570000D02*
D03*
X370000D02*
D03*
X532500D02*
D03*
X445000Y634173D02*
D03*
X607500D02*
D03*
X407500D02*
D03*
X570000D02*
D03*
X370000D02*
D03*
X532500D02*
D03*
D19*
X244000Y149000D02*
D03*
X244500Y53500D02*
D03*
X244000Y99500D02*
D03*
Y449000D02*
D03*
X244500Y353500D02*
D03*
X244000Y399500D02*
D03*
Y749000D02*
D03*
X244500Y653500D02*
D03*
X244000Y699500D02*
D03*
D20*
Y139000D02*
D03*
Y129000D02*
D03*
X244500Y43500D02*
D03*
Y33500D02*
D03*
X49095Y166595D02*
D03*
X37284Y178405D02*
D03*
X25472Y182106D02*
D03*
X84528D02*
D03*
X49095Y178405D02*
D03*
X37284Y166595D02*
D03*
X60905D02*
D03*
X72716Y178405D02*
D03*
X60905D02*
D03*
X72716Y166595D02*
D03*
X244000Y89500D02*
D03*
Y79500D02*
D03*
X126594Y166595D02*
D03*
X114784Y178405D02*
D03*
X102972Y182106D02*
D03*
X162028D02*
D03*
X126594Y178405D02*
D03*
X114784Y166595D02*
D03*
X138406D02*
D03*
X150216Y178405D02*
D03*
X138406D02*
D03*
X150216Y166595D02*
D03*
X244000Y439000D02*
D03*
Y429000D02*
D03*
X244500Y343500D02*
D03*
Y333500D02*
D03*
X49095Y466595D02*
D03*
X37284Y478406D02*
D03*
X25472Y482106D02*
D03*
X84528D02*
D03*
X49095Y478406D02*
D03*
X37284Y466595D02*
D03*
X60905D02*
D03*
X72716Y478406D02*
D03*
X60905D02*
D03*
X72716Y466595D02*
D03*
X244000Y389500D02*
D03*
Y379500D02*
D03*
X126594Y466595D02*
D03*
X114784Y478406D02*
D03*
X102972Y482106D02*
D03*
X162028D02*
D03*
X126594Y478406D02*
D03*
X114784Y466595D02*
D03*
X138406D02*
D03*
X150216Y478406D02*
D03*
X138406D02*
D03*
X150216Y466595D02*
D03*
X244000Y739000D02*
D03*
Y729000D02*
D03*
X244500Y643500D02*
D03*
Y633500D02*
D03*
X49095Y766595D02*
D03*
X37284Y778406D02*
D03*
X25472Y782106D02*
D03*
X84528D02*
D03*
X49095Y778406D02*
D03*
X37284Y766595D02*
D03*
X60905D02*
D03*
X72716Y778406D02*
D03*
X60905D02*
D03*
X72716Y766595D02*
D03*
X244000Y689500D02*
D03*
Y679500D02*
D03*
X126594Y766595D02*
D03*
X114784Y778406D02*
D03*
X102972Y782106D02*
D03*
X162028D02*
D03*
X126594Y778406D02*
D03*
X114784Y766595D02*
D03*
X138406D02*
D03*
X150216Y778406D02*
D03*
X138406D02*
D03*
X150216Y766595D02*
D03*
D21*
X48094Y38217D02*
D03*
X47095Y80216D02*
D03*
X47594Y120217D02*
D03*
Y217717D02*
D03*
Y257716D02*
D03*
X48094Y338216D02*
D03*
X47095Y380217D02*
D03*
X47594Y420217D02*
D03*
Y517717D02*
D03*
Y557717D02*
D03*
X48094Y638216D02*
D03*
X47095Y680217D02*
D03*
X47594Y720217D02*
D03*
Y817717D02*
D03*
Y857716D02*
D03*
D22*
X229500Y230000D02*
D03*
X260500D02*
D03*
X229500Y275000D02*
D03*
X260500D02*
D03*
X229500Y530000D02*
D03*
X260500D02*
D03*
X229500Y575000D02*
D03*
X260500D02*
D03*
X229500Y830000D02*
D03*
X260500D02*
D03*
X229500Y875000D02*
D03*
X260500D02*
D03*
D23*
X335000Y70000D02*
D03*
X627500D02*
D03*
X335000Y370000D02*
D03*
X627500D02*
D03*
X335000Y670000D02*
D03*
X627500D02*
D03*
M02*
