%TF.GenerationSoftware,Altium Limited,Altium Designer,24.0.1 (36)*%
G04 Layer_Color=2752767*
%FSLAX45Y45*%
%MOMM*%
%TF.SameCoordinates,E989C384-8BFC-46BD-A9A6-91A2A83EB491*%
%TF.FilePolarity,Positive*%
%TF.FileFunction,Drawing*%
%TF.Part,Single*%
G01*
G75*
%TA.AperFunction,NonConductor*%
%ADD58C,0.12700*%
%ADD119C,0.16933*%
%ADD120C,0.10160*%
D58*
X17945100Y5638800D02*
X17970500Y5664200D01*
X17995900D01*
X17970500Y5689600D01*
X17995900Y5715000D01*
X17970500D01*
X17945100Y5740400D01*
X17919701Y5715000D01*
X17894299D01*
X17919701Y5689600D01*
X17894299Y5664200D01*
X17919701D01*
X17945100Y5638800D01*
X22720695Y7255830D02*
Y7230430D01*
X22771497D01*
Y7255830D01*
X22796896D01*
Y7306630D01*
X22771497D01*
Y7332030D01*
X22720695D01*
Y7306630D01*
X22695296D01*
Y7255830D01*
X22720695D01*
X23126700D02*
Y7230430D01*
X23177499D01*
Y7255830D01*
X23202901D01*
Y7306630D01*
X23177499D01*
Y7332030D01*
X23126700D01*
Y7306630D01*
X23101300D01*
Y7255830D01*
X23126700D01*
X22212695D02*
Y7230430D01*
X22263496D01*
Y7255830D01*
X22288896D01*
Y7306630D01*
X22263496D01*
Y7332030D01*
X22212695D01*
Y7306630D01*
X22187296D01*
Y7255830D01*
X22212695D01*
X23634700D02*
Y7230430D01*
X23685500D01*
Y7255830D01*
X23710899D01*
Y7306630D01*
X23685500D01*
Y7332030D01*
X23634700D01*
Y7306630D01*
X23609300D01*
Y7255830D01*
X23634700D01*
X22720695Y10862630D02*
Y10837230D01*
X22771497D01*
Y10862630D01*
X22796896D01*
Y10913430D01*
X22771497D01*
Y10938830D01*
X22720695D01*
Y10913430D01*
X22695296D01*
Y10862630D01*
X22720695D01*
X23126700D02*
Y10837230D01*
X23177499D01*
Y10862630D01*
X23202901D01*
Y10913430D01*
X23177499D01*
Y10938830D01*
X23126700D01*
Y10913430D01*
X23101300D01*
Y10862630D01*
X23126700D01*
X22212695D02*
Y10837230D01*
X22263496D01*
Y10862630D01*
X22288896D01*
Y10913430D01*
X22263496D01*
Y10938830D01*
X22212695D01*
Y10913430D01*
X22187296D01*
Y10862630D01*
X22212695D01*
X23634700D02*
Y10837230D01*
X23685500D01*
Y10862630D01*
X23710899D01*
Y10913430D01*
X23685500D01*
Y10938830D01*
X23634700D01*
Y10913430D01*
X23609300D01*
Y10862630D01*
X23634700D01*
X17183099Y5384800D02*
X17208501Y5410200D01*
X17233900D01*
X17208501Y5435600D01*
X17233900Y5461000D01*
X17208501D01*
X17183099Y5486400D01*
X17157700Y5461000D01*
X17132300D01*
X17157700Y5435600D01*
X17132300Y5410200D01*
X17157700D01*
X17183099Y5384800D01*
X17437100D02*
X17462500Y5410200D01*
X17487900D01*
X17462500Y5435600D01*
X17487900Y5461000D01*
X17462500D01*
X17437100Y5486400D01*
X17411700Y5461000D01*
X17386301D01*
X17411700Y5435600D01*
X17386301Y5410200D01*
X17411700D01*
X17437100Y5384800D01*
X17691100D02*
X17716499Y5410200D01*
X17741901D01*
X17716499Y5435600D01*
X17741901Y5461000D01*
X17716499D01*
X17691100Y5486400D01*
X17665700Y5461000D01*
X17640300D01*
X17665700Y5435600D01*
X17640300Y5410200D01*
X17665700D01*
X17691100Y5384800D01*
X17945100D02*
X17970500Y5410200D01*
X17995900D01*
X17970500Y5435600D01*
X17995900Y5461000D01*
X17970500D01*
X17945100Y5486400D01*
X17919701Y5461000D01*
X17894299D01*
X17919701Y5435600D01*
X17894299Y5410200D01*
X17919701D01*
X17945100Y5384800D01*
X18199100D02*
X18224500Y5410200D01*
X18249899D01*
X18224500Y5435600D01*
X18249899Y5461000D01*
X18224500D01*
X18199100Y5486400D01*
X18173700Y5461000D01*
X18148300D01*
X18173700Y5435600D01*
X18148300Y5410200D01*
X18173700D01*
X18199100Y5384800D01*
X18453101D02*
X18478500Y5410200D01*
X18503900D01*
X18478500Y5435600D01*
X18503900Y5461000D01*
X18478500D01*
X18453101Y5486400D01*
X18427699Y5461000D01*
X18402299D01*
X18427699Y5435600D01*
X18402299Y5410200D01*
X18427699D01*
X18453101Y5384800D01*
X18707100Y5638800D02*
X18732500Y5664200D01*
X18757899D01*
X18732500Y5689600D01*
X18757899Y5715000D01*
X18732500D01*
X18707100Y5740400D01*
X18681700Y5715000D01*
X18656300D01*
X18681700Y5689600D01*
X18656300Y5664200D01*
X18681700D01*
X18707100Y5638800D01*
Y5892800D02*
X18732500Y5918200D01*
X18757899D01*
X18732500Y5943600D01*
X18757899Y5969000D01*
X18732500D01*
X18707100Y5994400D01*
X18681700Y5969000D01*
X18656300D01*
X18681700Y5943600D01*
X18656300Y5918200D01*
X18681700D01*
X18707100Y5892800D01*
Y6146800D02*
X18732500Y6172200D01*
X18757899D01*
X18732500Y6197600D01*
X18757899Y6223000D01*
X18732500D01*
X18707100Y6248400D01*
X18681700Y6223000D01*
X18656300D01*
X18681700Y6197600D01*
X18656300Y6172200D01*
X18681700D01*
X18707100Y6146800D01*
Y6400800D02*
X18732500Y6426200D01*
X18757899D01*
X18732500Y6451600D01*
X18757899Y6477000D01*
X18732500D01*
X18707100Y6502400D01*
X18681700Y6477000D01*
X18656300D01*
X18681700Y6451600D01*
X18656300Y6426200D01*
X18681700D01*
X18707100Y6400800D01*
Y6654800D02*
X18732500Y6680200D01*
X18757899D01*
X18732500Y6705600D01*
X18757899Y6731000D01*
X18732500D01*
X18707100Y6756400D01*
X18681700Y6731000D01*
X18656300D01*
X18681700Y6705600D01*
X18656300Y6680200D01*
X18681700D01*
X18707100Y6654800D01*
Y6908800D02*
X18732500Y6934200D01*
X18757899D01*
X18732500Y6959600D01*
X18757899Y6985000D01*
X18732500D01*
X18707100Y7010400D01*
X18681700Y6985000D01*
X18656300D01*
X18681700Y6959600D01*
X18656300Y6934200D01*
X18681700D01*
X18707100Y6908800D01*
X18453101Y7162800D02*
X18478500Y7188200D01*
X18503900D01*
X18478500Y7213600D01*
X18503900Y7239000D01*
X18478500D01*
X18453101Y7264400D01*
X18427699Y7239000D01*
X18402299D01*
X18427699Y7213600D01*
X18402299Y7188200D01*
X18427699D01*
X18453101Y7162800D01*
X18199100D02*
X18224500Y7188200D01*
X18249899D01*
X18224500Y7213600D01*
X18249899Y7239000D01*
X18224500D01*
X18199100Y7264400D01*
X18173700Y7239000D01*
X18148300D01*
X18173700Y7213600D01*
X18148300Y7188200D01*
X18173700D01*
X18199100Y7162800D01*
X17945100D02*
X17970500Y7188200D01*
X17995900D01*
X17970500Y7213600D01*
X17995900Y7239000D01*
X17970500D01*
X17945100Y7264400D01*
X17919701Y7239000D01*
X17894299D01*
X17919701Y7213600D01*
X17894299Y7188200D01*
X17919701D01*
X17945100Y7162800D01*
X17691100D02*
X17716499Y7188200D01*
X17741901D01*
X17716499Y7213600D01*
X17741901Y7239000D01*
X17716499D01*
X17691100Y7264400D01*
X17665700Y7239000D01*
X17640300D01*
X17665700Y7213600D01*
X17640300Y7188200D01*
X17665700D01*
X17691100Y7162800D01*
X17437100D02*
X17462500Y7188200D01*
X17487900D01*
X17462500Y7213600D01*
X17487900Y7239000D01*
X17462500D01*
X17437100Y7264400D01*
X17411700Y7239000D01*
X17386301D01*
X17411700Y7213600D01*
X17386301Y7188200D01*
X17411700D01*
X17437100Y7162800D01*
X17183099D02*
X17208501Y7188200D01*
X17233900D01*
X17208501Y7213600D01*
X17233900Y7239000D01*
X17208501D01*
X17183099Y7264400D01*
X17157700Y7239000D01*
X17132300D01*
X17157700Y7213600D01*
X17132300Y7188200D01*
X17157700D01*
X17183099Y7162800D01*
X16929100Y6908800D02*
X16954500Y6934200D01*
X16979900D01*
X16954500Y6959600D01*
X16979900Y6985000D01*
X16954500D01*
X16929100Y7010400D01*
X16903700Y6985000D01*
X16878300D01*
X16903700Y6959600D01*
X16878300Y6934200D01*
X16903700D01*
X16929100Y6908800D01*
Y6654800D02*
X16954500Y6680200D01*
X16979900D01*
X16954500Y6705600D01*
X16979900Y6731000D01*
X16954500D01*
X16929100Y6756400D01*
X16903700Y6731000D01*
X16878300D01*
X16903700Y6705600D01*
X16878300Y6680200D01*
X16903700D01*
X16929100Y6654800D01*
Y6400800D02*
X16954500Y6426200D01*
X16979900D01*
X16954500Y6451600D01*
X16979900Y6477000D01*
X16954500D01*
X16929100Y6502400D01*
X16903700Y6477000D01*
X16878300D01*
X16903700Y6451600D01*
X16878300Y6426200D01*
X16903700D01*
X16929100Y6400800D01*
Y6146800D02*
X16954500Y6172200D01*
X16979900D01*
X16954500Y6197600D01*
X16979900Y6223000D01*
X16954500D01*
X16929100Y6248400D01*
X16903700Y6223000D01*
X16878300D01*
X16903700Y6197600D01*
X16878300Y6172200D01*
X16903700D01*
X16929100Y6146800D01*
Y5892800D02*
X16954500Y5918200D01*
X16979900D01*
X16954500Y5943600D01*
X16979900Y5969000D01*
X16954500D01*
X16929100Y5994400D01*
X16903700Y5969000D01*
X16878300D01*
X16903700Y5943600D01*
X16878300Y5918200D01*
X16903700D01*
X16929100Y5892800D01*
Y5638800D02*
X16954500Y5664200D01*
X16979900D01*
X16954500Y5689600D01*
X16979900Y5715000D01*
X16954500D01*
X16929100Y5740400D01*
X16903700Y5715000D01*
X16878300D01*
X16903700Y5689600D01*
X16878300Y5664200D01*
X16903700D01*
X16929100Y5638800D01*
X17183099D02*
X17208501Y5664200D01*
X17233900D01*
X17208501Y5689600D01*
X17233900Y5715000D01*
X17208501D01*
X17183099Y5740400D01*
X17157700Y5715000D01*
X17132300D01*
X17157700Y5689600D01*
X17132300Y5664200D01*
X17157700D01*
X17183099Y5638800D01*
X17437100D02*
X17462500Y5664200D01*
X17487900D01*
X17462500Y5689600D01*
X17487900Y5715000D01*
X17462500D01*
X17437100Y5740400D01*
X17411700Y5715000D01*
X17386301D01*
X17411700Y5689600D01*
X17386301Y5664200D01*
X17411700D01*
X17437100Y5638800D01*
X17691100D02*
X17716499Y5664200D01*
X17741901D01*
X17716499Y5689600D01*
X17741901Y5715000D01*
X17716499D01*
X17691100Y5740400D01*
X17665700Y5715000D01*
X17640300D01*
X17665700Y5689600D01*
X17640300Y5664200D01*
X17665700D01*
X17691100Y5638800D01*
X18199100D02*
X18224500Y5664200D01*
X18249899D01*
X18224500Y5689600D01*
X18249899Y5715000D01*
X18224500D01*
X18199100Y5740400D01*
X18173700Y5715000D01*
X18148300D01*
X18173700Y5689600D01*
X18148300Y5664200D01*
X18173700D01*
X18199100Y5638800D01*
X18453101D02*
X18478500Y5664200D01*
X18503900D01*
X18478500Y5689600D01*
X18503900Y5715000D01*
X18478500D01*
X18453101Y5740400D01*
X18427699Y5715000D01*
X18402299D01*
X18427699Y5689600D01*
X18402299Y5664200D01*
X18427699D01*
X18453101Y5638800D01*
Y6908800D02*
X18478500Y6934200D01*
X18503900D01*
X18478500Y6959600D01*
X18503900Y6985000D01*
X18478500D01*
X18453101Y7010400D01*
X18427699Y6985000D01*
X18402299D01*
X18427699Y6959600D01*
X18402299Y6934200D01*
X18427699D01*
X18453101Y6908800D01*
X18199100D02*
X18224500Y6934200D01*
X18249899D01*
X18224500Y6959600D01*
X18249899Y6985000D01*
X18224500D01*
X18199100Y7010400D01*
X18173700Y6985000D01*
X18148300D01*
X18173700Y6959600D01*
X18148300Y6934200D01*
X18173700D01*
X18199100Y6908800D01*
X17945100D02*
X17970500Y6934200D01*
X17995900D01*
X17970500Y6959600D01*
X17995900Y6985000D01*
X17970500D01*
X17945100Y7010400D01*
X17919701Y6985000D01*
X17894299D01*
X17919701Y6959600D01*
X17894299Y6934200D01*
X17919701D01*
X17945100Y6908800D01*
X17691100D02*
X17716499Y6934200D01*
X17741901D01*
X17716499Y6959600D01*
X17741901Y6985000D01*
X17716499D01*
X17691100Y7010400D01*
X17665700Y6985000D01*
X17640300D01*
X17665700Y6959600D01*
X17640300Y6934200D01*
X17665700D01*
X17691100Y6908800D01*
X17437100D02*
X17462500Y6934200D01*
X17487900D01*
X17462500Y6959600D01*
X17487900Y6985000D01*
X17462500D01*
X17437100Y7010400D01*
X17411700Y6985000D01*
X17386301D01*
X17411700Y6959600D01*
X17386301Y6934200D01*
X17411700D01*
X17437100Y6908800D01*
X17183099D02*
X17208501Y6934200D01*
X17233900D01*
X17208501Y6959600D01*
X17233900Y6985000D01*
X17208501D01*
X17183099Y7010400D01*
X17157700Y6985000D01*
X17132300D01*
X17157700Y6959600D01*
X17132300Y6934200D01*
X17157700D01*
X17183099Y6908800D01*
X18453101Y5892800D02*
X18478500Y5918200D01*
X18503900D01*
X18478500Y5943600D01*
X18503900Y5969000D01*
X18478500D01*
X18453101Y5994400D01*
X18427699Y5969000D01*
X18402299D01*
X18427699Y5943600D01*
X18402299Y5918200D01*
X18427699D01*
X18453101Y5892800D01*
Y6146800D02*
X18478500Y6172200D01*
X18503900D01*
X18478500Y6197600D01*
X18503900Y6223000D01*
X18478500D01*
X18453101Y6248400D01*
X18427699Y6223000D01*
X18402299D01*
X18427699Y6197600D01*
X18402299Y6172200D01*
X18427699D01*
X18453101Y6146800D01*
Y6400800D02*
X18478500Y6426200D01*
X18503900D01*
X18478500Y6451600D01*
X18503900Y6477000D01*
X18478500D01*
X18453101Y6502400D01*
X18427699Y6477000D01*
X18402299D01*
X18427699Y6451600D01*
X18402299Y6426200D01*
X18427699D01*
X18453101Y6400800D01*
Y6654800D02*
X18478500Y6680200D01*
X18503900D01*
X18478500Y6705600D01*
X18503900Y6731000D01*
X18478500D01*
X18453101Y6756400D01*
X18427699Y6731000D01*
X18402299D01*
X18427699Y6705600D01*
X18402299Y6680200D01*
X18427699D01*
X18453101Y6654800D01*
X17183099D02*
X17208501Y6680200D01*
X17233900D01*
X17208501Y6705600D01*
X17233900Y6731000D01*
X17208501D01*
X17183099Y6756400D01*
X17157700Y6731000D01*
X17132300D01*
X17157700Y6705600D01*
X17132300Y6680200D01*
X17157700D01*
X17183099Y6654800D01*
Y6400800D02*
X17208501Y6426200D01*
X17233900D01*
X17208501Y6451600D01*
X17233900Y6477000D01*
X17208501D01*
X17183099Y6502400D01*
X17157700Y6477000D01*
X17132300D01*
X17157700Y6451600D01*
X17132300Y6426200D01*
X17157700D01*
X17183099Y6400800D01*
Y6146800D02*
X17208501Y6172200D01*
X17233900D01*
X17208501Y6197600D01*
X17233900Y6223000D01*
X17208501D01*
X17183099Y6248400D01*
X17157700Y6223000D01*
X17132300D01*
X17157700Y6197600D01*
X17132300Y6172200D01*
X17157700D01*
X17183099Y6146800D01*
Y5892800D02*
X17208501Y5918200D01*
X17233900D01*
X17208501Y5943600D01*
X17233900Y5969000D01*
X17208501D01*
X17183099Y5994400D01*
X17157700Y5969000D01*
X17132300D01*
X17157700Y5943600D01*
X17132300Y5918200D01*
X17157700D01*
X17183099Y5892800D01*
X17953539Y10909259D02*
X17868900D01*
Y10782300D01*
X17953539D01*
X17868900Y10845779D02*
X17911220D01*
X18080539Y11163259D02*
X17995900D01*
Y11036300D01*
X18080539D01*
X17995900Y11099779D02*
X18038220D01*
X18207539Y10909259D02*
X18122900D01*
Y10782300D01*
X18207539D01*
X18122900Y10845779D02*
X18165221D01*
X18334538Y11163259D02*
X18249899D01*
Y11036300D01*
X18334538D01*
X18249899Y11099779D02*
X18292220D01*
X18461539Y10909259D02*
X18376900D01*
Y10782300D01*
X18461539D01*
X18376900Y10845779D02*
X18419220D01*
X18588539Y11163259D02*
X18503900D01*
Y11036300D01*
X18588539D01*
X18503900Y11099779D02*
X18546220D01*
X18715540Y10909259D02*
X18630901D01*
Y10782300D01*
X18715540D01*
X18630901Y10845779D02*
X18673219D01*
X18842538Y11163259D02*
X18757899D01*
Y11036300D01*
X18842538D01*
X18757899Y11099779D02*
X18800220D01*
X17541403Y10663260D02*
Y10536301D01*
X17604881D01*
X17626042Y10557461D01*
Y10642100D01*
X17604881Y10663260D01*
X17541403D01*
X19085403D02*
Y10536301D01*
X19148882D01*
X19170042Y10557461D01*
Y10642100D01*
X19148882Y10663260D01*
X19085403D01*
X17716499Y10121900D02*
Y10096500D01*
X17767300D01*
Y10121900D01*
X17792700D01*
Y10172700D01*
X17767300D01*
Y10198100D01*
X17716499D01*
Y10172700D01*
X17691100D01*
Y10121900D01*
X17716499D01*
X17726660Y10132060D02*
Y10116820D01*
X17757140D01*
Y10132060D01*
X17772380D01*
Y10162540D01*
X17757140D01*
Y10177780D01*
X17726660D01*
Y10162540D01*
X17711420D01*
Y10132060D01*
X17726660D01*
X18859500Y10121900D02*
Y10096500D01*
X18910300D01*
Y10121900D01*
X18935699D01*
Y10172700D01*
X18910300D01*
Y10198100D01*
X18859500D01*
Y10172700D01*
X18834100D01*
Y10121900D01*
X18859500D01*
X18869659Y10132060D02*
Y10116820D01*
X18900140D01*
Y10132060D01*
X18915379D01*
Y10162540D01*
X18900140D01*
Y10177780D01*
X18869659D01*
Y10162540D01*
X18854420D01*
Y10132060D01*
X18869659D01*
X13221899Y4944999D02*
Y5046599D01*
X13323499D01*
Y4944999D01*
X13221899D01*
X12967899D02*
Y5046599D01*
X13069499D01*
Y4944999D01*
X12967899D01*
X12713899D02*
Y5046599D01*
X12815498D01*
Y4944999D01*
X12713899D01*
X12459899D02*
Y5046599D01*
X12561499D01*
Y4944999D01*
X12459899D01*
X12205899D02*
Y5046599D01*
X12307499D01*
Y4944999D01*
X12205899D01*
X11951899D02*
Y5046599D01*
X12053499D01*
Y4944999D01*
X11951899D01*
X11697899D02*
Y5046599D01*
X11799499D01*
Y4944999D01*
X11697899D01*
X11443899D02*
Y5046599D01*
X11545499D01*
Y4944999D01*
X11443899D01*
X11189899D02*
Y5046599D01*
X11291499D01*
Y4944999D01*
X11189899D01*
X10935899D02*
Y5046599D01*
X11037499D01*
Y4944999D01*
X10935899D01*
X10681899D02*
Y5046599D01*
X10783499D01*
Y4944999D01*
X10681899D01*
X10427899D02*
Y5046599D01*
X10529499D01*
Y4944999D01*
X10427899D01*
X10173899D02*
Y5046599D01*
X10275499D01*
Y4944999D01*
X10173899D01*
X9919899D02*
Y5046599D01*
X10021499D01*
Y4944999D01*
X9919899D01*
X9665899D02*
Y5046599D01*
X9767499D01*
Y4944999D01*
X9665899D01*
X3569899Y4690999D02*
Y4792599D01*
X3671499D01*
Y4690999D01*
X3569899D01*
Y4944999D02*
Y5046599D01*
X3671499D01*
Y4944999D01*
X3569899D01*
X3823899Y4690999D02*
Y4792599D01*
X3925499D01*
Y4690999D01*
X3823899D01*
Y4944999D02*
Y5046599D01*
X3925499D01*
Y4944999D01*
X3823899D01*
X4077899Y4690999D02*
Y4792599D01*
X4179499D01*
Y4690999D01*
X4077899D01*
Y4944999D02*
Y5046599D01*
X4179499D01*
Y4944999D01*
X4077899D01*
X4331899Y4690999D02*
Y4792599D01*
X4433499D01*
Y4690999D01*
X4331899D01*
Y4944999D02*
Y5046599D01*
X4433499D01*
Y4944999D01*
X4331899D01*
X4585899Y4690999D02*
Y4792599D01*
X4687499D01*
Y4690999D01*
X4585899D01*
Y4944999D02*
Y5046599D01*
X4687499D01*
Y4944999D01*
X4585899D01*
X4839899Y4690999D02*
Y4792599D01*
X4941499D01*
Y4690999D01*
X4839899D01*
Y4944999D02*
Y5046599D01*
X4941499D01*
Y4944999D01*
X4839899D01*
X5093899Y4690999D02*
Y4792599D01*
X5195499D01*
Y4690999D01*
X5093899D01*
Y4944999D02*
Y5046599D01*
X5195499D01*
Y4944999D01*
X5093899D01*
X5347899D02*
Y5046599D01*
X5449499D01*
Y4944999D01*
X5347899D01*
X5601899D02*
Y5046599D01*
X5703499D01*
Y4944999D01*
X5601899D01*
X5855899D02*
Y5046599D01*
X5957499D01*
Y4944999D01*
X5855899D01*
X6109899D02*
Y5046599D01*
X6211499D01*
Y4944999D01*
X6109899D01*
X6363899D02*
Y5046599D01*
X6465499D01*
Y4944999D01*
X6363899D01*
X6617899D02*
Y5046599D01*
X6719499D01*
Y4944999D01*
X6617899D01*
X6871899D02*
Y5046599D01*
X6973499D01*
Y4944999D01*
X6871899D01*
X7125899D02*
Y5046599D01*
X7227499D01*
Y4944999D01*
X7125899D01*
X7379899D02*
Y5046599D01*
X7481499D01*
Y4944999D01*
X7379899D01*
X7633899D02*
Y5046599D01*
X7735499D01*
Y4944999D01*
X7633899D01*
X7887899D02*
Y5046599D01*
X7989499D01*
Y4944999D01*
X7887899D01*
X8141899D02*
Y5046599D01*
X8243499D01*
Y4944999D01*
X8141899D01*
X8395899D02*
Y5046599D01*
X8497499D01*
Y4944999D01*
X8395899D01*
X8649899D02*
Y5046599D01*
X8751499D01*
Y4944999D01*
X8649899D01*
X8903899D02*
Y5046599D01*
X9005499D01*
Y4944999D01*
X8903899D01*
X9157899D02*
Y5046599D01*
X9259499D01*
Y4944999D01*
X9157899D01*
X9411899D02*
Y5046599D01*
X9513499D01*
Y4944999D01*
X9411899D01*
X3315899Y4690999D02*
Y4792599D01*
X3417499D01*
Y4690999D01*
X3315899D01*
Y4944999D02*
Y5046599D01*
X3417499D01*
Y4944999D01*
X3315899D01*
X12967899Y4690999D02*
Y4792599D01*
X13069499D01*
Y4690999D01*
X12967899D01*
X12713899D02*
Y4792599D01*
X12815498D01*
Y4690999D01*
X12713899D01*
X12459899D02*
Y4792599D01*
X12561499D01*
Y4690999D01*
X12459899D01*
X12205899D02*
Y4792599D01*
X12307499D01*
Y4690999D01*
X12205899D01*
X11951899D02*
Y4792599D01*
X12053499D01*
Y4690999D01*
X11951899D01*
X11697899D02*
Y4792599D01*
X11799499D01*
Y4690999D01*
X11697899D01*
X11443899D02*
Y4792599D01*
X11545499D01*
Y4690999D01*
X11443899D01*
X11189899D02*
Y4792599D01*
X11291499D01*
Y4690999D01*
X11189899D01*
X10935899D02*
Y4792599D01*
X11037499D01*
Y4690999D01*
X10935899D01*
X10681899D02*
Y4792599D01*
X10783499D01*
Y4690999D01*
X10681899D01*
X10427899D02*
Y4792599D01*
X10529499D01*
Y4690999D01*
X10427899D01*
X10173899D02*
Y4792599D01*
X10275499D01*
Y4690999D01*
X10173899D01*
X9919899D02*
Y4792599D01*
X10021499D01*
Y4690999D01*
X9919899D01*
X9665899D02*
Y4792599D01*
X9767499D01*
Y4690999D01*
X9665899D01*
X9411899D02*
Y4792599D01*
X9513499D01*
Y4690999D01*
X9411899D01*
X5347899D02*
Y4792599D01*
X5449499D01*
Y4690999D01*
X5347899D01*
X5601899D02*
Y4792599D01*
X5703499D01*
Y4690999D01*
X5601899D01*
X5855899D02*
Y4792599D01*
X5957499D01*
Y4690999D01*
X5855899D01*
X6109899D02*
Y4792599D01*
X6211499D01*
Y4690999D01*
X6109899D01*
X6363899D02*
Y4792599D01*
X6465499D01*
Y4690999D01*
X6363899D01*
X6617899D02*
Y4792599D01*
X6719499D01*
Y4690999D01*
X6617899D01*
X7125899D02*
Y4792599D01*
X7227499D01*
Y4690999D01*
X7125899D01*
X7379899D02*
Y4792599D01*
X7481499D01*
Y4690999D01*
X7379899D01*
X7633899D02*
Y4792599D01*
X7735499D01*
Y4690999D01*
X7633899D01*
X7887899D02*
Y4792599D01*
X7989499D01*
Y4690999D01*
X7887899D01*
X8141899D02*
Y4792599D01*
X8243499D01*
Y4690999D01*
X8141899D01*
X8395899D02*
Y4792599D01*
X8497499D01*
Y4690999D01*
X8395899D01*
X8649899D02*
Y4792599D01*
X8751499D01*
Y4690999D01*
X8649899D01*
X8903899D02*
Y4792599D01*
X9005499D01*
Y4690999D01*
X8903899D01*
X9157899D02*
Y4792599D01*
X9259499D01*
Y4690999D01*
X9157899D01*
X6871899D02*
Y4792599D01*
X6973499D01*
Y4690999D01*
X6871899D01*
X13221899D02*
Y4792599D01*
X13323499D01*
Y4690999D01*
X13221899D01*
X16035838Y10909259D02*
X15951199D01*
Y10782300D01*
X16035838D01*
X15951199Y10845779D02*
X15993520D01*
X16162839Y11163259D02*
X16078200D01*
Y11036300D01*
X16162839D01*
X16078200Y11099779D02*
X16120520D01*
X16289839Y10909259D02*
X16205200D01*
Y10782300D01*
X16289839D01*
X16205200Y10845779D02*
X16247520D01*
X16416840Y11163259D02*
X16332201D01*
Y11036300D01*
X16416840D01*
X16332201Y11099779D02*
X16374519D01*
X16543839Y10909259D02*
X16459200D01*
Y10782300D01*
X16543839D01*
X16459200Y10845779D02*
X16501520D01*
X16670839Y11163259D02*
X16586200D01*
Y11036300D01*
X16670839D01*
X16586200Y11099779D02*
X16628520D01*
X16797839Y10909259D02*
X16713200D01*
Y10782300D01*
X16797839D01*
X16713200Y10845779D02*
X16755521D01*
X16924838Y11163259D02*
X16840199D01*
Y11036300D01*
X16924838D01*
X16840199Y11099779D02*
X16882520D01*
X15623703Y10663260D02*
Y10536301D01*
X15687183D01*
X15708342Y10557461D01*
Y10642100D01*
X15687183Y10663260D01*
X15623703D01*
X17167703D02*
Y10536301D01*
X17231181D01*
X17252342Y10557461D01*
Y10642100D01*
X17231181Y10663260D01*
X17167703D01*
X15798801Y10121900D02*
Y10096500D01*
X15849600D01*
Y10121900D01*
X15875000D01*
Y10172700D01*
X15849600D01*
Y10198100D01*
X15798801D01*
Y10172700D01*
X15773399D01*
Y10121900D01*
X15798801D01*
X15808960Y10132060D02*
Y10116820D01*
X15839439D01*
Y10132060D01*
X15854680D01*
Y10162540D01*
X15839439D01*
Y10177780D01*
X15808960D01*
Y10162540D01*
X15793719D01*
Y10132060D01*
X15808960D01*
X16941800Y10121900D02*
Y10096500D01*
X16992599D01*
Y10121900D01*
X17017999D01*
Y10172700D01*
X16992599D01*
Y10198100D01*
X16941800D01*
Y10172700D01*
X16916400D01*
Y10121900D01*
X16941800D01*
X16951961Y10132060D02*
Y10116820D01*
X16982440D01*
Y10132060D01*
X16997681D01*
Y10162540D01*
X16982440D01*
Y10177780D01*
X16951961D01*
Y10162540D01*
X16936720D01*
Y10132060D01*
X16951961D01*
X13220700Y10795000D02*
Y10896600D01*
X13322301D01*
Y10795000D01*
X13220700D01*
X12966701D02*
Y10896600D01*
X13068300D01*
Y10795000D01*
X12966701D01*
X12712700D02*
Y10896600D01*
X12814301D01*
Y10795000D01*
X12712700D01*
X12458700D02*
Y10896600D01*
X12560300D01*
Y10795000D01*
X12458700D01*
X12204700D02*
Y10896600D01*
X12306300D01*
Y10795000D01*
X12204700D01*
X11950700D02*
Y10896600D01*
X12052300D01*
Y10795000D01*
X11950700D01*
X11696700D02*
Y10896600D01*
X11798300D01*
Y10795000D01*
X11696700D01*
X11442700D02*
Y10896600D01*
X11544300D01*
Y10795000D01*
X11442700D01*
X11188700D02*
Y10896600D01*
X11290300D01*
Y10795000D01*
X11188700D01*
X10934700D02*
Y10896600D01*
X11036300D01*
Y10795000D01*
X10934700D01*
X10680700D02*
Y10896600D01*
X10782300D01*
Y10795000D01*
X10680700D01*
X10426700D02*
Y10896600D01*
X10528300D01*
Y10795000D01*
X10426700D01*
X10172700D02*
Y10896600D01*
X10274300D01*
Y10795000D01*
X10172700D01*
X9918700D02*
Y10896600D01*
X10020300D01*
Y10795000D01*
X9918700D01*
X9664700D02*
Y10896600D01*
X9766300D01*
Y10795000D01*
X9664700D01*
X3568700Y10541000D02*
Y10642600D01*
X3670300D01*
Y10541000D01*
X3568700D01*
Y10795000D02*
Y10896600D01*
X3670300D01*
Y10795000D01*
X3568700D01*
X3822700Y10541000D02*
Y10642600D01*
X3924300D01*
Y10541000D01*
X3822700D01*
Y10795000D02*
Y10896600D01*
X3924300D01*
Y10795000D01*
X3822700D01*
X4076700Y10541000D02*
Y10642600D01*
X4178300D01*
Y10541000D01*
X4076700D01*
Y10795000D02*
Y10896600D01*
X4178300D01*
Y10795000D01*
X4076700D01*
X4330700Y10541000D02*
Y10642600D01*
X4432300D01*
Y10541000D01*
X4330700D01*
Y10795000D02*
Y10896600D01*
X4432300D01*
Y10795000D01*
X4330700D01*
X4584700Y10541000D02*
Y10642600D01*
X4686300D01*
Y10541000D01*
X4584700D01*
Y10795000D02*
Y10896600D01*
X4686300D01*
Y10795000D01*
X4584700D01*
X4838700Y10541000D02*
Y10642600D01*
X4940300D01*
Y10541000D01*
X4838700D01*
Y10795000D02*
Y10896600D01*
X4940300D01*
Y10795000D01*
X4838700D01*
X5092700Y10541000D02*
Y10642600D01*
X5194300D01*
Y10541000D01*
X5092700D01*
Y10795000D02*
Y10896600D01*
X5194300D01*
Y10795000D01*
X5092700D01*
X5346700D02*
Y10896600D01*
X5448300D01*
Y10795000D01*
X5346700D01*
X5600700D02*
Y10896600D01*
X5702300D01*
Y10795000D01*
X5600700D01*
X5854700D02*
Y10896600D01*
X5956300D01*
Y10795000D01*
X5854700D01*
X6108700D02*
Y10896600D01*
X6210300D01*
Y10795000D01*
X6108700D01*
X6362700D02*
Y10896600D01*
X6464300D01*
Y10795000D01*
X6362700D01*
X6616700D02*
Y10896600D01*
X6718300D01*
Y10795000D01*
X6616700D01*
X6870700D02*
Y10896600D01*
X6972300D01*
Y10795000D01*
X6870700D01*
X7124700D02*
Y10896600D01*
X7226300D01*
Y10795000D01*
X7124700D01*
X7378700D02*
Y10896600D01*
X7480300D01*
Y10795000D01*
X7378700D01*
X7632700D02*
Y10896600D01*
X7734300D01*
Y10795000D01*
X7632700D01*
X7886700D02*
Y10896600D01*
X7988300D01*
Y10795000D01*
X7886700D01*
X8140700D02*
Y10896600D01*
X8242300D01*
Y10795000D01*
X8140700D01*
X8394700D02*
Y10896600D01*
X8496300D01*
Y10795000D01*
X8394700D01*
X8648700D02*
Y10896600D01*
X8750300D01*
Y10795000D01*
X8648700D01*
X8902700D02*
Y10896600D01*
X9004300D01*
Y10795000D01*
X8902700D01*
X9156700D02*
Y10896600D01*
X9258300D01*
Y10795000D01*
X9156700D01*
X9410700D02*
Y10896600D01*
X9512300D01*
Y10795000D01*
X9410700D01*
X3314700Y10541000D02*
Y10642600D01*
X3416300D01*
Y10541000D01*
X3314700D01*
Y10795000D02*
Y10896600D01*
X3416300D01*
Y10795000D01*
X3314700D01*
X12966701Y10541000D02*
Y10642600D01*
X13068300D01*
Y10541000D01*
X12966701D01*
X12712700D02*
Y10642600D01*
X12814301D01*
Y10541000D01*
X12712700D01*
X12458700D02*
Y10642600D01*
X12560300D01*
Y10541000D01*
X12458700D01*
X12204700D02*
Y10642600D01*
X12306300D01*
Y10541000D01*
X12204700D01*
X11950700D02*
Y10642600D01*
X12052300D01*
Y10541000D01*
X11950700D01*
X11696700D02*
Y10642600D01*
X11798300D01*
Y10541000D01*
X11696700D01*
X11442700D02*
Y10642600D01*
X11544300D01*
Y10541000D01*
X11442700D01*
X11188700D02*
Y10642600D01*
X11290300D01*
Y10541000D01*
X11188700D01*
X10934700D02*
Y10642600D01*
X11036300D01*
Y10541000D01*
X10934700D01*
X10680700D02*
Y10642600D01*
X10782300D01*
Y10541000D01*
X10680700D01*
X10426700D02*
Y10642600D01*
X10528300D01*
Y10541000D01*
X10426700D01*
X10172700D02*
Y10642600D01*
X10274300D01*
Y10541000D01*
X10172700D01*
X9918700D02*
Y10642600D01*
X10020300D01*
Y10541000D01*
X9918700D01*
X9664700D02*
Y10642600D01*
X9766300D01*
Y10541000D01*
X9664700D01*
X9410700D02*
Y10642600D01*
X9512300D01*
Y10541000D01*
X9410700D01*
X5346700D02*
Y10642600D01*
X5448300D01*
Y10541000D01*
X5346700D01*
X5600700D02*
Y10642600D01*
X5702300D01*
Y10541000D01*
X5600700D01*
X5854700D02*
Y10642600D01*
X5956300D01*
Y10541000D01*
X5854700D01*
X6108700D02*
Y10642600D01*
X6210300D01*
Y10541000D01*
X6108700D01*
X6362700D02*
Y10642600D01*
X6464300D01*
Y10541000D01*
X6362700D01*
X6616700D02*
Y10642600D01*
X6718300D01*
Y10541000D01*
X6616700D01*
X7124700D02*
Y10642600D01*
X7226300D01*
Y10541000D01*
X7124700D01*
X7378700D02*
Y10642600D01*
X7480300D01*
Y10541000D01*
X7378700D01*
X7632700D02*
Y10642600D01*
X7734300D01*
Y10541000D01*
X7632700D01*
X7886700D02*
Y10642600D01*
X7988300D01*
Y10541000D01*
X7886700D01*
X8140700D02*
Y10642600D01*
X8242300D01*
Y10541000D01*
X8140700D01*
X8394700D02*
Y10642600D01*
X8496300D01*
Y10541000D01*
X8394700D01*
X8648700D02*
Y10642600D01*
X8750300D01*
Y10541000D01*
X8648700D01*
X8902700D02*
Y10642600D01*
X9004300D01*
Y10541000D01*
X8902700D01*
X9156700D02*
Y10642600D01*
X9258300D01*
Y10541000D01*
X9156700D01*
X6870700D02*
Y10642600D01*
X6972300D01*
Y10541000D01*
X6870700D01*
X13220700D02*
Y10642600D01*
X13322301D01*
Y10541000D01*
X13220700D01*
X10728147Y812800D02*
Y914400D01*
X10829747D01*
Y812800D01*
X10728147D01*
X10748467Y833120D02*
Y894080D01*
X10809427D01*
Y833120D01*
X10748467D01*
X10220147Y812800D02*
Y914400D01*
X10321747D01*
Y812800D01*
X10220147D01*
X10240467Y833120D02*
Y894080D01*
X10301427D01*
Y833120D01*
X10240467D01*
X9458147Y812800D02*
Y914400D01*
X9559747D01*
Y812800D01*
X9458147D01*
X9478467Y833120D02*
Y894080D01*
X9539427D01*
Y833120D01*
X9478467D01*
X9458147Y2842798D02*
Y2944398D01*
X9559747D01*
Y2842798D01*
X9458147D01*
X9478467Y2863118D02*
Y2924078D01*
X9539427D01*
Y2863118D01*
X9478467D01*
X10474147Y2842798D02*
Y2944398D01*
X10575747D01*
Y2842798D01*
X10474147D01*
X10494467Y2863118D02*
Y2924078D01*
X10555427D01*
Y2863118D01*
X10494467D01*
X11490147Y2842798D02*
Y2944398D01*
X11591747D01*
Y2842798D01*
X11490147D01*
X11510467Y2863118D02*
Y2924078D01*
X11571427D01*
Y2863118D01*
X11510467D01*
X22720695Y3674430D02*
Y3649030D01*
X22771497D01*
Y3674430D01*
X22796896D01*
Y3725230D01*
X22771497D01*
Y3750630D01*
X22720695D01*
Y3725230D01*
X22695296D01*
Y3674430D01*
X22720695D01*
X23126700D02*
Y3649030D01*
X23177499D01*
Y3674430D01*
X23202901D01*
Y3725230D01*
X23177499D01*
Y3750630D01*
X23126700D01*
Y3725230D01*
X23101300D01*
Y3674430D01*
X23126700D01*
X22212695D02*
Y3649030D01*
X22263496D01*
Y3674430D01*
X22288896D01*
Y3725230D01*
X22263496D01*
Y3750630D01*
X22212695D01*
Y3725230D01*
X22187296D01*
Y3674430D01*
X22212695D01*
X23634700D02*
Y3649030D01*
X23685500D01*
Y3674430D01*
X23710899D01*
Y3725230D01*
X23685500D01*
Y3750630D01*
X23634700D01*
Y3725230D01*
X23609300D01*
Y3674430D01*
X23634700D01*
X15095692Y3937000D02*
X15121092D01*
X15146492Y3962400D01*
X15171892Y3937000D01*
X15197292D01*
Y3962400D01*
X15171892Y3987800D01*
X15197292Y4013200D01*
Y4038600D01*
X15171892D01*
X15146492Y4013200D01*
X15121092Y4038600D01*
X15095692D01*
Y4013200D01*
X15121092Y3987800D01*
X15095692Y3962400D01*
Y3937000D01*
X15116013Y3957320D02*
X15131252D01*
X15146492Y3972560D01*
X15161732Y3957320D01*
X15176971D01*
Y3972560D01*
X15161732Y3987800D01*
X15176971Y4003040D01*
Y4018280D01*
X15161732D01*
X15146492Y4003040D01*
X15131252Y4018280D01*
X15116013D01*
Y4003040D01*
X15131252Y3987800D01*
X15116013Y3972560D01*
Y3957320D01*
X15367000Y2997200D02*
X15392400D01*
X15417799Y3022600D01*
X15443201Y2997200D01*
X15468600D01*
Y3022600D01*
X15443201Y3048000D01*
X15468600Y3073400D01*
Y3098800D01*
X15443201D01*
X15417799Y3073400D01*
X15392400Y3098800D01*
X15367000D01*
Y3073400D01*
X15392400Y3048000D01*
X15367000Y3022600D01*
Y2997200D01*
X15112000D02*
X15137399D01*
X15162799Y3022600D01*
X15188199Y2997200D01*
X15213599D01*
Y3022600D01*
X15188199Y3048000D01*
X15213599Y3073400D01*
Y3098800D01*
X15188199D01*
X15162799Y3073400D01*
X15137399Y3098800D01*
X15112000D01*
Y3073400D01*
X15137399Y3048000D01*
X15112000Y3022600D01*
Y2997200D01*
X14856998D02*
X14882397D01*
X14907797Y3022600D01*
X14933199Y2997200D01*
X14958598D01*
Y3022600D01*
X14933199Y3048000D01*
X14958598Y3073400D01*
Y3098800D01*
X14933199D01*
X14907797Y3073400D01*
X14882397Y3098800D01*
X14856998D01*
Y3073400D01*
X14882397Y3048000D01*
X14856998Y3022600D01*
Y2997200D01*
X15108392Y1930400D02*
X15133792D01*
X15159192Y1955800D01*
X15184592Y1930400D01*
X15209991D01*
Y1955800D01*
X15184592Y1981200D01*
X15209991Y2006600D01*
Y2032000D01*
X15184592D01*
X15159192Y2006600D01*
X15133792Y2032000D01*
X15108392D01*
Y2006600D01*
X15133792Y1981200D01*
X15108392Y1955800D01*
Y1930400D01*
X15128712Y1950720D02*
X15143951D01*
X15159192Y1965960D01*
X15174432Y1950720D01*
X15189671D01*
Y1965960D01*
X15174432Y1981200D01*
X15189671Y1996440D01*
Y2011680D01*
X15174432D01*
X15159192Y1996440D01*
X15143951Y2011680D01*
X15128712D01*
Y1996440D01*
X15143951Y1981200D01*
X15128712Y1965960D01*
Y1950720D01*
X21168655Y2819400D02*
X21194055D01*
X21219455Y2844800D01*
X21244855Y2819400D01*
X21270255D01*
Y2844800D01*
X21244855Y2870200D01*
X21270255Y2895600D01*
Y2921000D01*
X21244855D01*
X21219455Y2895600D01*
X21194055Y2921000D01*
X21168655D01*
Y2895600D01*
X21194055Y2870200D01*
X21168655Y2844800D01*
Y2819400D01*
X20913654D02*
X20939053D01*
X20964455Y2844800D01*
X20989854Y2819400D01*
X21015254D01*
Y2844800D01*
X20989854Y2870200D01*
X21015254Y2895600D01*
Y2921000D01*
X20989854D01*
X20964455Y2895600D01*
X20939053Y2921000D01*
X20913654D01*
Y2895600D01*
X20939053Y2870200D01*
X20913654Y2844800D01*
Y2819400D01*
X20658653D02*
X20684053D01*
X20709453Y2844800D01*
X20734853Y2819400D01*
X20760252D01*
Y2844800D01*
X20734853Y2870200D01*
X20760252Y2895600D01*
Y2921000D01*
X20734853D01*
X20709453Y2895600D01*
X20684053Y2921000D01*
X20658653D01*
Y2895600D01*
X20684053Y2870200D01*
X20658653Y2844800D01*
Y2819400D01*
X5181600Y901700D02*
X5207000D01*
X5232400Y927100D01*
X5257800Y901700D01*
X5283200D01*
Y927100D01*
X5257800Y952500D01*
X5283200Y977900D01*
Y1003300D01*
X5257800D01*
X5232400Y977900D01*
X5207000Y1003300D01*
X5181600D01*
Y977900D01*
X5207000Y952500D01*
X5181600Y927100D01*
Y901700D01*
X5201920Y922020D02*
X5217160D01*
X5232400Y937260D01*
X5247640Y922020D01*
X5262880D01*
Y937260D01*
X5247640Y952500D01*
X5262880Y967740D01*
Y982980D01*
X5247640D01*
X5232400Y967740D01*
X5217160Y982980D01*
X5201920D01*
Y967740D01*
X5217160Y952500D01*
X5201920Y937260D01*
Y922020D01*
X738998Y2291502D02*
X764398Y2342302D01*
X738998Y2393102D01*
X789798Y2367702D01*
X840598Y2393102D01*
X815198Y2342302D01*
X840598Y2291502D01*
X789798Y2316902D01*
X738998Y2291502D01*
X23444200Y6397798D02*
X23469600D01*
X23495000Y6423198D01*
X23520399Y6397798D01*
X23545799D01*
Y6423198D01*
X23520399Y6448598D01*
X23545799Y6473998D01*
Y6499398D01*
X23520399D01*
X23495000Y6473998D01*
X23469600Y6499398D01*
X23444200D01*
Y6473998D01*
X23469600Y6448598D01*
X23444200Y6423198D01*
Y6397798D01*
X23189198D02*
X23214600D01*
X23239999Y6423198D01*
X23265399Y6397798D01*
X23290799D01*
Y6423198D01*
X23265399Y6448598D01*
X23290799Y6473998D01*
Y6499398D01*
X23265399D01*
X23239999Y6473998D01*
X23214600Y6499398D01*
X23189198D01*
Y6473998D01*
X23214600Y6448598D01*
X23189198Y6423198D01*
Y6397798D01*
X22934198D02*
X22959598D01*
X22984998Y6423198D01*
X23010397Y6397798D01*
X23035799D01*
Y6423198D01*
X23010397Y6448598D01*
X23035799Y6473998D01*
Y6499398D01*
X23010397D01*
X22984998Y6473998D01*
X22959598Y6499398D01*
X22934198D01*
Y6473998D01*
X22959598Y6448598D01*
X22934198Y6423198D01*
Y6397798D01*
Y2819400D02*
X22959598D01*
X22984998Y2844800D01*
X23010397Y2819400D01*
X23035799D01*
Y2844800D01*
X23010397Y2870200D01*
X23035799Y2895600D01*
Y2921000D01*
X23010397D01*
X22984998Y2895600D01*
X22959598Y2921000D01*
X22934198D01*
Y2895600D01*
X22959598Y2870200D01*
X22934198Y2844800D01*
Y2819400D01*
X23189198D02*
X23214600D01*
X23239999Y2844800D01*
X23265399Y2819400D01*
X23290799D01*
Y2844800D01*
X23265399Y2870200D01*
X23290799Y2895600D01*
Y2921000D01*
X23265399D01*
X23239999Y2895600D01*
X23214600Y2921000D01*
X23189198D01*
Y2895600D01*
X23214600Y2870200D01*
X23189198Y2844800D01*
Y2819400D01*
X23444200D02*
X23469600D01*
X23495000Y2844800D01*
X23520399Y2819400D01*
X23545799D01*
Y2844800D01*
X23520399Y2870200D01*
X23545799Y2895600D01*
Y2921000D01*
X23520399D01*
X23495000Y2895600D01*
X23469600Y2921000D01*
X23444200D01*
Y2895600D01*
X23469600Y2870200D01*
X23444200Y2844800D01*
Y2819400D01*
X21168655Y6397798D02*
X21194055D01*
X21219455Y6423198D01*
X21244855Y6397798D01*
X21270255D01*
Y6423198D01*
X21244855Y6448598D01*
X21270255Y6473998D01*
Y6499398D01*
X21244855D01*
X21219455Y6473998D01*
X21194055Y6499398D01*
X21168655D01*
Y6473998D01*
X21194055Y6448598D01*
X21168655Y6423198D01*
Y6397798D01*
X20913654D02*
X20939053D01*
X20964455Y6423198D01*
X20989854Y6397798D01*
X21015254D01*
Y6423198D01*
X20989854Y6448598D01*
X21015254Y6473998D01*
Y6499398D01*
X20989854D01*
X20964455Y6473998D01*
X20939053Y6499398D01*
X20913654D01*
Y6473998D01*
X20939053Y6448598D01*
X20913654Y6423198D01*
Y6397798D01*
X20658653D02*
X20684053D01*
X20709453Y6423198D01*
X20734853Y6397798D01*
X20760252D01*
Y6423198D01*
X20734853Y6448598D01*
X20760252Y6473998D01*
Y6499398D01*
X20734853D01*
X20709453Y6473998D01*
X20684053Y6499398D01*
X20658653D01*
Y6473998D01*
X20684053Y6448598D01*
X20658653Y6423198D01*
Y6397798D01*
X18173700Y1752600D02*
X18199100Y1778000D01*
X18224500D01*
X18199100Y1803400D01*
X18224500Y1828800D01*
X18199100D01*
X18173700Y1854200D01*
X18148300Y1828800D01*
X18122900D01*
X18148300Y1803400D01*
X18122900Y1778000D01*
X18148300D01*
X18173700Y1752600D01*
Y1772920D02*
X18188940Y1788160D01*
X18204179D01*
X18188940Y1803400D01*
X18204179Y1818640D01*
X18188940D01*
X18173700Y1833880D01*
X18158459Y1818640D01*
X18143221D01*
X18158459Y1803400D01*
X18143221Y1788160D01*
X18158459D01*
X18173700Y1772920D01*
Y228600D02*
X18199100Y254000D01*
X18224500D01*
X18199100Y279400D01*
X18224500Y304800D01*
X18199100D01*
X18173700Y330200D01*
X18148300Y304800D01*
X18122900D01*
X18148300Y279400D01*
X18122900Y254000D01*
X18148300D01*
X18173700Y228600D01*
Y248920D02*
X18188940Y264160D01*
X18204179D01*
X18188940Y279400D01*
X18204179Y294640D01*
X18188940D01*
X18173700Y309880D01*
X18158459Y294640D01*
X18143221D01*
X18158459Y279400D01*
X18143221Y264160D01*
X18158459D01*
X18173700Y248920D01*
X17525600Y1841500D02*
X17474799Y1943100D01*
X17576399D01*
X17525600Y1841500D01*
Y1861820D02*
X17495119Y1922780D01*
X17556079D01*
X17525600Y1861820D01*
X17017599Y1841500D02*
X16966798Y1943100D01*
X17068399D01*
X17017599Y1841500D01*
Y1861820D02*
X16987119Y1922780D01*
X17048079D01*
X17017599Y1861820D01*
X16611600Y1841500D02*
X16560800Y1943100D01*
X16662399D01*
X16611600Y1841500D01*
Y1861820D02*
X16581120Y1922780D01*
X16642081D01*
X16611600Y1861820D01*
X16103600Y1841500D02*
X16052800Y1943100D01*
X16154401D01*
X16103600Y1841500D01*
Y1861820D02*
X16073120Y1922780D01*
X16134081D01*
X16103600Y1861820D01*
X3403600Y1587500D02*
X3429000D01*
X3454400Y1612900D01*
X3479800Y1587500D01*
X3505200D01*
Y1612900D01*
X3479800Y1638300D01*
X3505200Y1663700D01*
Y1689100D01*
X3479800D01*
X3454400Y1663700D01*
X3429000Y1689100D01*
X3403600D01*
Y1663700D01*
X3429000Y1638300D01*
X3403600Y1612900D01*
Y1587500D01*
X2616200D02*
X2641600D01*
X2667000Y1612900D01*
X2692400Y1587500D01*
X2717800D01*
Y1612900D01*
X2692400Y1638300D01*
X2717800Y1663700D01*
Y1689100D01*
X2692400D01*
X2667000Y1663700D01*
X2641600Y1689100D01*
X2616200D01*
Y1663700D01*
X2641600Y1638300D01*
X2616200Y1612900D01*
Y1587500D01*
Y571500D02*
X2641600D01*
X2667000Y596900D01*
X2692400Y571500D01*
X2717800D01*
Y596900D01*
X2692400Y622300D01*
X2717800Y647700D01*
Y673100D01*
X2692400D01*
X2667000Y647700D01*
X2641600Y673100D01*
X2616200D01*
Y647700D01*
X2641600Y622300D01*
X2616200Y596900D01*
Y571500D01*
X3403600D02*
X3429000D01*
X3454400Y596900D01*
X3479800Y571500D01*
X3505200D01*
Y596900D01*
X3479800Y622300D01*
X3505200Y647700D01*
Y673100D01*
X3479800D01*
X3454400Y647700D01*
X3429000Y673100D01*
X3403600D01*
Y647700D01*
X3429000Y622300D01*
X3403600Y596900D01*
Y571500D01*
X751698Y1300902D02*
X777098Y1351702D01*
X751698Y1402502D01*
X802498Y1377102D01*
X853298Y1402502D01*
X827898Y1351702D01*
X853298Y1300902D01*
X802498Y1326302D01*
X751698Y1300902D01*
X13843002Y1308098D02*
X13792203Y1409698D01*
X13893803D01*
X13843002Y1308098D01*
X17780000Y3568700D02*
X17805400D01*
X17830800Y3594100D01*
X17856200Y3568700D01*
X17881599D01*
Y3594100D01*
X17856200Y3619500D01*
X17881599Y3644900D01*
Y3670300D01*
X17856200D01*
X17830800Y3644900D01*
X17805400Y3670300D01*
X17780000D01*
Y3644900D01*
X17805400Y3619500D01*
X17780000Y3594100D01*
Y3568700D01*
X16992599D02*
X17017999D01*
X17043401Y3594100D01*
X17068800Y3568700D01*
X17094200D01*
Y3594100D01*
X17068800Y3619500D01*
X17094200Y3644900D01*
Y3670300D01*
X17068800D01*
X17043401Y3644900D01*
X17017999Y3670300D01*
X16992599D01*
Y3644900D01*
X17017999Y3619500D01*
X16992599Y3594100D01*
Y3568700D01*
X15108392Y736600D02*
X15133792D01*
X15159192Y762000D01*
X15184592Y736600D01*
X15209991D01*
Y762000D01*
X15184592Y787400D01*
X15209991Y812800D01*
Y838200D01*
X15184592D01*
X15159192Y812800D01*
X15133792Y838200D01*
X15108392D01*
Y812800D01*
X15133792Y787400D01*
X15108392Y762000D01*
Y736600D01*
X15128712Y756920D02*
X15143951D01*
X15159192Y772160D01*
X15174432Y756920D01*
X15189671D01*
Y772160D01*
X15174432Y787400D01*
X15189671Y802640D01*
Y817880D01*
X15174432D01*
X15159192Y802640D01*
X15143951Y817880D01*
X15128712D01*
Y802640D01*
X15143951Y787400D01*
X15128712Y772160D01*
Y756920D01*
X17780000Y2527300D02*
X17805400D01*
X17830800Y2552700D01*
X17856200Y2527300D01*
X17881599D01*
Y2552700D01*
X17856200Y2578100D01*
X17881599Y2603500D01*
Y2628900D01*
X17856200D01*
X17830800Y2603500D01*
X17805400Y2628900D01*
X17780000D01*
Y2603500D01*
X17805400Y2578100D01*
X17780000Y2552700D01*
Y2527300D01*
X16992599D02*
X17017999D01*
X17043401Y2552700D01*
X17068800Y2527300D01*
X17094200D01*
Y2552700D01*
X17068800Y2578100D01*
X17094200Y2603500D01*
Y2628900D01*
X17068800D01*
X17043401Y2603500D01*
X17017999Y2628900D01*
X16992599D01*
Y2603500D01*
X17017999Y2578100D01*
X16992599Y2552700D01*
Y2527300D01*
X12573000Y736600D02*
X12598400D01*
X12623800Y762000D01*
X12649200Y736600D01*
X12674600D01*
Y762000D01*
X12649200Y787400D01*
X12674600Y812800D01*
Y838200D01*
X12649200D01*
X12623800Y812800D01*
X12598400Y838200D01*
X12573000D01*
Y812800D01*
X12598400Y787400D01*
X12573000Y762000D01*
Y736600D01*
X12593320Y756920D02*
X12608560D01*
X12623800Y772160D01*
X12639040Y756920D01*
X12654280D01*
Y772160D01*
X12639040Y787400D01*
X12654280Y802640D01*
Y817880D01*
X12639040D01*
X12623800Y802640D01*
X12608560Y817880D01*
X12593320D01*
Y802640D01*
X12608560Y787400D01*
X12593320Y772160D01*
Y756920D01*
X7870647Y808721D02*
Y910321D01*
X7972247D01*
Y808721D01*
X7870647D01*
X7890967Y829041D02*
Y890001D01*
X7951927D01*
Y829041D01*
X7890967D01*
X7362647Y808721D02*
Y910321D01*
X7464247D01*
Y808721D01*
X7362647D01*
X7382967Y829041D02*
Y890001D01*
X7443927D01*
Y829041D01*
X7382967D01*
X6600647Y808721D02*
Y910321D01*
X6702247D01*
Y808721D01*
X6600647D01*
X6620967Y829041D02*
Y890001D01*
X6681927D01*
Y829041D01*
X6620967D01*
X6600647Y2838719D02*
Y2940319D01*
X6702247D01*
Y2838719D01*
X6600647D01*
X6620967Y2859039D02*
Y2919999D01*
X6681927D01*
Y2859039D01*
X6620967D01*
X7616647Y2838719D02*
Y2940319D01*
X7718247D01*
Y2838719D01*
X7616647D01*
X7636967Y2859039D02*
Y2919999D01*
X7697927D01*
Y2859039D01*
X7636967D01*
X8632647Y2838719D02*
Y2940319D01*
X8734247D01*
Y2838719D01*
X8632647D01*
X8652967Y2859039D02*
Y2919999D01*
X8713927D01*
Y2859039D01*
X8652967D01*
X12598400Y1930400D02*
X12623800D01*
X12649200Y1955800D01*
X12674600Y1930400D01*
X12700000D01*
Y1955800D01*
X12674600Y1981200D01*
X12700000Y2006600D01*
Y2032000D01*
X12674600D01*
X12649200Y2006600D01*
X12623800Y2032000D01*
X12598400D01*
Y2006600D01*
X12623800Y1981200D01*
X12598400Y1955800D01*
Y1930400D01*
X12618720Y1950720D02*
X12633960D01*
X12649200Y1965960D01*
X12664440Y1950720D01*
X12679680D01*
Y1965960D01*
X12664440Y1981200D01*
X12679680Y1996440D01*
Y2011680D01*
X12664440D01*
X12649200Y1996440D01*
X12633960Y2011680D01*
X12618720D01*
Y1996440D01*
X12633960Y1981200D01*
X12618720Y1965960D01*
Y1950720D01*
X24584802Y3146877D02*
X24610202Y3197677D01*
X24584802Y3248477D01*
X24635602Y3223077D01*
X24686401Y3248477D01*
X24661002Y3197677D01*
X24686401Y3146877D01*
X24635602Y3172277D01*
X24584802Y3146877D01*
Y6728277D02*
X24610202Y6779077D01*
X24584802Y6829877D01*
X24635602Y6804477D01*
X24686401Y6829877D01*
X24661002Y6779077D01*
X24686401Y6728277D01*
X24635602Y6753677D01*
X24584802Y6728277D01*
Y10335079D02*
X24610202Y10385879D01*
X24584802Y10436679D01*
X24635602Y10411279D01*
X24686401Y10436679D01*
X24661002Y10385879D01*
X24686401Y10335079D01*
X24635602Y10360479D01*
X24584802Y10335079D01*
X22963850Y5575300D02*
X23014650Y5626100D01*
X23065450Y5575300D01*
X23014650Y5524500D01*
X22963850Y5575300D01*
X23217850D02*
X23268649Y5626100D01*
X23319450Y5575300D01*
X23268649Y5524500D01*
X23217850Y5575300D01*
X23471851D02*
X23522650Y5626100D01*
X23573450Y5575300D01*
X23522650Y5524500D01*
X23471851Y5575300D01*
X22963850Y9207500D02*
X23014650Y9258300D01*
X23065450Y9207500D01*
X23014650Y9156700D01*
X22963850Y9207500D01*
X23217850D02*
X23268649Y9258300D01*
X23319450Y9207500D01*
X23268649Y9156700D01*
X23217850Y9207500D01*
X23471851D02*
X23522650Y9258300D01*
X23573450Y9207500D01*
X23522650Y9156700D01*
X23471851Y9207500D01*
X21168655Y10007600D02*
X21194055D01*
X21219455Y10033000D01*
X21244855Y10007600D01*
X21270255D01*
Y10033000D01*
X21244855Y10058400D01*
X21270255Y10083800D01*
Y10109200D01*
X21244855D01*
X21219455Y10083800D01*
X21194055Y10109200D01*
X21168655D01*
Y10083800D01*
X21194055Y10058400D01*
X21168655Y10033000D01*
Y10007600D01*
X20913654D02*
X20939053D01*
X20964455Y10033000D01*
X20989854Y10007600D01*
X21015254D01*
Y10033000D01*
X20989854Y10058400D01*
X21015254Y10083800D01*
Y10109200D01*
X20989854D01*
X20964455Y10083800D01*
X20939053Y10109200D01*
X20913654D01*
Y10083800D01*
X20939053Y10058400D01*
X20913654Y10033000D01*
Y10007600D01*
X20658653D02*
X20684053D01*
X20709453Y10033000D01*
X20734853Y10007600D01*
X20760252D01*
Y10033000D01*
X20734853Y10058400D01*
X20760252Y10083800D01*
Y10109200D01*
X20734853D01*
X20709453Y10083800D01*
X20684053Y10109200D01*
X20658653D01*
Y10083800D01*
X20684053Y10058400D01*
X20658653Y10033000D01*
Y10007600D01*
X23444200D02*
X23469600D01*
X23495000Y10033000D01*
X23520399Y10007600D01*
X23545799D01*
Y10033000D01*
X23520399Y10058400D01*
X23545799Y10083800D01*
Y10109200D01*
X23520399D01*
X23495000Y10083800D01*
X23469600Y10109200D01*
X23444200D01*
Y10083800D01*
X23469600Y10058400D01*
X23444200Y10033000D01*
Y10007600D01*
X23189198D02*
X23214600D01*
X23239999Y10033000D01*
X23265399Y10007600D01*
X23290799D01*
Y10033000D01*
X23265399Y10058400D01*
X23290799Y10083800D01*
Y10109200D01*
X23265399D01*
X23239999Y10083800D01*
X23214600Y10109200D01*
X23189198D01*
Y10083800D01*
X23214600Y10058400D01*
X23189198Y10033000D01*
Y10007600D01*
X22934198D02*
X22959598D01*
X22984998Y10033000D01*
X23010397Y10007600D01*
X23035799D01*
Y10033000D01*
X23010397Y10058400D01*
X23035799Y10083800D01*
Y10109200D01*
X23010397D01*
X22984998Y10083800D01*
X22959598Y10109200D01*
X22934198D01*
Y10083800D01*
X22959598Y10058400D01*
X22934198Y10033000D01*
Y10007600D01*
X20688300Y9207500D02*
X20739101Y9258300D01*
X20789900Y9207500D01*
X20739101Y9156700D01*
X20688300Y9207500D01*
X20942300D02*
X20993100Y9258300D01*
X21043900Y9207500D01*
X20993100Y9156700D01*
X20942300Y9207500D01*
X21196300D02*
X21247099Y9258300D01*
X21297900Y9207500D01*
X21247099Y9156700D01*
X21196300Y9207500D01*
X20688300Y5575300D02*
X20739101Y5626100D01*
X20789900Y5575300D01*
X20739101Y5524500D01*
X20688300Y5575300D01*
X20942300D02*
X20993100Y5626100D01*
X21043900Y5575300D01*
X20993100Y5524500D01*
X20942300Y5575300D01*
X21196300D02*
X21247099Y5626100D01*
X21297900Y5575300D01*
X21247099Y5524500D01*
X21196300Y5575300D01*
X22963850Y1993900D02*
X23014650Y2044700D01*
X23065450Y1993900D01*
X23014650Y1943100D01*
X22963850Y1993900D01*
X23217850D02*
X23268649Y2044700D01*
X23319450Y1993900D01*
X23268649Y1943100D01*
X23217850Y1993900D01*
X23471851D02*
X23522650Y2044700D01*
X23573450Y1993900D01*
X23522650Y1943100D01*
X23471851Y1993900D01*
X20688300D02*
X20739101Y2044700D01*
X20789900Y1993900D01*
X20739101Y1943100D01*
X20688300Y1993900D01*
X20942300D02*
X20993100Y2044700D01*
X21043900Y1993900D01*
X20993100Y1943100D01*
X20942300Y1993900D01*
X21196300D02*
X21247099Y2044700D01*
X21297900Y1993900D01*
X21247099Y1943100D01*
X21196300Y1993900D01*
X3187700Y2286000D02*
X3136900Y2387600D01*
X3238500D01*
X3187700Y2286000D01*
Y2306320D02*
X3157220Y2367280D01*
X3218180D01*
X3187700Y2306320D01*
X2679700Y2286000D02*
X2628900Y2387600D01*
X2730500D01*
X2679700Y2286000D01*
Y2306320D02*
X2649220Y2367280D01*
X2710180D01*
X2679700Y2306320D01*
X2273701Y2286000D02*
X2222901Y2387600D01*
X2324501D01*
X2273701Y2286000D01*
Y2306320D02*
X2243221Y2367280D01*
X2304181D01*
X2273701Y2306320D01*
X1765701Y2286000D02*
X1714901Y2387600D01*
X1816501D01*
X1765701Y2286000D01*
Y2306320D02*
X1735221Y2367280D01*
X1796181D01*
X1765701Y2306320D01*
X5181600Y2044700D02*
X5207000D01*
X5232400Y2070100D01*
X5257800Y2044700D01*
X5283200D01*
Y2070100D01*
X5257800Y2095500D01*
X5283200Y2120900D01*
Y2146300D01*
X5257800D01*
X5232400Y2120900D01*
X5207000Y2146300D01*
X5181600D01*
Y2120900D01*
X5207000Y2095500D01*
X5181600Y2070100D01*
Y2044700D01*
X5201920Y2065020D02*
X5217160D01*
X5232400Y2080260D01*
X5247640Y2065020D01*
X5262880D01*
Y2080260D01*
X5247640Y2095500D01*
X5262880Y2110740D01*
Y2125980D01*
X5247640D01*
X5232400Y2110740D01*
X5217160Y2125980D01*
X5201920D01*
Y2110740D01*
X5217160Y2095500D01*
X5201920Y2080260D01*
Y2065020D01*
X25019003Y330198D02*
X24968204Y431798D01*
X25069803D01*
X25019003Y330198D01*
X25019000Y11252198D02*
X24968201Y11353798D01*
X25069800D01*
X25019000Y11252198D01*
X13842999Y10274298D02*
X13792200Y10375898D01*
X13893800D01*
X13842999Y10274298D01*
X381005Y330200D02*
X330205Y431800D01*
X431805D01*
X381005Y330200D01*
X381000Y11252200D02*
X330200Y11353800D01*
X431800D01*
X381000Y11252200D01*
X19278600Y1498600D02*
X19303999Y1549400D01*
X19278600Y1600200D01*
X19329401Y1574800D01*
X19380200Y1600200D01*
X19354800Y1549400D01*
X19380200Y1498600D01*
X19329401Y1524000D01*
X19278600Y1498600D01*
X19298920Y1518920D02*
X19314160Y1549400D01*
X19298920Y1579880D01*
X19329401Y1564640D01*
X19359880Y1579880D01*
X19344640Y1549400D01*
X19359880Y1518920D01*
X19329401Y1534160D01*
X19298920Y1518920D01*
X19278600Y711200D02*
X19303999Y762000D01*
X19278600Y812800D01*
X19329401Y787400D01*
X19380200Y812800D01*
X19354800Y762000D01*
X19380200Y711200D01*
X19329401Y736600D01*
X19278600Y711200D01*
X19298920Y731520D02*
X19314160Y762000D01*
X19298920Y792480D01*
X19329401Y777240D01*
X19359880Y792480D01*
X19344640Y762000D01*
X19359880Y731520D01*
X19329401Y746760D01*
X19298920Y731520D01*
X19354800Y3886200D02*
X19380200Y3937000D01*
X19354800Y3987800D01*
X19405600Y3962400D01*
X19456400Y3987800D01*
X19431000Y3937000D01*
X19456400Y3886200D01*
X19405600Y3911600D01*
X19354800Y3886200D01*
X19375121Y3906520D02*
X19390359Y3937000D01*
X19375121Y3967480D01*
X19405600Y3952240D01*
X19436079Y3967480D01*
X19420840Y3937000D01*
X19436079Y3906520D01*
X19405600Y3921760D01*
X19375121Y3906520D01*
X11455400Y3881120D02*
X11480800Y3931920D01*
X11455400Y3982720D01*
X11506200Y3957320D01*
X11557000Y3982720D01*
X11531600Y3931920D01*
X11557000Y3881120D01*
X11506200Y3906520D01*
X11455400Y3881120D01*
X11475720Y3901440D02*
X11490960Y3931920D01*
X11475720Y3962400D01*
X11506200Y3947160D01*
X11536680Y3962400D01*
X11521440Y3931920D01*
X11536680Y3901440D01*
X11506200Y3916680D01*
X11475720Y3901440D01*
X14185899Y5118100D02*
X14211301Y5168900D01*
X14185899Y5219700D01*
X14236700Y5194300D01*
X14287500Y5219700D01*
X14262100Y5168900D01*
X14287500Y5118100D01*
X14236700Y5143500D01*
X14185899Y5118100D01*
X14206219Y5138420D02*
X14221460Y5168900D01*
X14206219Y5199380D01*
X14236700Y5184140D01*
X14267180Y5199380D01*
X14251939Y5168900D01*
X14267180Y5138420D01*
X14236700Y5153660D01*
X14206219Y5138420D01*
X19329401Y10414000D02*
X19354800Y10464800D01*
X19329401Y10515600D01*
X19380200Y10490200D01*
X19431000Y10515600D01*
X19405600Y10464800D01*
X19431000Y10414000D01*
X19380200Y10439400D01*
X19329401Y10414000D01*
X19349719Y10434320D02*
X19364960Y10464800D01*
X19349719Y10495280D01*
X19380200Y10480040D01*
X19410680Y10495280D01*
X19395441Y10464800D01*
X19410680Y10434320D01*
X19380200Y10449560D01*
X19349719Y10434320D01*
X8128000Y3302000D02*
X8153400Y3352800D01*
X8128000Y3403600D01*
X8178800Y3378200D01*
X8229600Y3403600D01*
X8204200Y3352800D01*
X8229600Y3302000D01*
X8178800Y3327400D01*
X8128000Y3302000D01*
X8148320Y3322320D02*
X8163560Y3352800D01*
X8148320Y3383280D01*
X8178800Y3368040D01*
X8209280Y3383280D01*
X8194040Y3352800D01*
X8209280Y3322320D01*
X8178800Y3337560D01*
X8148320Y3322320D01*
X8128000Y3568700D02*
X8153400Y3619500D01*
X8128000Y3670300D01*
X8178800Y3644900D01*
X8229600Y3670300D01*
X8204200Y3619500D01*
X8229600Y3568700D01*
X8178800Y3594100D01*
X8128000Y3568700D01*
X8148320Y3589020D02*
X8163560Y3619500D01*
X8148320Y3649980D01*
X8178800Y3634740D01*
X8209280Y3649980D01*
X8194040Y3619500D01*
X8209280Y3589020D01*
X8178800Y3604260D01*
X8148320Y3589020D01*
X9969500Y3860800D02*
X9994900Y3911600D01*
X9969500Y3962400D01*
X10020300Y3937000D01*
X10071100Y3962400D01*
X10045700Y3911600D01*
X10071100Y3860800D01*
X10020300Y3886200D01*
X9969500Y3860800D01*
X9989820Y3881120D02*
X10005060Y3911600D01*
X9989820Y3942080D01*
X10020300Y3926840D01*
X10050780Y3942080D01*
X10035540Y3911600D01*
X10050780Y3881120D01*
X10020300Y3896360D01*
X9989820Y3881120D01*
X20726401Y7327900D02*
X20751801Y7378700D01*
X20726401Y7429500D01*
X20777200Y7404100D01*
X20828000Y7429500D01*
X20802600Y7378700D01*
X20828000Y7327900D01*
X20777200Y7353300D01*
X20726401Y7327900D01*
X20746719Y7348220D02*
X20761960Y7378700D01*
X20746719Y7409180D01*
X20777200Y7393940D01*
X20807680Y7409180D01*
X20792439Y7378700D01*
X20807680Y7348220D01*
X20777200Y7363460D01*
X20746719Y7348220D01*
X20688300Y10947400D02*
X20713699Y10998200D01*
X20688300Y11049000D01*
X20739101Y11023600D01*
X20789900Y11049000D01*
X20764500Y10998200D01*
X20789900Y10947400D01*
X20739101Y10972800D01*
X20688300Y10947400D01*
X20708620Y10967720D02*
X20723860Y10998200D01*
X20708620Y11028680D01*
X20739101Y11013440D01*
X20769580Y11028680D01*
X20754340Y10998200D01*
X20769580Y10967720D01*
X20739101Y10982960D01*
X20708620Y10967720D01*
X20688300Y3733800D02*
X20713699Y3784600D01*
X20688300Y3835400D01*
X20739101Y3810000D01*
X20789900Y3835400D01*
X20764500Y3784600D01*
X20789900Y3733800D01*
X20739101Y3759200D01*
X20688300Y3733800D01*
X20708620Y3754120D02*
X20723860Y3784600D01*
X20708620Y3815080D01*
X20739101Y3799840D01*
X20769580Y3815080D01*
X20754340Y3784600D01*
X20769580Y3754120D01*
X20739101Y3769360D01*
X20708620Y3754120D01*
X20588498Y3225800D02*
X20613898Y3276600D01*
X20588498Y3327400D01*
X20639297Y3302000D01*
X20690099Y3327400D01*
X20664697Y3276600D01*
X20690099Y3225800D01*
X20639297Y3251200D01*
X20588498Y3225800D01*
X20608818Y3246120D02*
X20624059Y3276600D01*
X20608818Y3307080D01*
X20639297Y3291840D01*
X20669778Y3307080D01*
X20654538Y3276600D01*
X20669778Y3246120D01*
X20639297Y3261360D01*
X20608818Y3246120D01*
X20563098Y6845300D02*
X20588498Y6896100D01*
X20563098Y6946900D01*
X20613898Y6921500D01*
X20664697Y6946900D01*
X20639297Y6896100D01*
X20664697Y6845300D01*
X20613898Y6870700D01*
X20563098Y6845300D01*
X20583418Y6865620D02*
X20598659Y6896100D01*
X20583418Y6926580D01*
X20613898Y6911340D01*
X20644379Y6926580D01*
X20629138Y6896100D01*
X20644379Y6865620D01*
X20613898Y6880860D01*
X20583418Y6865620D01*
X20574001Y10414000D02*
X20599400Y10464800D01*
X20574001Y10515600D01*
X20624800Y10490200D01*
X20675600Y10515600D01*
X20650200Y10464800D01*
X20675600Y10414000D01*
X20624800Y10439400D01*
X20574001Y10414000D01*
X20594321Y10434320D02*
X20609560Y10464800D01*
X20594321Y10495280D01*
X20624800Y10480040D01*
X20655280Y10495280D01*
X20640041Y10464800D01*
X20655280Y10434320D01*
X20624800Y10449560D01*
X20594321Y10434320D01*
X14338300Y4749800D02*
X14363699Y4800600D01*
X14338300Y4851400D01*
X14389101Y4826000D01*
X14439900Y4851400D01*
X14414500Y4800600D01*
X14439900Y4749800D01*
X14389101Y4775200D01*
X14338300Y4749800D01*
X14358620Y4770120D02*
X14373860Y4800600D01*
X14358620Y4831080D01*
X14389101Y4815840D01*
X14419580Y4831080D01*
X14404340Y4800600D01*
X14419580Y4770120D01*
X14389101Y4785360D01*
X14358620Y4770120D01*
X17094200Y7366000D02*
X17119600Y7416800D01*
X17094200Y7467600D01*
X17145000Y7442200D01*
X17195799Y7467600D01*
X17170399Y7416800D01*
X17195799Y7366000D01*
X17145000Y7391400D01*
X17094200Y7366000D01*
X17114520Y7386320D02*
X17129761Y7416800D01*
X17114520Y7447280D01*
X17145000Y7432040D01*
X17175481Y7447280D01*
X17160240Y7416800D01*
X17175481Y7386320D01*
X17145000Y7401560D01*
X17114520Y7386320D01*
X19144330Y5499100D02*
X19169730Y5549900D01*
X19144330Y5600700D01*
X19195129Y5575300D01*
X19245930Y5600700D01*
X19220531Y5549900D01*
X19245930Y5499100D01*
X19195129Y5524500D01*
X19144330Y5499100D01*
X19164650Y5519420D02*
X19179890Y5549900D01*
X19164650Y5580380D01*
X19195129Y5565140D01*
X19225610Y5580380D01*
X19210370Y5549900D01*
X19225610Y5519420D01*
X19195129Y5534660D01*
X19164650Y5519420D01*
X19138901Y6032500D02*
X19164301Y6083300D01*
X19138901Y6134100D01*
X19189700Y6108700D01*
X19240500Y6134100D01*
X19215100Y6083300D01*
X19240500Y6032500D01*
X19189700Y6057900D01*
X19138901Y6032500D01*
X19159219Y6052820D02*
X19174460Y6083300D01*
X19159219Y6113780D01*
X19189700Y6098540D01*
X19220180Y6113780D01*
X19204939Y6083300D01*
X19220180Y6052820D01*
X19189700Y6068060D01*
X19159219Y6052820D01*
X19138901Y6527800D02*
X19164301Y6578600D01*
X19138901Y6629400D01*
X19189700Y6604000D01*
X19240500Y6629400D01*
X19215100Y6578600D01*
X19240500Y6527800D01*
X19189700Y6553200D01*
X19138901Y6527800D01*
X19159219Y6548120D02*
X19174460Y6578600D01*
X19159219Y6609080D01*
X19189700Y6593840D01*
X19220180Y6609080D01*
X19204939Y6578600D01*
X19220180Y6548120D01*
X19189700Y6563360D01*
X19159219Y6548120D01*
X15992252Y7197542D02*
X16017651Y7248342D01*
X15992252Y7299142D01*
X16043051Y7273742D01*
X16093851Y7299142D01*
X16068451Y7248342D01*
X16093851Y7197542D01*
X16043051Y7222942D01*
X15992252Y7197542D01*
X16012572Y7217862D02*
X16027811Y7248342D01*
X16012572Y7278822D01*
X16043051Y7263582D01*
X16073531Y7278822D01*
X16058292Y7248342D01*
X16073531Y7217862D01*
X16043051Y7233102D01*
X16012572Y7217862D01*
X15989301Y7531100D02*
X16014700Y7581900D01*
X15989301Y7632700D01*
X16040100Y7607300D01*
X16090900Y7632700D01*
X16065500Y7581900D01*
X16090900Y7531100D01*
X16040100Y7556500D01*
X15989301Y7531100D01*
X16009621Y7551420D02*
X16024860Y7581900D01*
X16009621Y7612380D01*
X16040100Y7597140D01*
X16070580Y7612380D01*
X16055341Y7581900D01*
X16070580Y7551420D01*
X16040100Y7566660D01*
X16009621Y7551420D01*
X16002000Y7835900D02*
X16027400Y7886700D01*
X16002000Y7937500D01*
X16052800Y7912100D01*
X16103600Y7937500D01*
X16078200Y7886700D01*
X16103600Y7835900D01*
X16052800Y7861300D01*
X16002000Y7835900D01*
X16022321Y7856220D02*
X16037560Y7886700D01*
X16022321Y7917180D01*
X16052800Y7901940D01*
X16083279Y7917180D01*
X16068040Y7886700D01*
X16083279Y7856220D01*
X16052800Y7871460D01*
X16022321Y7856220D01*
X16687801Y9283700D02*
X16713200Y9334500D01*
X16687801Y9385300D01*
X16738600Y9359900D01*
X16789400Y9385300D01*
X16764000Y9334500D01*
X16789400Y9283700D01*
X16738600Y9309100D01*
X16687801Y9283700D01*
X16708121Y9304020D02*
X16723360Y9334500D01*
X16708121Y9364980D01*
X16738600Y9349740D01*
X16769080Y9364980D01*
X16753841Y9334500D01*
X16769080Y9304020D01*
X16738600Y9319260D01*
X16708121Y9304020D01*
X16687801Y9093200D02*
X16713200Y9144000D01*
X16687801Y9194800D01*
X16738600Y9169400D01*
X16789400Y9194800D01*
X16764000Y9144000D01*
X16789400Y9093200D01*
X16738600Y9118600D01*
X16687801Y9093200D01*
X16708121Y9113520D02*
X16723360Y9144000D01*
X16708121Y9174480D01*
X16738600Y9159240D01*
X16769080Y9174480D01*
X16753841Y9144000D01*
X16769080Y9113520D01*
X16738600Y9128760D01*
X16708121Y9113520D01*
X20015199Y10896600D02*
X20040601Y10947400D01*
X20015199Y10998200D01*
X20066000Y10972800D01*
X20116800Y10998200D01*
X20091400Y10947400D01*
X20116800Y10896600D01*
X20066000Y10922000D01*
X20015199Y10896600D01*
X20035519Y10916920D02*
X20050760Y10947400D01*
X20035519Y10977880D01*
X20066000Y10962640D01*
X20096480Y10977880D01*
X20081239Y10947400D01*
X20096480Y10916920D01*
X20066000Y10932160D01*
X20035519Y10916920D01*
X20015199Y7327900D02*
X20040601Y7378700D01*
X20015199Y7429500D01*
X20066000Y7404100D01*
X20116800Y7429500D01*
X20091400Y7378700D01*
X20116800Y7327900D01*
X20066000Y7353300D01*
X20015199Y7327900D01*
X20035519Y7348220D02*
X20050760Y7378700D01*
X20035519Y7409180D01*
X20066000Y7393940D01*
X20096480Y7409180D01*
X20081239Y7378700D01*
X20096480Y7348220D01*
X20066000Y7363460D01*
X20035519Y7348220D01*
X19964400Y3733800D02*
X19989799Y3784600D01*
X19964400Y3835400D01*
X20015199Y3810000D01*
X20066000Y3835400D01*
X20040601Y3784600D01*
X20066000Y3733800D01*
X20015199Y3759200D01*
X19964400Y3733800D01*
X19984720Y3754120D02*
X19999960Y3784600D01*
X19984720Y3815080D01*
X20015199Y3799840D01*
X20045680Y3815080D01*
X20030440Y3784600D01*
X20045680Y3754120D01*
X20015199Y3769360D01*
X19984720Y3754120D01*
X15991698Y6896100D02*
X16017097Y6946900D01*
X15991698Y6997700D01*
X16042497Y6972300D01*
X16093298Y6997700D01*
X16067899Y6946900D01*
X16093298Y6896100D01*
X16042497Y6921500D01*
X15991698Y6896100D01*
X16012018Y6916420D02*
X16027258Y6946900D01*
X16012018Y6977380D01*
X16042497Y6962140D01*
X16072978Y6977380D01*
X16057738Y6946900D01*
X16072978Y6916420D01*
X16042497Y6931660D01*
X16012018Y6916420D01*
X7051787Y3854719D02*
X7077187Y3905519D01*
X7051787Y3956319D01*
X7102587Y3930919D01*
X7153387Y3956319D01*
X7127987Y3905519D01*
X7153387Y3854719D01*
X7102587Y3880119D01*
X7051787Y3854719D01*
X7072107Y3875039D02*
X7087347Y3905519D01*
X7072107Y3935999D01*
X7102587Y3920759D01*
X7133067Y3935999D01*
X7117827Y3905519D01*
X7133067Y3875039D01*
X7102587Y3890279D01*
X7072107Y3875039D01*
X7089887Y3562619D02*
X7115287Y3613419D01*
X7089887Y3664219D01*
X7140687Y3638819D01*
X7191487Y3664219D01*
X7166087Y3613419D01*
X7191487Y3562619D01*
X7140687Y3588019D01*
X7089887Y3562619D01*
X7110207Y3582939D02*
X7125447Y3613419D01*
X7110207Y3643899D01*
X7140687Y3628659D01*
X7171167Y3643899D01*
X7155927Y3613419D01*
X7171167Y3582939D01*
X7140687Y3598179D01*
X7110207Y3582939D01*
X7089887Y3295919D02*
X7115287Y3346719D01*
X7089887Y3397519D01*
X7140687Y3372119D01*
X7191487Y3397519D01*
X7166087Y3346719D01*
X7191487Y3295919D01*
X7140687Y3321319D01*
X7089887Y3295919D01*
X7110207Y3316239D02*
X7125447Y3346719D01*
X7110207Y3377199D01*
X7140687Y3361959D01*
X7171167Y3377199D01*
X7155927Y3346719D01*
X7171167Y3316239D01*
X7140687Y3331479D01*
X7110207Y3316239D01*
X16687801Y5168900D02*
X16713200Y5219700D01*
X16687801Y5270500D01*
X16738600Y5245100D01*
X16789400Y5270500D01*
X16764000Y5219700D01*
X16789400Y5168900D01*
X16738600Y5194300D01*
X16687801Y5168900D01*
X16708121Y5189220D02*
X16723360Y5219700D01*
X16708121Y5250180D01*
X16738600Y5234940D01*
X16769080Y5250180D01*
X16753841Y5219700D01*
X16769080Y5189220D01*
X16738600Y5204460D01*
X16708121Y5189220D01*
X16916628Y5166782D02*
X16942027Y5217582D01*
X16916628Y5268382D01*
X16967429Y5242982D01*
X17018228Y5268382D01*
X16992828Y5217582D01*
X17018228Y5166782D01*
X16967429Y5192182D01*
X16916628Y5166782D01*
X16936948Y5187102D02*
X16952188Y5217582D01*
X16936948Y5248062D01*
X16967429Y5232822D01*
X16997908Y5248062D01*
X16982668Y5217582D01*
X16997908Y5187102D01*
X16967429Y5202342D01*
X16936948Y5187102D01*
X17145454Y5166782D02*
X17170856Y5217582D01*
X17145454Y5268382D01*
X17196255Y5242982D01*
X17247055Y5268382D01*
X17221655Y5217582D01*
X17247055Y5166782D01*
X17196255Y5192182D01*
X17145454Y5166782D01*
X17165775Y5187102D02*
X17181015Y5217582D01*
X17165775Y5248062D01*
X17196255Y5232822D01*
X17226735Y5248062D01*
X17211494Y5217582D01*
X17226735Y5187102D01*
X17196255Y5202342D01*
X17165775Y5187102D01*
X17374283Y5166782D02*
X17399683Y5217582D01*
X17374283Y5268382D01*
X17425082Y5242982D01*
X17475883Y5268382D01*
X17450484Y5217582D01*
X17475883Y5166782D01*
X17425082Y5192182D01*
X17374283Y5166782D01*
X17394603Y5187102D02*
X17409843Y5217582D01*
X17394603Y5248062D01*
X17425082Y5232822D01*
X17455563Y5248062D01*
X17440323Y5217582D01*
X17455563Y5187102D01*
X17425082Y5202342D01*
X17394603Y5187102D01*
X17603110Y5166782D02*
X17628510Y5217582D01*
X17603110Y5268382D01*
X17653909Y5242982D01*
X17704710Y5268382D01*
X17679311Y5217582D01*
X17704710Y5166782D01*
X17653909Y5192182D01*
X17603110Y5166782D01*
X17623430Y5187102D02*
X17638670Y5217582D01*
X17623430Y5248062D01*
X17653909Y5232822D01*
X17684390Y5248062D01*
X17669150Y5217582D01*
X17684390Y5187102D01*
X17653909Y5202342D01*
X17623430Y5187102D01*
X17831938Y5166782D02*
X17857338Y5217582D01*
X17831938Y5268382D01*
X17882738Y5242982D01*
X17933537Y5268382D01*
X17908138Y5217582D01*
X17933537Y5166782D01*
X17882738Y5192182D01*
X17831938Y5166782D01*
X17852258Y5187102D02*
X17867497Y5217582D01*
X17852258Y5248062D01*
X17882738Y5232822D01*
X17913219Y5248062D01*
X17897978Y5217582D01*
X17913219Y5187102D01*
X17882738Y5202342D01*
X17852258Y5187102D01*
X18098637Y4561418D02*
X18124039Y4612218D01*
X18098637Y4663018D01*
X18149438Y4637618D01*
X18200238Y4663018D01*
X18174838Y4612218D01*
X18200238Y4561418D01*
X18149438Y4586818D01*
X18098637Y4561418D01*
X18118958Y4581738D02*
X18134198Y4612218D01*
X18118958Y4642698D01*
X18149438Y4627458D01*
X18179918Y4642698D01*
X18164677Y4612218D01*
X18179918Y4581738D01*
X18149438Y4596978D01*
X18118958Y4581738D01*
X18373528Y4561418D02*
X18398927Y4612218D01*
X18373528Y4663018D01*
X18424327Y4637618D01*
X18475127Y4663018D01*
X18449727Y4612218D01*
X18475127Y4561418D01*
X18424327Y4586818D01*
X18373528Y4561418D01*
X18393848Y4581738D02*
X18409087Y4612218D01*
X18393848Y4642698D01*
X18424327Y4627458D01*
X18454807Y4642698D01*
X18439568Y4612218D01*
X18454807Y4581738D01*
X18424327Y4596978D01*
X18393848Y4581738D01*
X18910300Y4533900D02*
X18935699Y4584700D01*
X18910300Y4635500D01*
X18961099Y4610100D01*
X19011900Y4635500D01*
X18986501Y4584700D01*
X19011900Y4533900D01*
X18961099Y4559300D01*
X18910300Y4533900D01*
X18930620Y4554220D02*
X18945860Y4584700D01*
X18930620Y4615180D01*
X18961099Y4599940D01*
X18991580Y4615180D01*
X18976340Y4584700D01*
X18991580Y4554220D01*
X18961099Y4569460D01*
X18930620Y4554220D01*
X11023600Y3606800D02*
X11049000Y3657600D01*
X11023600Y3708400D01*
X11074400Y3683000D01*
X11125200Y3708400D01*
X11099800Y3657600D01*
X11125200Y3606800D01*
X11074400Y3632200D01*
X11023600Y3606800D01*
X11043920Y3627120D02*
X11059160Y3657600D01*
X11043920Y3688080D01*
X11074400Y3672840D01*
X11104880Y3688080D01*
X11089640Y3657600D01*
X11104880Y3627120D01*
X11074400Y3642360D01*
X11043920Y3627120D01*
X9956800Y3314700D02*
X9982200Y3365500D01*
X9956800Y3416300D01*
X10007600Y3390900D01*
X10058400Y3416300D01*
X10033000Y3365500D01*
X10058400Y3314700D01*
X10007600Y3340100D01*
X9956800Y3314700D01*
X9977120Y3335020D02*
X9992360Y3365500D01*
X9977120Y3395980D01*
X10007600Y3380740D01*
X10038080Y3395980D01*
X10022840Y3365500D01*
X10038080Y3335020D01*
X10007600Y3350260D01*
X9977120Y3335020D01*
X9956800Y3581400D02*
X9982200Y3632200D01*
X9956800Y3683000D01*
X10007600Y3657600D01*
X10058400Y3683000D01*
X10033000Y3632200D01*
X10058400Y3581400D01*
X10007600Y3606800D01*
X9956800Y3581400D01*
X9977120Y3601720D02*
X9992360Y3632200D01*
X9977120Y3662680D01*
X10007600Y3647440D01*
X10038080Y3662680D01*
X10022840Y3632200D01*
X10038080Y3601720D01*
X10007600Y3616960D01*
X9977120Y3601720D01*
X11023600Y3327400D02*
X11049000Y3378200D01*
X11023600Y3429000D01*
X11074400Y3403600D01*
X11125200Y3429000D01*
X11099800Y3378200D01*
X11125200Y3327400D01*
X11074400Y3352800D01*
X11023600Y3327400D01*
X11043920Y3347720D02*
X11059160Y3378200D01*
X11043920Y3408680D01*
X11074400Y3393440D01*
X11104880Y3408680D01*
X11089640Y3378200D01*
X11104880Y3347720D01*
X11074400Y3362960D01*
X11043920Y3347720D01*
X8648700Y3892819D02*
X8674100Y3943619D01*
X8648700Y3994419D01*
X8699500Y3969019D01*
X8750300Y3994419D01*
X8724900Y3943619D01*
X8750300Y3892819D01*
X8699500Y3918219D01*
X8648700Y3892819D01*
X8669020Y3913139D02*
X8684260Y3943619D01*
X8669020Y3974099D01*
X8699500Y3958859D01*
X8729980Y3974099D01*
X8714740Y3943619D01*
X8729980Y3913139D01*
X8699500Y3928379D01*
X8669020Y3913139D01*
X20027901Y11137900D02*
X20053300Y11188700D01*
X20027901Y11239500D01*
X20078700Y11214100D01*
X20129500Y11239500D01*
X20104100Y11188700D01*
X20129500Y11137900D01*
X20078700Y11163300D01*
X20027901Y11137900D01*
X20048219Y11158220D02*
X20063460Y11188700D01*
X20048219Y11219180D01*
X20078700Y11203940D01*
X20109180Y11219180D01*
X20093941Y11188700D01*
X20109180Y11158220D01*
X20078700Y11173460D01*
X20048219Y11158220D01*
X20015199Y7569200D02*
X20040601Y7620000D01*
X20015199Y7670800D01*
X20066000Y7645400D01*
X20116800Y7670800D01*
X20091400Y7620000D01*
X20116800Y7569200D01*
X20066000Y7594600D01*
X20015199Y7569200D01*
X20035519Y7589520D02*
X20050760Y7620000D01*
X20035519Y7650480D01*
X20066000Y7635240D01*
X20096480Y7650480D01*
X20081239Y7620000D01*
X20096480Y7589520D01*
X20066000Y7604760D01*
X20035519Y7589520D01*
X19964400Y3987800D02*
X19989799Y4038600D01*
X19964400Y4089400D01*
X20015199Y4064000D01*
X20066000Y4089400D01*
X20040601Y4038600D01*
X20066000Y3987800D01*
X20015199Y4013200D01*
X19964400Y3987800D01*
X19984720Y4008120D02*
X19999960Y4038600D01*
X19984720Y4069080D01*
X20015199Y4053840D01*
X20045680Y4069080D01*
X20030440Y4038600D01*
X20045680Y4008120D01*
X20015199Y4023360D01*
X19984720Y4008120D01*
D119*
X19303999Y1854200D02*
G03*
X19303999Y1854200I-50800J0D01*
G01*
X4438650Y3759200D02*
G03*
X4438650Y3759200I-50800J0D01*
G01*
X8978900Y3479800D02*
G03*
X8978900Y3479800I-50800J0D01*
G01*
X6413500D02*
G03*
X6413500Y3479800I-50800J0D01*
G01*
X15316200Y7658100D02*
G03*
X15316200Y7658100I-50800J0D01*
G01*
X3583701Y10078598D02*
G03*
X3583701Y10078598I-50800J0D01*
G01*
Y5506598D02*
G03*
X3583701Y5506598I-50800J0D01*
G01*
X3837701D02*
G03*
X3837701Y5506598I-50800J0D01*
G01*
X4091701D02*
G03*
X4091701Y5506598I-50800J0D01*
G01*
X4345701D02*
G03*
X4345701Y5506598I-50800J0D01*
G01*
X4599701D02*
G03*
X4599701Y5506598I-50800J0D01*
G01*
X4853701D02*
G03*
X4853701Y5506598I-50800J0D01*
G01*
X5107701D02*
G03*
X5107701Y5506598I-50800J0D01*
G01*
X5361701D02*
G03*
X5361701Y5506598I-50800J0D01*
G01*
X5615701D02*
G03*
X5615701Y5506598I-50800J0D01*
G01*
X5869701D02*
G03*
X5869701Y5506598I-50800J0D01*
G01*
Y10078598D02*
G03*
X5869701Y10078598I-50800J0D01*
G01*
X5615701D02*
G03*
X5615701Y10078598I-50800J0D01*
G01*
X5361701D02*
G03*
X5361701Y10078598I-50800J0D01*
G01*
X5107701D02*
G03*
X5107701Y10078598I-50800J0D01*
G01*
X4853701D02*
G03*
X4853701Y10078598I-50800J0D01*
G01*
X4599701D02*
G03*
X4599701Y10078598I-50800J0D01*
G01*
X4345701D02*
G03*
X4345701Y10078598I-50800J0D01*
G01*
X4091701D02*
G03*
X4091701Y10078598I-50800J0D01*
G01*
X3837701D02*
G03*
X3837701Y10078598I-50800J0D01*
G01*
X3583701Y5760598D02*
G03*
X3583701Y5760598I-50800J0D01*
G01*
X3837701D02*
G03*
X3837701Y5760598I-50800J0D01*
G01*
X4091701D02*
G03*
X4091701Y5760598I-50800J0D01*
G01*
X4345701D02*
G03*
X4345701Y5760598I-50800J0D01*
G01*
X4599701D02*
G03*
X4599701Y5760598I-50800J0D01*
G01*
X4853701D02*
G03*
X4853701Y5760598I-50800J0D01*
G01*
X5107701D02*
G03*
X5107701Y5760598I-50800J0D01*
G01*
X5361701D02*
G03*
X5361701Y5760598I-50800J0D01*
G01*
X5615701D02*
G03*
X5615701Y5760598I-50800J0D01*
G01*
X5869701D02*
G03*
X5869701Y5760598I-50800J0D01*
G01*
Y9824598D02*
G03*
X5869701Y9824598I-50800J0D01*
G01*
X5615701D02*
G03*
X5615701Y9824598I-50800J0D01*
G01*
X5361701D02*
G03*
X5361701Y9824598I-50800J0D01*
G01*
X5107701D02*
G03*
X5107701Y9824598I-50800J0D01*
G01*
X4853701D02*
G03*
X4853701Y9824598I-50800J0D01*
G01*
X4599701D02*
G03*
X4599701Y9824598I-50800J0D01*
G01*
X4345701D02*
G03*
X4345701Y9824598I-50800J0D01*
G01*
X4091701D02*
G03*
X4091701Y9824598I-50800J0D01*
G01*
X3837701D02*
G03*
X3837701Y9824598I-50800J0D01*
G01*
X3583701D02*
G03*
X3583701Y9824598I-50800J0D01*
G01*
X9933701Y5506598D02*
G03*
X9933701Y5506598I-50800J0D01*
G01*
X10187701D02*
G03*
X10187701Y5506598I-50800J0D01*
G01*
X10441701D02*
G03*
X10441701Y5506598I-50800J0D01*
G01*
X10695701D02*
G03*
X10695701Y5506598I-50800J0D01*
G01*
X10949701D02*
G03*
X10949701Y5506598I-50800J0D01*
G01*
X11203701D02*
G03*
X11203701Y5506598I-50800J0D01*
G01*
X11457701D02*
G03*
X11457701Y5506598I-50800J0D01*
G01*
X11711701D02*
G03*
X11711701Y5506598I-50800J0D01*
G01*
X11965701D02*
G03*
X11965701Y5506598I-50800J0D01*
G01*
X12219701D02*
G03*
X12219701Y5506598I-50800J0D01*
G01*
Y10078598D02*
G03*
X12219701Y10078598I-50800J0D01*
G01*
X11965701D02*
G03*
X11965701Y10078598I-50800J0D01*
G01*
X11711701D02*
G03*
X11711701Y10078598I-50800J0D01*
G01*
X11457701D02*
G03*
X11457701Y10078598I-50800J0D01*
G01*
X11203701D02*
G03*
X11203701Y10078598I-50800J0D01*
G01*
X10949701D02*
G03*
X10949701Y10078598I-50800J0D01*
G01*
X10695701D02*
G03*
X10695701Y10078598I-50800J0D01*
G01*
X10441701D02*
G03*
X10441701Y10078598I-50800J0D01*
G01*
X10187701D02*
G03*
X10187701Y10078598I-50800J0D01*
G01*
X9933701D02*
G03*
X9933701Y10078598I-50800J0D01*
G01*
Y5760598D02*
G03*
X9933701Y5760598I-50800J0D01*
G01*
X10187701D02*
G03*
X10187701Y5760598I-50800J0D01*
G01*
X10441701D02*
G03*
X10441701Y5760598I-50800J0D01*
G01*
X10695701D02*
G03*
X10695701Y5760598I-50800J0D01*
G01*
X10949701D02*
G03*
X10949701Y5760598I-50800J0D01*
G01*
X11203701D02*
G03*
X11203701Y5760598I-50800J0D01*
G01*
X11457701D02*
G03*
X11457701Y5760598I-50800J0D01*
G01*
X11711701D02*
G03*
X11711701Y5760598I-50800J0D01*
G01*
X11965701D02*
G03*
X11965701Y5760598I-50800J0D01*
G01*
X12219701D02*
G03*
X12219701Y5760598I-50800J0D01*
G01*
Y9824598D02*
G03*
X12219701Y9824598I-50800J0D01*
G01*
X11965701D02*
G03*
X11965701Y9824598I-50800J0D01*
G01*
X11711701D02*
G03*
X11711701Y9824598I-50800J0D01*
G01*
X11457701D02*
G03*
X11457701Y9824598I-50800J0D01*
G01*
X11203701D02*
G03*
X11203701Y9824598I-50800J0D01*
G01*
X10949701D02*
G03*
X10949701Y9824598I-50800J0D01*
G01*
X10695701D02*
G03*
X10695701Y9824598I-50800J0D01*
G01*
X10441701D02*
G03*
X10441701Y9824598I-50800J0D01*
G01*
X10187701D02*
G03*
X10187701Y9824598I-50800J0D01*
G01*
X9933701D02*
G03*
X9933701Y9824598I-50800J0D01*
G01*
X14383656Y8788400D02*
G03*
X14383656Y8788400I-50800J0D01*
G01*
X14071600D02*
G03*
X14071600Y8788400I-50800J0D01*
G01*
X16256000D02*
G03*
X16256000Y8788400I-50800J0D01*
G01*
X20828000Y4533900D02*
G03*
X20828000Y4533900I-50800J0D01*
G01*
X20497800D02*
G03*
X20497800Y4533900I-50800J0D01*
G01*
X20828000Y901700D02*
G03*
X20828000Y901700I-50800J0D01*
G01*
X20497800D02*
G03*
X20497800Y901700I-50800J0D01*
G01*
X9448800Y3479800D02*
G03*
X9448800Y3479800I-50800J0D01*
G01*
X15319827Y8788400D02*
G03*
X15319827Y8788400I-50800J0D01*
G01*
X15631885D02*
G03*
X15631885Y8788400I-50800J0D01*
G01*
X15943944D02*
G03*
X15943944Y8788400I-50800J0D01*
G01*
X14695712D02*
G03*
X14695712Y8788400I-50800J0D01*
G01*
X15007773D02*
G03*
X15007773Y8788400I-50800J0D01*
G01*
X4864100Y304800D02*
G03*
X4864100Y304800I-50800J0D01*
G01*
X1282700Y723900D02*
G03*
X1282700Y723900I-50800J0D01*
G01*
X18808701Y1803400D02*
G03*
X18808701Y1803400I-50800J0D01*
G01*
Y533400D02*
G03*
X18808701Y533400I-50800J0D01*
G01*
X19303999Y279400D02*
G03*
X19303999Y279400I-50800J0D01*
G01*
X19037300Y9283700D02*
G03*
X19037300Y9283700I-50800J0D01*
G01*
X15316200Y7150100D02*
G03*
X15316200Y7150100I-50800J0D01*
G01*
X11887200Y3479800D02*
G03*
X11887200Y3479800I-50800J0D01*
G01*
X18161000Y9283700D02*
G03*
X18161000Y9283700I-50800J0D01*
G01*
X22783800Y901700D02*
G03*
X22783800Y901700I-50800J0D01*
G01*
X22730460Y10469880D02*
G03*
X22730460Y10469880I-50800J0D01*
G01*
X23114000Y8115300D02*
G03*
X23114000Y8115300I-50800J0D01*
G01*
X22783800D02*
G03*
X22783800Y8115300I-50800J0D01*
G01*
Y4533900D02*
G03*
X22783800Y4533900I-50800J0D01*
G01*
X23114000D02*
G03*
X23114000Y4533900I-50800J0D01*
G01*
X22730460Y3268980D02*
G03*
X22730460Y3268980I-50800J0D01*
G01*
X22743159Y6850380D02*
G03*
X22743159Y6850380I-50800J0D01*
G01*
X23114000Y901700D02*
G03*
X23114000Y901700I-50800J0D01*
G01*
X3536950Y3759200D02*
G03*
X3536950Y3759200I-50800J0D01*
G01*
X16256000Y5676900D02*
G03*
X16256000Y5676900I-50800J0D01*
G01*
X15925800D02*
G03*
X15925800Y5676900I-50800J0D01*
G01*
X15328900D02*
G03*
X15328900Y5676900I-50800J0D01*
G01*
X15633701D02*
G03*
X15633701Y5676900I-50800J0D01*
G01*
X15024100D02*
G03*
X15024100Y5676900I-50800J0D01*
G01*
X14732001D02*
G03*
X14732001Y5676900I-50800J0D01*
G01*
X20497800Y8115300D02*
G03*
X20497800Y8115300I-50800J0D01*
G01*
X20828000D02*
G03*
X20828000Y8115300I-50800J0D01*
G01*
D120*
X18788380Y1803400D02*
G03*
X18788380Y1803400I-30480J0D01*
G01*
Y533400D02*
G03*
X18788380Y533400I-30480J0D01*
G01*
%TF.MD5,cce2dab9b5e94db6ed8d11354a2b2aad*%
M02*
