%TF.GenerationSoftware,Altium Limited,Altium Designer,24.0.1 (36)*%
G04 Layer_Color=0*
%FSLAX45Y45*%
%MOMM*%
%TF.SameCoordinates,E989C384-8BFC-46BD-A9A6-91A2A83EB491*%
%TF.FilePolarity,Positive*%
%TF.FileFunction,NonPlated,1,2,NPTH,Drill*%
%TF.Part,Single*%
G01*
G75*
%TA.AperFunction,ComponentDrill*%
%ADD97C,3.20040*%
D97*
X17741901Y10147300D02*
D03*
X18884900D02*
D03*
X15824200D02*
D03*
X16967200D02*
D03*
%TF.MD5,b44d7ebe73e665c72d5b014ad5673915*%
M02*
