%TF.GenerationSoftware,Altium Limited,Altium Designer,24.0.1 (36)*%
G04 Layer_Color=128*
%FSLAX45Y45*%
%MOMM*%
%TF.SameCoordinates,E989C384-8BFC-46BD-A9A6-91A2A83EB491*%
%TF.FilePolarity,Positive*%
%TF.FileFunction,Paste,Bot*%
%TF.Part,Single*%
G01*
G75*
%TA.AperFunction,SMDPad,CuDef*%
%ADD11R,1.38000X1.00000*%
%ADD12R,1.00000X1.38000*%
%ADD14R,1.15000X1.47000*%
%ADD51R,1.47000X1.15000*%
D11*
X14693900Y9509902D02*
D03*
Y9692498D02*
D03*
X14207068Y9690100D02*
D03*
Y9507504D02*
D03*
X15697202Y9692498D02*
D03*
Y9509902D02*
D03*
X15938499Y9705198D02*
D03*
Y9522602D02*
D03*
X15436900Y9694896D02*
D03*
Y9512300D02*
D03*
X15163802Y9509902D02*
D03*
Y9692498D02*
D03*
X16192500Y9694896D02*
D03*
Y9512300D02*
D03*
X14452600Y9509902D02*
D03*
Y9692498D02*
D03*
X16192500Y9275796D02*
D03*
Y9093200D02*
D03*
X15938499D02*
D03*
Y9275796D02*
D03*
X15163802Y9090802D02*
D03*
Y9273398D02*
D03*
X14200414Y9082898D02*
D03*
Y9265493D02*
D03*
X14688458Y9082898D02*
D03*
Y9265493D02*
D03*
X15680873Y9095598D02*
D03*
Y9278193D02*
D03*
X15430499Y9090802D02*
D03*
Y9273398D02*
D03*
X15665395Y8316102D02*
D03*
Y8498698D02*
D03*
X15907954Y8308198D02*
D03*
Y8490793D02*
D03*
X16150514Y8308198D02*
D03*
Y8490793D02*
D03*
X14452600Y9078102D02*
D03*
Y9260698D02*
D03*
X14935201Y8316102D02*
D03*
Y8498698D02*
D03*
X14693900D02*
D03*
Y8316102D02*
D03*
X15180276D02*
D03*
Y8498698D02*
D03*
X15422836D02*
D03*
Y8316102D02*
D03*
X18694400Y1325951D02*
D03*
Y1508547D02*
D03*
X18440401Y1325951D02*
D03*
Y1508547D02*
D03*
D12*
X20899403Y11163300D02*
D03*
X21082001D02*
D03*
D14*
X20457903Y3289300D02*
D03*
X20281900D02*
D03*
X20270998Y6896100D02*
D03*
X20447000D02*
D03*
X20281900Y10464800D02*
D03*
X20457903D02*
D03*
X22210503Y5588000D02*
D03*
X22034500D02*
D03*
X22212300Y6112932D02*
D03*
X22036298D02*
D03*
X22210503Y5854700D02*
D03*
X22034500D02*
D03*
X22212300Y6375400D02*
D03*
X22036298D02*
D03*
X22214098Y10020300D02*
D03*
X22038097D02*
D03*
X22042094Y9757832D02*
D03*
X22218095D02*
D03*
X22048997Y9232900D02*
D03*
X22225000D02*
D03*
X22042094Y9495368D02*
D03*
X22218095D02*
D03*
X22034500Y2870200D02*
D03*
X22210503D02*
D03*
X22034500Y2603500D02*
D03*
X22210503D02*
D03*
X22036298Y2082800D02*
D03*
X22212300D02*
D03*
X22036298Y2336800D02*
D03*
X22212300D02*
D03*
D51*
X18935699Y1498600D02*
D03*
Y1322598D02*
D03*
X10998200Y689066D02*
D03*
Y865068D02*
D03*
X11277600Y689066D02*
D03*
Y865068D02*
D03*
X8166100Y689066D02*
D03*
Y865068D02*
D03*
X8432800Y689066D02*
D03*
Y865068D02*
D03*
%TF.MD5,0e1acf8905d74f3360b19fb90d4c64fa*%
M02*
