%TF.GenerationSoftware,Altium Limited,Altium Designer,24.0.1 (36)*%
G04 Layer_Color=8388736*
%FSLAX45Y45*%
%MOMM*%
%TF.SameCoordinates,E989C384-8BFC-46BD-A9A6-91A2A83EB491*%
%TF.FilePolarity,Negative*%
%TF.FileFunction,Soldermask,Top*%
%TF.Part,Single*%
G01*
G75*
%TA.AperFunction,ComponentPad*%
%ADD32C,1.37160*%
%ADD35C,1.39700*%
%ADD42C,1.75260*%
%TA.AperFunction,SMDPad,CuDef*%
%ADD64R,1.58320X1.20320*%
%ADD65R,1.20320X1.58320*%
%ADD66R,1.00320X0.55320*%
%ADD67R,1.35320X1.67320*%
%ADD68R,1.30320X2.80320*%
%ADD69R,1.60320X1.10320*%
%ADD70R,1.60320X2.40320*%
%ADD71R,1.11760X1.42240*%
%ADD72R,2.40320X1.60320*%
%ADD73R,1.10320X1.60320*%
%ADD74R,1.70320X1.60320*%
%ADD75R,2.40320X0.80320*%
%ADD76O,2.40320X0.80320*%
%ADD77R,1.60320X1.70320*%
%TA.AperFunction,ComponentPad*%
%ADD78C,3.70320*%
%ADD79C,2.23520*%
%ADD80C,2.71780*%
%ADD81C,3.40360*%
%ADD82C,1.72720*%
%ADD83R,1.72720X1.72720*%
%ADD84C,1.97500*%
%ADD85R,1.97500X1.97500*%
%ADD86C,10.20320*%
%ADD87R,2.10820X2.10820*%
%ADD88C,2.10820*%
%ADD89C,6.40320*%
%ADD90C,3.40320*%
%ADD91C,0.20320*%
%ADD92R,1.80320X1.80320*%
%ADD93C,1.80320*%
%TA.AperFunction,ViaPad*%
%ADD94C,1.47320*%
D32*
X17945100Y5689600D02*
D03*
X17183099Y5435600D02*
D03*
X17437100D02*
D03*
X17691100D02*
D03*
X17945100D02*
D03*
X18199100D02*
D03*
X18453101D02*
D03*
X18707100Y5689600D02*
D03*
Y5943600D02*
D03*
Y6197600D02*
D03*
Y6451600D02*
D03*
Y6705600D02*
D03*
Y6959600D02*
D03*
X18453101Y7213600D02*
D03*
X18199100D02*
D03*
X17945100D02*
D03*
X17691100D02*
D03*
X17437100D02*
D03*
X17183099D02*
D03*
X16929100Y6959600D02*
D03*
Y6705600D02*
D03*
Y6451600D02*
D03*
Y6197600D02*
D03*
Y5943600D02*
D03*
Y5689600D02*
D03*
X17183099D02*
D03*
X17437100D02*
D03*
X17691100D02*
D03*
X18199100D02*
D03*
X18453101D02*
D03*
Y6959600D02*
D03*
X18199100D02*
D03*
X17945100D02*
D03*
X17691100D02*
D03*
X17437100D02*
D03*
X17183099D02*
D03*
X18453101Y5943600D02*
D03*
Y6197600D02*
D03*
Y6451600D02*
D03*
Y6705600D02*
D03*
X17183099D02*
D03*
Y6451600D02*
D03*
Y6197600D02*
D03*
Y5943600D02*
D03*
D35*
X17868900Y10782300D02*
D03*
X17995900Y11036300D02*
D03*
X18122900Y10782300D02*
D03*
X18249899Y11036300D02*
D03*
X18376900Y10782300D02*
D03*
X18503900Y11036300D02*
D03*
X18630901Y10782300D02*
D03*
X18757899Y11036300D02*
D03*
X15951199Y10782300D02*
D03*
X16078200Y11036300D02*
D03*
X16205200Y10782300D02*
D03*
X16332201Y11036300D02*
D03*
X16459200Y10782300D02*
D03*
X16586200Y11036300D02*
D03*
X16713200Y10782300D02*
D03*
X16840199Y11036300D02*
D03*
D42*
X10778947Y863600D02*
D03*
X10270947D02*
D03*
X9508947D02*
D03*
Y2893598D02*
D03*
X10524947D02*
D03*
X11540947D02*
D03*
X7921447Y859521D02*
D03*
X7413447D02*
D03*
X6651447D02*
D03*
Y2889519D02*
D03*
X7667447D02*
D03*
X8683447D02*
D03*
D64*
X18149438Y4983196D02*
D03*
Y4800600D02*
D03*
X17653000Y4798202D02*
D03*
Y4980798D02*
D03*
X17881599Y4798202D02*
D03*
Y4980798D02*
D03*
X17195799Y4798202D02*
D03*
Y4980798D02*
D03*
X16967200Y4798202D02*
D03*
Y4980798D02*
D03*
X16738600Y4798202D02*
D03*
Y4980798D02*
D03*
X17424400Y4798202D02*
D03*
Y4980798D02*
D03*
X21313139Y4671157D02*
D03*
Y4853752D02*
D03*
Y5064902D02*
D03*
Y5247498D02*
D03*
X19215100Y4798202D02*
D03*
Y4980798D02*
D03*
X18424327Y4800600D02*
D03*
Y4983196D02*
D03*
X19113499Y1265204D02*
D03*
Y1447800D02*
D03*
X23596600Y5247498D02*
D03*
Y5064902D02*
D03*
Y8867999D02*
D03*
Y8685403D02*
D03*
Y1666098D02*
D03*
Y1483502D02*
D03*
X21313139Y8460552D02*
D03*
Y8277957D02*
D03*
Y8867999D02*
D03*
Y8685403D02*
D03*
X23596600Y8460552D02*
D03*
Y8277957D02*
D03*
Y4853752D02*
D03*
Y4671157D02*
D03*
Y1272352D02*
D03*
Y1089757D02*
D03*
X21313139Y1272352D02*
D03*
Y1089757D02*
D03*
Y1666098D02*
D03*
Y1483502D02*
D03*
X18699211Y4980798D02*
D03*
Y4798202D02*
D03*
D65*
X16438596Y6946900D02*
D03*
X16256000D02*
D03*
X20456952Y7378700D02*
D03*
X20274352D02*
D03*
Y10947400D02*
D03*
X20456952D02*
D03*
Y10718800D02*
D03*
X20274352D02*
D03*
Y7150100D02*
D03*
X20456952D02*
D03*
X20274352Y3784600D02*
D03*
X20456952D02*
D03*
X20274352Y3543300D02*
D03*
X20456952D02*
D03*
X7809057Y3943619D02*
D03*
X7991653D02*
D03*
X10665602Y3920012D02*
D03*
X10848198D02*
D03*
D66*
X16408897Y9206001D02*
D03*
Y9271000D02*
D03*
Y9335999D02*
D03*
X16598900D02*
D03*
Y9271000D02*
D03*
Y9206001D02*
D03*
D67*
X7371085Y3613419D02*
D03*
X7547087D02*
D03*
X7991653D02*
D03*
X7815651D02*
D03*
X7991653Y3346719D02*
D03*
X7815651D02*
D03*
X7371085D02*
D03*
X7547087D02*
D03*
X10847354Y3644900D02*
D03*
X10671353D02*
D03*
X10847354Y3378200D02*
D03*
X10671353D02*
D03*
X10236200D02*
D03*
X10412202D02*
D03*
X10237998Y3644900D02*
D03*
X10414000D02*
D03*
X20447000Y11176000D02*
D03*
X20270998D02*
D03*
X19271097Y8374304D02*
D03*
X19095094D02*
D03*
X16246251Y7248342D02*
D03*
X16422253D02*
D03*
X16256000Y7886700D02*
D03*
X16432002D02*
D03*
X19271097Y7747000D02*
D03*
X19095094D02*
D03*
X18268446D02*
D03*
X18092445D02*
D03*
X18268446Y8374304D02*
D03*
X18092445D02*
D03*
X17316597D02*
D03*
X17140596D02*
D03*
X17316597Y7747000D02*
D03*
X17140596D02*
D03*
X20270998Y7620000D02*
D03*
X20447000D02*
D03*
X20270998Y4038600D02*
D03*
X20447000D02*
D03*
D68*
X7336241Y3918219D02*
D03*
X7606243D02*
D03*
X10203155Y3937000D02*
D03*
X10473157D02*
D03*
X19305940Y8080807D02*
D03*
X19035939D02*
D03*
X16191087Y7574981D02*
D03*
X16461090D02*
D03*
X18033289Y8080807D02*
D03*
X18303291D02*
D03*
X17351440D02*
D03*
X17081439D02*
D03*
D69*
X21059140Y1409700D02*
D03*
Y8597900D02*
D03*
X23329900Y1409700D02*
D03*
Y4991100D02*
D03*
X21059140D02*
D03*
X23329900Y8597900D02*
D03*
D70*
X21059140Y1154699D02*
D03*
Y8342899D02*
D03*
X23329900Y1154699D02*
D03*
Y4736099D02*
D03*
X21059140D02*
D03*
X23329900Y8342899D02*
D03*
D71*
X19284898Y8679551D02*
D03*
X18957239D02*
D03*
X18282249D02*
D03*
X17954588D02*
D03*
X17330400D02*
D03*
X17002740D02*
D03*
D72*
X19023599Y8991600D02*
D03*
X18020299D02*
D03*
X17081500D02*
D03*
D73*
X19278600D02*
D03*
X18275301D02*
D03*
X17336501D02*
D03*
D74*
X19113499Y778998D02*
D03*
Y999002D02*
D03*
X18961099Y4773087D02*
D03*
Y4993091D02*
D03*
D75*
X21322000Y6858000D02*
D03*
Y10464800D02*
D03*
Y3276600D02*
D03*
D76*
Y6985000D02*
D03*
Y7112000D02*
D03*
Y7239000D02*
D03*
X20842000Y6858000D02*
D03*
Y6985000D02*
D03*
Y7112000D02*
D03*
Y7239000D02*
D03*
X21322000Y10591800D02*
D03*
Y10718800D02*
D03*
Y10845800D02*
D03*
X20842000Y10464800D02*
D03*
Y10591800D02*
D03*
Y10718800D02*
D03*
Y10845800D02*
D03*
X21322000Y3403600D02*
D03*
Y3530600D02*
D03*
Y3657600D02*
D03*
X20842000Y3276600D02*
D03*
Y3403600D02*
D03*
Y3530600D02*
D03*
Y3657600D02*
D03*
D77*
X8247553Y3943619D02*
D03*
X8467557D02*
D03*
X11053298Y3941201D02*
D03*
X11273302D02*
D03*
D78*
X22746095Y7281230D02*
D03*
X23152100D02*
D03*
X22238097D02*
D03*
X23660100D02*
D03*
X22746095Y10888030D02*
D03*
X23152100D02*
D03*
X22238097D02*
D03*
X23660100D02*
D03*
X22746095Y3699830D02*
D03*
X23152100D02*
D03*
X22238097D02*
D03*
X23660100D02*
D03*
D79*
X19253200Y1854200D02*
D03*
X4387850Y3759200D02*
D03*
X8928100Y3479800D02*
D03*
X6362700D02*
D03*
X15265401Y7658100D02*
D03*
X14332857Y8788400D02*
D03*
X14020799D02*
D03*
X16205199D02*
D03*
X20777200Y4533900D02*
D03*
X20447000D02*
D03*
X20777200Y901700D02*
D03*
X20447000D02*
D03*
X9398000Y3479800D02*
D03*
X15269028Y8788400D02*
D03*
X15581085D02*
D03*
X15893144D02*
D03*
X14644913D02*
D03*
X14956973D02*
D03*
X4813300Y304800D02*
D03*
X1231900Y723900D02*
D03*
X19253200Y279400D02*
D03*
X18986501Y9283700D02*
D03*
X15265401Y7150100D02*
D03*
X11836400Y3479800D02*
D03*
X18110201Y9283700D02*
D03*
X22733000Y901700D02*
D03*
X22679660Y10469880D02*
D03*
X23063200Y8115300D02*
D03*
X22733000D02*
D03*
Y4533900D02*
D03*
X23063200D02*
D03*
X22679660Y3268980D02*
D03*
X22692360Y6850380D02*
D03*
X23063200Y901700D02*
D03*
X3486150Y3759200D02*
D03*
X16205200Y5676900D02*
D03*
X15875000D02*
D03*
X15278101D02*
D03*
X15582899D02*
D03*
X14973300D02*
D03*
X14681200D02*
D03*
X20447000Y8115300D02*
D03*
X20777200D02*
D03*
D80*
X17541403Y10536301D02*
D03*
X19085403D02*
D03*
X15623703D02*
D03*
X17167703D02*
D03*
D81*
X17741901Y10147300D02*
D03*
X18884900D02*
D03*
X15824200D02*
D03*
X16967200D02*
D03*
D82*
X3532901Y10078598D02*
D03*
X3786901Y5506598D02*
D03*
X4040901D02*
D03*
X4294901D02*
D03*
X4548901D02*
D03*
X4802901D02*
D03*
X5056901D02*
D03*
X5310901D02*
D03*
X5564901D02*
D03*
X5818901D02*
D03*
Y10078598D02*
D03*
X5564901D02*
D03*
X5310901D02*
D03*
X5056901D02*
D03*
X4802901D02*
D03*
X4548901D02*
D03*
X4294901D02*
D03*
X4040901D02*
D03*
X3786901D02*
D03*
X3532901Y5760598D02*
D03*
X3786901D02*
D03*
X4040901D02*
D03*
X4294901D02*
D03*
X4548901D02*
D03*
X4802901D02*
D03*
X5056901D02*
D03*
X5310901D02*
D03*
X5564901D02*
D03*
X5818901D02*
D03*
Y9824598D02*
D03*
X5564901D02*
D03*
X5310901D02*
D03*
X5056901D02*
D03*
X4802901D02*
D03*
X4548901D02*
D03*
X4294901D02*
D03*
X4040901D02*
D03*
X3786901D02*
D03*
X3532901D02*
D03*
X9882901Y5506598D02*
D03*
X10136901D02*
D03*
X10390901D02*
D03*
X10644901D02*
D03*
X10898901D02*
D03*
X11152901D02*
D03*
X11406901D02*
D03*
X11660901D02*
D03*
X11914901D02*
D03*
X12168901D02*
D03*
Y10078598D02*
D03*
X11914901D02*
D03*
X11660901D02*
D03*
X11406901D02*
D03*
X11152901D02*
D03*
X10898901D02*
D03*
X10644901D02*
D03*
X10390901D02*
D03*
X10136901D02*
D03*
X9882901D02*
D03*
Y5760598D02*
D03*
X10136901D02*
D03*
X10390901D02*
D03*
X10644901D02*
D03*
X10898901D02*
D03*
X11152901D02*
D03*
X11406901D02*
D03*
X11660901D02*
D03*
X11914901D02*
D03*
X12168901D02*
D03*
Y9824598D02*
D03*
X11914901D02*
D03*
X11660901D02*
D03*
X11406901D02*
D03*
X11152901D02*
D03*
X10898901D02*
D03*
X10644901D02*
D03*
X10390901D02*
D03*
X10136901D02*
D03*
X9882901D02*
D03*
X18757899Y1803400D02*
D03*
Y533400D02*
D03*
D83*
X3532901Y5506598D02*
D03*
D84*
X13272699Y4995799D02*
D03*
X13018700D02*
D03*
X12764699D02*
D03*
X12510699D02*
D03*
X12256699D02*
D03*
X12002699D02*
D03*
X11748699D02*
D03*
X11494699D02*
D03*
X11240699D02*
D03*
X10986699D02*
D03*
X10732699D02*
D03*
X10478699D02*
D03*
X10224699D02*
D03*
X9970699D02*
D03*
X9716699D02*
D03*
X3620699Y4741799D02*
D03*
Y4995799D02*
D03*
X3874699Y4741799D02*
D03*
Y4995799D02*
D03*
X4128699Y4741799D02*
D03*
Y4995799D02*
D03*
X4382699Y4741799D02*
D03*
Y4995799D02*
D03*
X4636699Y4741799D02*
D03*
Y4995799D02*
D03*
X4890699Y4741799D02*
D03*
Y4995799D02*
D03*
X5144699Y4741799D02*
D03*
Y4995799D02*
D03*
X5398699D02*
D03*
X5652699D02*
D03*
X5906699D02*
D03*
X6160699D02*
D03*
X6414699D02*
D03*
X6668699D02*
D03*
X6922699D02*
D03*
X7176699D02*
D03*
X7430699D02*
D03*
X7684699D02*
D03*
X7938699D02*
D03*
X8192699D02*
D03*
X8446699D02*
D03*
X8700699D02*
D03*
X8954699D02*
D03*
X9208699D02*
D03*
X9462699D02*
D03*
X3366699D02*
D03*
X13018700Y4741799D02*
D03*
X12764699D02*
D03*
X12510699D02*
D03*
X12256699D02*
D03*
X12002699D02*
D03*
X11748699D02*
D03*
X11494699D02*
D03*
X11240699D02*
D03*
X10986699D02*
D03*
X10732699D02*
D03*
X10478699D02*
D03*
X10224699D02*
D03*
X9970699D02*
D03*
X9716699D02*
D03*
X9462699D02*
D03*
X5398699D02*
D03*
X5652699D02*
D03*
X5906699D02*
D03*
X6160699D02*
D03*
X6414699D02*
D03*
X6668699D02*
D03*
X7176699D02*
D03*
X7430699D02*
D03*
X7684699D02*
D03*
X7938699D02*
D03*
X8192699D02*
D03*
X8446699D02*
D03*
X8700699D02*
D03*
X8954699D02*
D03*
X9208699D02*
D03*
X6922699D02*
D03*
X13272699D02*
D03*
X13271500Y10845800D02*
D03*
X13017500D02*
D03*
X12763500D02*
D03*
X12509500D02*
D03*
X12255500D02*
D03*
X12001500D02*
D03*
X11747500D02*
D03*
X11493500D02*
D03*
X11239500D02*
D03*
X10985500D02*
D03*
X10731500D02*
D03*
X10477500D02*
D03*
X10223500D02*
D03*
X9969500D02*
D03*
X9715500D02*
D03*
X3619500Y10591800D02*
D03*
Y10845800D02*
D03*
X3873500Y10591800D02*
D03*
Y10845800D02*
D03*
X4127500Y10591800D02*
D03*
Y10845800D02*
D03*
X4381500Y10591800D02*
D03*
Y10845800D02*
D03*
X4635500Y10591800D02*
D03*
Y10845800D02*
D03*
X4889500Y10591800D02*
D03*
Y10845800D02*
D03*
X5143500Y10591800D02*
D03*
Y10845800D02*
D03*
X5397500D02*
D03*
X5651500D02*
D03*
X5905500D02*
D03*
X6159500D02*
D03*
X6413500D02*
D03*
X6667500D02*
D03*
X6921500D02*
D03*
X7175500D02*
D03*
X7429500D02*
D03*
X7683500D02*
D03*
X7937500D02*
D03*
X8191500D02*
D03*
X8445500D02*
D03*
X8699500D02*
D03*
X8953500D02*
D03*
X9207500D02*
D03*
X9461500D02*
D03*
X3365500D02*
D03*
X13017500Y10591800D02*
D03*
X12763500D02*
D03*
X12509500D02*
D03*
X12255500D02*
D03*
X12001500D02*
D03*
X11747500D02*
D03*
X11493500D02*
D03*
X11239500D02*
D03*
X10985500D02*
D03*
X10731500D02*
D03*
X10477500D02*
D03*
X10223500D02*
D03*
X9969500D02*
D03*
X9715500D02*
D03*
X9461500D02*
D03*
X5397500D02*
D03*
X5651500D02*
D03*
X5905500D02*
D03*
X6159500D02*
D03*
X6413500D02*
D03*
X6667500D02*
D03*
X7175500D02*
D03*
X7429500D02*
D03*
X7683500D02*
D03*
X7937500D02*
D03*
X8191500D02*
D03*
X8445500D02*
D03*
X8699500D02*
D03*
X8953500D02*
D03*
X9207500D02*
D03*
X6921500D02*
D03*
X13271500D02*
D03*
D85*
X3366699Y4741799D02*
D03*
X3365500Y10591800D02*
D03*
D86*
X15146492Y3987800D02*
D03*
X15159192Y1981200D02*
D03*
X5232400Y952500D02*
D03*
X15159192Y787400D02*
D03*
X12623800D02*
D03*
X12649200Y1981200D02*
D03*
X5232400Y2095500D02*
D03*
D87*
X15417799Y3048000D02*
D03*
X21219455Y2870200D02*
D03*
X23495000Y6448598D02*
D03*
Y2870200D02*
D03*
X21219455Y6448598D02*
D03*
Y10058400D02*
D03*
X23495000D02*
D03*
D88*
X15162799Y3048000D02*
D03*
X14907797D02*
D03*
X20964455Y2870200D02*
D03*
X20709453D02*
D03*
X23239999Y6448598D02*
D03*
X22984998D02*
D03*
Y2870200D02*
D03*
X23239999D02*
D03*
X20964455Y6448598D02*
D03*
X20709453D02*
D03*
X18173700Y1803400D02*
D03*
Y279400D02*
D03*
X3454400Y1638300D02*
D03*
X2667000D02*
D03*
Y622300D02*
D03*
X3454400D02*
D03*
X17830800Y3619500D02*
D03*
X17043401D02*
D03*
X17830800Y2578100D02*
D03*
X17043401D02*
D03*
X20964455Y10058400D02*
D03*
X20709453D02*
D03*
X23239999D02*
D03*
X22984998D02*
D03*
D89*
X789798Y2342302D02*
D03*
X802498Y1351702D02*
D03*
X24635602Y3197677D02*
D03*
Y6779077D02*
D03*
Y10385879D02*
D03*
D90*
X17525600Y1892300D02*
D03*
X17017599D02*
D03*
X16611600D02*
D03*
X16103600D02*
D03*
X3187700Y2336800D02*
D03*
X2679700D02*
D03*
X2273701D02*
D03*
X1765701D02*
D03*
D91*
X13843002Y1358898D02*
D03*
X25019003Y380998D02*
D03*
X25019000Y11302998D02*
D03*
X13842999Y10325098D02*
D03*
X381005Y381000D02*
D03*
X381000Y11303000D02*
D03*
D92*
X23014650Y5575300D02*
D03*
Y9207500D02*
D03*
X20739101D02*
D03*
Y5575300D02*
D03*
X23014650Y1993900D02*
D03*
X20739101D02*
D03*
D93*
X23268649Y5575300D02*
D03*
X23522650D02*
D03*
X23268649Y9207500D02*
D03*
X23522650D02*
D03*
X20993100D02*
D03*
X21247099D02*
D03*
X20993100Y5575300D02*
D03*
X21247099D02*
D03*
X23268649Y1993900D02*
D03*
X23522650D02*
D03*
X20993100D02*
D03*
X21247099D02*
D03*
D94*
X19329401Y1549400D02*
D03*
Y762000D02*
D03*
X19405600Y3937000D02*
D03*
X11506200Y3931920D02*
D03*
X14236700Y5168900D02*
D03*
X19380200Y10464800D02*
D03*
X8178800Y3352800D02*
D03*
Y3619500D02*
D03*
X10020300Y3911600D02*
D03*
X20777200Y7378700D02*
D03*
X20739101Y10998200D02*
D03*
Y3784600D02*
D03*
X20639297Y3276600D02*
D03*
X20613898Y6896100D02*
D03*
X20624800Y10464800D02*
D03*
X14389101Y4800600D02*
D03*
X17145000Y7416800D02*
D03*
X19195129Y5549900D02*
D03*
X19189700Y6083300D02*
D03*
Y6578600D02*
D03*
X16043051Y7248342D02*
D03*
X16040100Y7581900D02*
D03*
X16052800Y7886700D02*
D03*
X16738600Y9334500D02*
D03*
Y9144000D02*
D03*
X20066000Y10947400D02*
D03*
Y7378700D02*
D03*
X20015199Y3784600D02*
D03*
X16042497Y6946900D02*
D03*
X7102587Y3905519D02*
D03*
X7140687Y3613419D02*
D03*
Y3346719D02*
D03*
X16738600Y5219700D02*
D03*
X16967429Y5217582D02*
D03*
X17196255D02*
D03*
X17425082D02*
D03*
X17653909D02*
D03*
X17882738D02*
D03*
X18149438Y4612218D02*
D03*
X18424327D02*
D03*
X18961099Y4584700D02*
D03*
X11074400Y3657600D02*
D03*
X10007600Y3365500D02*
D03*
Y3632200D02*
D03*
X11074400Y3378200D02*
D03*
X8699500Y3943619D02*
D03*
X20078700Y11188700D02*
D03*
X20066000Y7620000D02*
D03*
X20015199Y4038600D02*
D03*
%TF.MD5,d703c8b3de8ad011db9861d6f3db4ab0*%
M02*
